Place,Name,Division,Age,Sex,BodyweightKg,WeightClassKg,Country,Squat1Kg,Squat2Kg,Squat3Kg,Best3SquatKg,Squat4Kg,Bench1Kg,Bench2Kg,Bench3Kg,Best3BenchKg,Bench4Kg,Deadlift1Kg,Deadlift2Kg,Deadlift3Kg,Best3DeadliftKg,Deadlift4Kg,TotalKg,Equipment,Event
1,Anastasiya Gavrichenko,Amateur Tested Juniors 20-23,22,F,47.3,48,Russia,60,70,-75,70,,35,42.5,-45,42.5,,60,70,80,80,,192.5,Wraps,SBD
1,Olga Tsivinskaya,Amateur Tested Open,27,F,47.6,48,Russia,90,-100,-100,90,,52.5,-57.5,-60,52.5,,90,100,-107.5,100,,242.5,Wraps,SBD
DQ,Liliya Smirnova,Amateur Tested Open,42,F,47.9,48,Russia,-95,-100,-100,,,,,,,,,,,,,,Wraps,SBD
1,Veronika Lebedeva,Amateur Tested Open,26,F,50.7,52,Russia,-90,90,-100,90,,65,67.5,70,70,,110,120,125,125,,285,Wraps,SBD
2,Olga Koltsova,Amateur Tested Open,32,F,49.9,52,Russia,77.5,82.5,87.5,87.5,,-57.5,57.5,62.5,62.5,,100,105,110,110,,260,Wraps,SBD
3,Valentina Pachina,Amateur Tested Open,25,F,50.6,52,Russia,100,105,-110,105,,-52.5,57.5,60,60,,95,-100,-105,95,,260,Wraps,SBD
1,Svetlana Zapolskikh,Amateur Tested Sub Juniors 13-16,15,F,52.6,56,Russia,-60,60,85,85,,30,35,37.5,37.5,,55,65,77.5,77.5,,200,Wraps,SBD
1,Yuliya Kupriyanova,Amateur Tested Juniors 20-23,22,F,54.9,56,Russia,70,75,-80,75,,42.5,45,47.5,47.5,,65,72.5,80,80,,202.5,Wraps,SBD
DQ,Irina Vorotnikova,Amateur Tested Juniors 20-23,22,F,55,56,Russia,-65,-65,-65,,,,,,,,,,,,,,Wraps,SBD
1,Yelena Grigoryeva,Amateur Tested Open,39,F,54.5,56,Russia,115,-120,125,125,,60,62.5,65,65,,120,125,130,130,,320,Wraps,SBD
2,Varvara Kukina,Amateur Tested Open,24,F,54.4,56,Russia,105,-112.5,112.5,112.5,,45,50,52.5,52.5,,105,115,-125,115,,280,Wraps,SBD
1,Nara Petrosyan,Amateur Tested Juniors 20-23,23,F,58.7,60,Russia,-105,-110,110,110,,-55,55,57.5,57.5,,105,-107.5,107.5,107.5,,275,Wraps,SBD
1,Natalya Abkadyrova,Amateur Tested Open,27,F,59.7,60,Russia,110,117.5,-125,117.5,,57.5,-62.5,62.5,62.5,,110,117.5,-125,117.5,,297.5,Wraps,SBD
2,Oksana Baturova,Amateur Tested Open,32,F,58.2,60,Russia,-77.5,-77.5,77.5,77.5,,57.5,60,62.5,62.5,,110,115,120,120,,260,Wraps,SBD
1,Yekaterina Obvintseva,Amateur Tested Sub Juniors 13-16,14,F,64.1,67.5,Russia,100,105,110,110,,45,-52.5,-52.5,45,,100,107.5,112.5,112.5,,267.5,Wraps,SBD
1,Yekaterina Yakubovskaya,Amateur Tested Sub Juniors 17-19,19,F,65.7,67.5,Russia,80,90,105,105,,40,47.5,-50,47.5,,80,90,105,105,,257.5,Wraps,SBD
1,Svetlana Maletskaya,Amateur Tested Open,32,F,67.5,67.5,Russia,132.5,142.5,147.5,147.5,,72.5,77.5,80,80,,142.5,147.5,152.5,152.5,,380,Wraps,SBD
2,Oksana Fomenko,Amateur Tested Open,27,F,67.4,67.5,Russia,-115,125,130,130,,65,-70,-70,65,,145,-152.5,152.5,152.5,,347.5,Wraps,SBD
1,Anna Rapoport,Amateur Tested Masters 40-49,44,F,67.5,67.5,Russia,-100,100,-110,100,,50,52.5,55,55,,130,140,-145,140,,295,Wraps,SBD
1,Shanny Ho,Amateur Tested Open,26,F,74.9,75,Australia,120,-125,125,125,,65,67.5,70,70,,150,157.5,162.5,162.5,,357.5,Wraps,SBD
1,Kseniya Khlebunova,Amateur Tested Juniors 20-23,23,F,85,90,Russia,120,-140,-140,120,,55,60,-62.5,60,,140,-152.5,-152.5,140,,320,Wraps,SBD
1,Yekaterina Antukh,Amateur Tested Sub Juniors 13-16,15,F,96.3,90+,Russia,110,120,-125,120,,45,47.5,50,50,,110,120,125,125,,295,Wraps,SBD
1,Vladimir Burnashov,Amateur Tested Sub Juniors 13-16,13,M,50.4,52,Russia,130,-135,137.5,137.5,,67.5,70,72.5,72.5,,140,-147.5,-147.5,140,,350,Wraps,SBD
1,Nikita Polyanskiy,Amateur Tested Sub Juniors 17-19,19,M,58.9,60,Russia,130,140,-147.5,140,,70,-75,-75,70,,140,150,-155,150,,360,Wraps,SBD
1,Nikita Tremaskin,Amateur Tested Sub Juniors 13-16,16,M,65.7,67.5,Russia,100,120,-130,120,,65,70,75,75,,140,155,-162.5,155,,350,Wraps,SBD
2,Ayk Andriasyan,Amateur Tested Sub Juniors 13-16,14,M,65.1,67.5,Russia,-120,125,-135,125,,75,-80,80,80,,115,120,-130,120,,325,Wraps,SBD
1,Semen Tkachev,Amateur Tested Juniors 20-23,21,M,65.7,67.5,Russia,160,170,180,180,,85,-95,-95,85,,165,-180,-180,165,,430,Wraps,SBD
2,Mikhail Linov,Amateur Tested Juniors 20-23,22,M,67.5,67.5,Russia,140,150,-162.5,150,,90,-100,-100,90,,130,140,150,150,,390,Wraps,SBD
1,Sergey Volodarskiy,Amateur Tested Open,26,M,63.4,67.5,Russia,200,-215,215,215,,122.5,-127.5,127.5,127.5,,215,230,-242.5,230,,572.5,Wraps,SBD
2,Shirur Ragimov,Amateur Tested Open,30,M,66.7,67.5,Russia,-190,205,210,210,,120,127.5,130,130,,200,210,220,220,,560,Wraps,SBD
3,Yevgeniy Vnukov,Amateur Tested Open,26,M,62.8,67.5,Russia,145,155,-165,155,,90,97.5,-105,97.5,,140,155,165,165,,417.5,Wraps,SBD
1,Saveliy Fadin,Amateur Tested Sub Juniors 17-19,17,M,72.8,75,Russia,-160,170,180,180,,95,-100,-100,95,,160,170,175,175,,450,Wraps,SBD
1,Vladislav Kichuk,Amateur Tested Juniors 20-23,20,M,72.1,75,Russia,220,230,240,240,,160,-170,-170,160,,-220,235,250,250,,650,Wraps,SBD
2,Aleksandr Romashin,Amateur Tested Juniors 20-23,22,M,74.8,75,Russia,190,-205,205,205,,115,-120,-120,115,,220,-230,-230,220,,540,Wraps,SBD
1,Yaroslav Nekrasov,Amateur Tested Open,28,M,74.2,75,Russia,200,210,-220,210,,130,145,-152.5,145,,190,220,235,235,,590,Wraps,SBD
2,Dmitriy Yarmukhametov,Amateur Tested Open,36,M,74.2,75,Russia,160,177.5,182.5,182.5,,105,112.5,115,115,,190,212.5,-220,212.5,,510,Wraps,SBD
1,Aleksandr Redkin,Amateur Tested Sub Juniors 13-16,16,M,79.7,82.5,Russia,180,192.5,205,205,,90,97.5,-105,97.5,,180,-187.5,,180,,482.5,Wraps,SBD
1,Stanislav Tsymbarenko,Amateur Tested Sub Juniors 17-19,17,M,78.8,82.5,Russia,175,190,-205,190,,117.5,122.5,-127.5,122.5,,200,215,225,225,,537.5,Wraps,SBD
2,Artem Ulanov,Amateur Tested Sub Juniors 17-19,19,M,78.6,82.5,Russia,195,-205,-205,195,,-95,95,-100,95,,190,200,212.5,212.5,,502.5,Wraps,SBD
3,Igor Podkopayev,Amateur Tested Sub Juniors 17-19,18,M,81.3,82.5,Russia,-160,160,170,170,,100,110,115,115,,190,-205,210,210,,495,Wraps,SBD
1,Maksim Koval,Amateur Tested Juniors 20-23,23,M,80.6,82.5,Ukraine,235,245,252.5,252.5,,-135,137.5,-142.5,137.5,,260,270,-275,270,,660,Wraps,SBD
2,Artem Bespalov,Amateur Tested Juniors 20-23,22,M,82.1,82.5,Russia,235,250,260,260,,120,-130,-130,120,,225,235,245,245,,625,Wraps,SBD
3,Daniil Kryukov,Amateur Tested Juniors 20-23,20,M,79.9,82.5,Russia,140,155,-165,155,,120,-127.5,-127.5,120,,200,215,-222.5,215,,490,Wraps,SBD
1,Ivan Karangin,Amateur Tested Open,30,M,79.6,82.5,Russia,255,-267.5,270,270,,155,162.5,-170,162.5,,235,250,-257.5,250,,682.5,Wraps,SBD
2,Aleksandr Miranovich,Amateur Tested Open,29,M,81,82.5,Russia,200,215,220,220,,140,150,155,155,,190,200,-207.5,200,,575,Wraps,SBD
3,Roman Sekelchuk,Amateur Tested Open,27,M,80.9,82.5,Russia,185,-195,195,195,,130,135,140,140,,185,200,210,210,,545,Wraps,SBD
4,Andrey Bykov,Amateur Tested Open,26,M,78.1,82.5,Russia,-150,150,-155,150,,110,117.5,120,120,,205,-215,215,215,,485,Wraps,SBD
5,Kirill Mikhaylov,Amateur Tested Open,26,M,80.8,82.5,Russia,200,-210,-210,200,,100,-110,-110,100,,170,-200,-200,170,,470,Wraps,SBD
1,Andrey Malyuzhenko,Amateur Tested Sub Juniors 17-19,19,M,88,90,Russia,250,260,-270,260,,130,140,-150,140,,230,240,250,250,,650,Wraps,SBD
2,Denis Goncharov,Amateur Tested Sub Juniors 17-19,19,M,89.1,90,Russia,220,235,-245,235,,115,-122.5,-122.5,115,,210,222.5,-230,222.5,,572.5,Wraps,SBD
3,Selimkhan Magamedkhanov,Amateur Tested Sub Juniors 17-19,18,M,89.7,90,Russia,160,175,185,185,,120,127.5,132.5,132.5,,180,200,210,210,,527.5,Wraps,SBD
4,Dmitriy Kalinin,Amateur Tested Sub Juniors 17-19,19,M,86.7,90,Russia,165,-175,-175,165,,110,-115,-115,110,,185,200,,200,,475,Wraps,SBD
5,Nikita Yevdokimov,Amateur Tested Sub Juniors 17-19,17,M,85.5,90,Latvia,140,-150,-150,140,,100,-105,-105,100,,160,,,160,,400,Wraps,SBD
1,Pavel Maykhov,Amateur Tested Juniors 20-23,21,M,84.2,90,Russia,170,180,-187.5,180,,105,110,,110,,180,190,200,200,,490,Wraps,SBD
1,Dmitriy Sevostyanov,Amateur Tested Open,26,M,88.3,90,Russia,220,235,-242.5,235,,170,177.5,-182.5,177.5,,240,250,255,255,,667.5,Wraps,SBD
2,Anatoliy Gudin,Amateur Tested Open,25,M,87.9,90,Russia,215,230,240,240,,-165,165,-172.5,165,,-230,230,240,240,,645,Wraps,SBD
3,Aleksandr Zavyalov,Amateur Tested Open,36,M,88.4,90,Russia,215,225,230,230,,155,165,170,170,,210,220,230,230,,630,Wraps,SBD
4,Pavel Lelikov,Amateur Tested Open,24,M,86.4,90,Russia,210,230,240,240,,125,-140,-140,125,,-220,220,240,240,,605,Wraps,SBD
5,Dmitriy Sobtsov,Amateur Tested Open,24,M,87.6,90,Russia,190,205,212.5,212.5,,140,152.5,160,160,,200,220,232.5,232.5,,605,Wraps,SBD
6,Aleksandr Rodionov,Amateur Tested Open,29,M,88,90,Russia,200,-212.5,-212.5,200,,130,135,140,140,,210,230,-240,230,,570,Wraps,SBD
7,Dmitriy Zhukov,Amateur Tested Open,38,M,87.6,90,Russia,190,205,-215,205,,135,142.5,145,145,,190,207.5,-215,207.5,,557.5,Wraps,SBD
8,Mikhail Kapsulev,Amateur Tested Open,25,M,89.8,90,Russia,190,-200,200,200,,-135,135,-145,135,,200,215,222.5,222.5,,557.5,Wraps,SBD
9,Denis Balabin,Amateur Tested Open,37,M,87.9,90,Russia,180,195,-205,195,,120,127.5,-132.5,127.5,,200,220,225,225,,547.5,Wraps,SBD
DQ,Denis Bokov,Amateur Tested Open,26,M,87,90,Russia,-175,-175,175,175,,-137.5,-137.5,-137.5,,,,,,,,,Wraps,SBD
1,Yevgeniy Syuzyumov,Amateur Tested Sub Juniors 17-19,18,M,96.8,100,Russia,235,245,-255,245,,140,150,-160,150,,265,,280,280,,675,Wraps,SBD
1,Dmitriy Funk,Amateur Tested Juniors 20-23,21,M,92.8,100,Russia,245,-260,260,260,,150,160,-167.5,160,,240,255,-260,255,,675,Wraps,SBD
2,Yakov Moskalenko,Amateur Tested Juniors 20-23,22,M,92.2,100,Russia,150,165,175,175,,120,135,140,140,,180,195,200,200,,515,Wraps,SBD
DQ,Roman Terushkin,Amateur Tested Juniors 20-23,21,M,96.5,100,Russia,-190,-200,-200,,,,,,,,,,,,,,Wraps,SBD
1,Artem Reshetnikov,Amateur Tested Open,26,M,99.7,100,Russia,255,270,280,280,,175,-185,-185,175,,275,290,-295,290,,745,Wraps,SBD
2,Andrey Kirindyasov,Amateur Tested Open,27,M,96.5,100,Russia,230,245,-260,245,,150,167.5,175,175,,210,220,230,230,,650,Wraps,SBD
3,Andrey Sasyk,Amateur Tested Open,28,M,98.1,100,Russia,205,-215,215,215,,-155,157.5,,157.5,,225,235,242.5,242.5,,615,Wraps,SBD
4,Aleksandr Larin,Amateur Tested Open,25,M,93.5,100,Russia,210,225,232.5,232.5,,125,132.5,137.5,137.5,,-205,205,220,220,,590,Wraps,SBD
5,Oleg Savchenko,Amateur Tested Open,26,M,94.7,100,Russia,200,210,215,215,,130,140,145,145,,190,200,205,205,,565,Wraps,SBD
DQ,Maksim Vorotovov,Amateur Tested Open,32,M,98.8,100,Russia,150,160,170,170,,-110,-110,-110,,,,,,,,,Wraps,SBD
1,Andrey Sukharev,Amateur Tested Masters 40-49,41,M,98.5,100,Russia,225,235,240,240,,157.5,162.5,-167.5,162.5,,215,225,235,235,,637.5,Wraps,SBD
1,Murat Dzhaytabarov,Amateur Tested Masters 50-59,52,M,98.7,100,Kazakhstan,140,150,160,160,,130,140,-145,140,,140,160,180,180,,480,Wraps,SBD
1,Dmitriy Trushkov,Amateur Tested Juniors 20-23,23,M,108.8,110,Belarus,250,260,-270,260,,170,-175,-175,170,,230,245,,245,,675,Wraps,SBD
1,Nikita Tulyakov,Amateur Tested Open,27,M,107.2,110,Russia,-220,220,240,240,,160,170,180,180,,220,240,255,255,,675,Wraps,SBD
2,Stanislav Karpov,Amateur Tested Open,33,M,101.4,110,Russia,210,-220,220,220,,150,155,157.5,157.5,,250,260,-282.5,260,,637.5,Wraps,SBD
3,Vasiliy Sytnik,Amateur Tested Open,28,M,107.6,110,Russia,180,200,-210,200,,130,140,-150,140,,220,240,-250,240,,580,Wraps,SBD
1,Igor Zaytsev,Amateur Tested Masters 40-49,45,M,110,110,Russia,205,215,-217.5,215,,135,-140,-140,135,,210,225,-240,225,,575,Wraps,SBD
1,Andrey Shishkin,Amateur Tested Masters 50-59,53,M,107.4,110,Russia,185,230,-242.5,230,,105,120,130,130,,185,232.5,250,250,,610,Wraps,SBD
2,Marat Dzhaylaubaev,Amateur Tested Masters 50-59,59,M,103.3,110,Kazakhstan,130,,,130,,120,125,130,130,,130,135,140,140,,400,Wraps,SBD
1,Aleksandr Deryabin,Amateur Tested Sub Juniors 17-19,18,M,116.7,125,Russia,200,215,-230,215,,120,130,135,135,,170,190,210,210,,560,Wraps,SBD
DQ,Ivan Serzhantov,Amateur Tested Sub Juniors 17-19,19,M,124.8,125,Russia,-300,-300,300,300,,190,200,-205,200,,-280,-280,-280,,,,Wraps,SBD
1,Vladimir Sosyuk,Amateur Tested Open,34,M,119.3,125,Ukraine,275,300,310,310,,170,180,-190,180,,275,295,305,305,,795,Wraps,SBD
2,Sergey Golovkov,Amateur Tested Open,35,M,121.4,125,Russia,230,250,260,260,,175,182.5,185,185,,260,272.5,275,275,,720,Wraps,SBD
3,Aleksey Stepanchenko,Amateur Tested Open,27,M,123.7,125,Russia,210,220,225,225,,140,147.5,152.5,152.5,,220,230,240,240,,617.5,Wraps,SBD
1,Aleksey Kozishnikov,Amateur Tested Masters 40-49,42,M,123.3,125,Russia,-265,265,-280,265,,175,182.5,190,190,,260,275,285,285,,740,Wraps,SBD
1,Vladimir Druker,Amateur Tested Masters 60-69,65,M,112.5,125,Russia,185,-195,-200,185,,145,152.5,,152.5,,190,202.5,210,210,,547.5,Wraps,SBD
1,Dmitriy Dluzhnevskiy,Amateur Tested Open,32,M,139.5,140,Russia,270,290,-300,290,,165,-180,-180,165,,240,260,275,275,,730,Wraps,SBD
2,Maksim Lukin,Amateur Tested Open,33,M,127.2,140,Russia,-165,165,175,175,,130,135,-140,135,,172.5,185,200,200,,510,Wraps,SBD
1,Maksim Nekrylov,Amateur Tested Open,30,M,149.4,140+,Russia,200,-215,215,215,,130,140,-150,140,,215,230,250,250,,605,Wraps,SBD
1,Anastasiya Shkuratova,Amateur Tested Juniors,21,F,42.1,44,Russia,,,,,,42.5,45,-47.5,45,,,,,,,45,Raw,B
1,Anastasiya Dzyuba,Amateur Tested Sub Juniors 13-16,12,F,47,48,Russia,,,,,,55,60,62.5,62.5,,,,,,,62.5,Raw,B
1,Anastasiya Gavrichenko,Amateur Tested Juniors 20-23,22,F,47.2,48,Russia,,,,,,35,42.5,,42.5,,,,,,,42.5,Raw,B
1,Svetlana Fatyukhina,Amateur Tested Juniors 20-23,21,F,49,52,Russia,,,,,,-57.5,60,-65,60,,,,,,,60,Raw,B
1,Veronika Lebedeva,Amateur Tested Open,26,F,50.7,52,Russia,,,,,,70,,,70,,,,,,,70,Raw,B
2,Lyubov Chernina,Amateur Tested Open,29,F,51.5,52,Russia,,,,,,50,55,-57.5,55,,,,,,,55,Raw,B
1,Svetlana Zapolskikh,Amateur Tested Sub Juniors 13-16,15,F,52.6,56,Russia,,,,,,30,35,,35,,,,,,,35,Raw,B
1,Irina Shchurova,Amateur Tested Sub Juniors 17-19,19,F,54.6,56,Russia,,,,,,50,-55,-55,50,,,,,,,50,Raw,B
1,Yuliya Kirillova,Amateur Tested Juniors 20-23,22,F,54.4,56,Belarus,,,,,,55,-60,60,60,,,,,,,60,Raw,B
1,Irina Morozova,Amateur Tested Open,28,F,54.6,56,Russia,,,,,,75,-77.5,-77.5,75,,,,,,,75,Raw,B
2,Yuliya Golovkina,Amateur Tested Open,38,F,55.6,56,Ukraine,,,,,,70,72.5,-77.5,72.5,,,,,,,72.5,Raw,B
1,Lyudmila Naumenko,Amateur Tested Masters 50-59,50,F,53.4,56,Russia,,,,,,52.5,57.5,62.5,62.5,,,,,,,62.5,Raw,B
1,Svetlana Morozova,Amateur Tested Sub Juniors 13-16,16,F,59.3,60,Russia,,,,,,77.5,-85,-85,77.5,,,,,,,77.5,Raw,B
1,Yekaterina Dudareva,Amateur Tested Juniors 20-23,22,F,58.6,60,Russia,,,,,,72.5,-77.5,-77.5,72.5,,,,,,,72.5,Raw,B
1,Alla Lomako,Amateur Tested Open,35,F,58.2,60,Belarus,,,,,,85,90,-95,90,,,,,,,90,Raw,B
1,Anastasiya Daniel,Amateur Tested Sub Juniors 13-16,16,F,64.6,67.5,Belarus,,,,,,67.5,-72.5,-75,67.5,,,,,,,67.5,Raw,B
1,Yelena Mazavina,Amateur Tested Open,36,F,67.5,67.5,Russia,,,,,,-80,80,85,85,,,,,,,85,Raw,B
2,Natalya Vityuk,Amateur Tested Open,32,F,66.1,67.5,Belarus,,,,,,65,70,75,75,,,,,,,75,Raw,B
1,Lyudmila Dokuchayeva,Amateur Tested Open,38,F,75.9,82.5,Russia,,,,,,92.5,97.5,100,100,,,,,,,100,Raw,B
1,Vladimir Domnin,Amateur Tested Juniors 20-23,20,M,55.3,56,Russia,,,,,,95,97.5,-102.5,97.5,,,,,,,97.5,Raw,B
1,Sergey Morozov,Amateur Tested Sub Juniors 13-16,16,M,59.5,60,Russia,,,,,,120,125,127.5,127.5,,,,,,,127.5,Raw,B
1,Oleg Vashchenko,Amateur Tested Open,35,M,59.1,60,Russia,,,,,,90,97.5,105,105,,,,,,,105,Raw,B
1,Danil Serbin,Amateur Tested Sub Juniors 13-16,15,M,66.6,67.5,Russia,,,,,,-97.5,102.5,107.5,107.5,,,,,,,107.5,Raw,B
1,Aleksey Gritsan,Amateur Tested Juniors 20-23,23,M,66.4,67.5,Russia,,,,,,120,125,-130,125,,,,,,,125,Raw,B
1,Sultan Kugotov,Amateur Tested Open,25,M,66.2,67.5,Russia,,,,,,142.5,147.5,150,150,-155,,,,,,150,Raw,B
2,Dmitriy Boriseko,Amateur Tested Open,27,M,66.4,67.5,Russia,,,,,,137.5,142.5,145,145,,,,,,,145,Raw,B
3,Aleksandr Romankov,Amateur Tested Open,33,M,67,67.5,Belarus,,,,,,142.5,145,-147.5,145,,,,,,,145,Raw,B
4,Sergey Tochilov,Amateur Tested Open,28,M,67.2,67.5,Russia,,,,,,127.5,135,140,140,,,,,,,140,Raw,B
5,Anton Gunenko,Amateur Tested Open,31,M,66.7,67.5,Russia,,,,,,125,-130,130,130,,,,,,,130,Raw,B
1,Valeriy Kimmel,Amateur Tested Masters 40-49,43,M,66.3,67.5,Russia,,,,,,130,135,-137.5,135,,,,,,,135,Raw,B
1,Ilya Medvedev,Amateur Tested Sub Juniors 13-16,16,M,72.4,75,Russia,,,,,,100,105,-107.5,105,,,,,,,105,Raw,B
2,Viktor Fedotov,Amateur Tested Sub Juniors 13-16,13,M,75,75,Russia,,,,,,70,75,80,80,,,,,,,80,Raw,B
1,Vladislav Gerasimov,Amateur Tested Sub Juniors 17-19,18,M,72.3,75,Russia,,,,,,-132.5,135,137.5,137.5,,,,,,,137.5,Raw,B
2,Oleg Frolov,Amateur Tested Sub Juniors 17-19,17,M,74.4,75,Belarus,,,,,,120,130,-137.5,130,,,,,,,130,Raw,B
1,Igor Pribytov,Amateur Tested Juniors 20-23,22,M,73.9,75,Russia,,,,,,125,130,-135,130,,,,,,,130,Raw,B
2,Sergey Yanchenko,Amateur Tested Juniors 20-23,22,M,72.6,75,Russia,,,,,,117.5,122.5,125,125,,,,,,,125,Raw,B
1,Nikolay Bletko,Amateur Tested Open,24,M,73.9,75,Belarus,,,,,,170,177.5,-180,177.5,,,,,,,177.5,Raw,B
2,Ilya Varshavskiy,Amateur Tested Open,24,M,73.8,75,Russia,,,,,,165,170,172.5,172.5,,,,,,,172.5,Raw,B
3,Denis Sokov,Amateur Tested Open,30,M,73,75,Russia,,,,,,-170,170,-177.5,170,,,,,,,170,Raw,B
4,Artur Minasyan,Amateur Tested Open,27,M,74.9,75,Russia,,,,,,140,-145,-145,140,,,,,,,140,Raw,B
5,Andrey Smurov,Amateur Tested Open,25,M,72.9,75,Russia,,,,,,127.5,-135,-135,127.5,,,,,,,127.5,Raw,B
DQ,Kamil Tetuyev,Amateur Tested Open,25,M,73.3,75,Russia,,,,,,-145,-145,-155,,,,,,,,,Raw,B
1,Vladimir Ovcharov,Amateur Tested Masters 40-49,43,M,74.2,75,Russia,,,,,,125,135,140,140,,,,,,,140,Raw,B
2,Oleg Vinokurov,Amateur Tested Masters 40-49,49,M,74.4,75,Russia,,,,,,110,115,-117.5,115,,,,,,,115,Raw,B
1,Oleg Novikov,Amateur Tested Masters 50-59,59,M,74.2,75,Russia,,,,,,135,140,-142.5,140,,,,,,,140,Raw,B
1,Ruslan Itkulov,Amateur Tested Sub Juniors 17-19,19,M,79.9,82.5,Russia,,,,,,140,150,-155,150,,,,,,,150,Raw,B
1,Yevgeniy Zhitomirskiy,Amateur Tested Juniors 20-23,23,M,81.7,82.5,Russia,,,,,,180,185,-190,185,,,,,,,185,Raw,B
2,Aleksandr Boldinov,Amateur Tested Juniors 20-23,23,M,81.4,82.5,Russia,,,,,,157.5,-162.5,-162.5,157.5,,,,,,,157.5,Raw,B
3,Roman Nazarov,Amateur Tested Juniors 20-23,20,M,80.5,82.5,Russia,,,,,,-152.5,155,-157.5,155,,,,,,,155,Raw,B
DQ,Kirill Ketov,Amateur Tested Juniors 20-23,20,M,79.9,82.5,Russia,,,,,,-127.5,-127.5,-127.5,,,,,,,,,Raw,B
1,Andrey Sapozhonkov,Amateur Tested Open,28,M,79.1,82.5,Russia,,,,,,225,-235,235,235,,,,,,,235,Raw,B
2,Ilya Pankratov,Amateur Tested Open,28,M,81.4,82.5,Russia,,,,,,192.5,-200,-200,192.5,,,,,,,192.5,Raw,B
3,Yuriy Litvinenko,Amateur Tested Open,26,M,79,82.5,Russia,,,,,,145,150,-155,150,,,,,,,150,Raw,B
4,Petr Federyagin,Amateur Tested Open,31,M,81.1,82.5,Russia,,,,,,145,150,-155,150,,,,,,,150,Raw,B
5,Roman Aleshintsev,Amateur Tested Open,28,M,79.3,82.5,Russia,,,,,,130,140,145,145,,,,,,,145,Raw,B
6,Ivan Semenikhin,Amateur Tested Open,24,M,81.5,82.5,Russia,,,,,,137.5,145,-152.5,145,,,,,,,145,Raw,B
7,Pavel Ushakov,Amateur Tested Open,28,M,80,82.5,Russia,,,,,,140,-145,-145,140,,,,,,,140,Raw,B
8,Oleg Shilkin,Amateur Tested Open,28,M,79.6,82.5,Russia,,,,,,127.5,137.5,-145,137.5,,,,,,,137.5,Raw,B
1,Eduard Sotnikov,Amateur Tested Masters 40-49,48,M,82.2,82.5,Russia,,,,,,150,-155,-155,150,,,,,,,150,Raw,B
2,Yuriy Kruchinin,Amateur Tested Masters 40-49,44,M,82,82.5,Russia,,,,,,-140,-140,140,140,,,,,,,140,Raw,B
3,Yevgeniy Koltsov,Amateur Tested Masters 40-49,48,M,77.7,82.5,Russia,,,,,,-110,110,120,120,,,,,,,120,Raw,B
1,David Matevosyan,Amateur Tested Sub Juniors 17-19,19,M,88.2,90,Russia,,,,,,180,190,-195,190,,,,,,,190,Raw,B
1,Maksim Yudin,Amateur Tested Juniors 20-23,22,M,85.5,90,Russia,,,,,,152.5,160,,160,,,,,,,160,Raw,B
2,Andrey Malkov,Amateur Tested Juniors 20-23,22,M,87.2,90,Russia,,,,,,-140,140,-152.5,140,,,,,,,140,Raw,B
3,Ivan Grigoryev,Amateur Tested Juniors 20-23,22,M,89.5,90,Russia,,,,,,110,115,-120,115,,,,,,,115,Raw,B
1,Andrey Svidin,Amateur Tested Open,35,M,87.5,90,Russia,,,,,,175,185,-200,185,,,,,,,185,Raw,B
2,Aleksey Ozerov,Amateur Tested Open,32,M,88,90,Russia,,,,,,175,180,-182.5,180,,,,,,,180,Raw,B
3,Anton Kovalchuk,Amateur Tested Open,25,M,89.4,90,Russia,,,,,,162.5,-170,170,170,,,,,,,170,Raw,B
4,Pavel Petrov,Amateur Tested Open,32,M,86.9,90,Russia,,,,,,157.5,-162.5,-162.5,157.5,,,,,,,157.5,Raw,B
5,Aleksey Blagov,Amateur Tested Open,29,M,87.4,90,Russia,,,,,,147.5,152.5,-155,152.5,,,,,,,152.5,Raw,B
6,Andrey Sivkov,Amateur Tested Open,33,M,89,90,Russia,,,,,,142.5,-152.5,152.5,152.5,,,,,,,152.5,Raw,B
7,Denis Vovk,Amateur Tested Open,25,M,88.5,90,Russia,,,,,,150,-155,-155,150,,,,,,,150,Raw,B
8,Aleksandr Sirotkin,Amateur Tested Open,29,M,88.2,90,Russia,,,,,,142.5,147.5,-152.5,147.5,,,,,,,147.5,Raw,B
9,Rustam Bogoutdinov,Amateur Tested Open,33,M,85.7,90,Russia,,,,,,137.5,145,-152.5,145,,,,,,,145,Raw,B
10,Timur Alimov,Amateur Tested Open,24,M,88.1,90,Russia,,,,,,132.5,-135,135,135,,,,,,,135,Raw,B
11,Albert Zkriyev,Amateur Tested Open,29,M,86.8,90,Russia,,,,,,127.5,132.5,-137.5,132.5,,,,,,,132.5,Raw,B
12,Aleksandr Nazarov,Amateur Tested Open,26,M,88.5,90,Russia,,,,,,-122.5,122.5,-132.5,122.5,,,,,,,122.5,Raw,B
DQ,Sergey Ushakov,Amateur Tested Open,26,M,87.6,90,Russia,,,,,,-152.5,-152.5,-152.5,,,,,,,,,Raw,B
DQ,Rafik Geybatov,Amateur Tested Open,33,M,87.7,90,Russia,,,,,,-110,-120,-120,,,,,,,,,Raw,B
DQ,Vadim Vyatkin,Amateur Tested Open,26,M,89.5,90,Russia,,,,,,-130,-130,,,,,,,,,,Raw,B
1,Yevgeniy Shvetsov,Amateur Tested Masters 40-49,40,M,88.7,90,Russia,,,,,,152.5,160,167.5,167.5,,,,,,,167.5,Raw,B
2,Aleksandr Tyulenev,Amateur Tested Masters 40-49,47,M,89.6,90,Russia,,,,,,140,147.5,155,155,,,,,,,155,Raw,B
1,Valeriy Krolevskiy,Amateur Tested Masters 50-59,54,M,87.4,90,Russia,,,,,,110,115,-120,115,,,,,,,115,Raw,B
2,Aleksandr Rogalev,Amateur Tested Masters 50-59,58,M,83.7,90,Russia,,,,,,90,95,100,100,,,,,,,100,Raw,B
1,Anatoliy Pavlenko,Amateur Tested Masters 60-69,64,M,90,90,Russia,,,,,,107.5,-112.5,-112.5,107.5,,,,,,,107.5,Raw,B
1,Arsenij Fedorov,Amateur Tested Sub Juniors 17-19,18,M,99.5,100,Russia,,,,,,175,190,200,200,,,,,,,200,Raw,B
2,Mihail Artemov,Amateur Tested Sub Juniors 17-19,17,M,92.5,100,Russia,,,,,,180,-200,-200,180,,,,,,,180,Raw,B
3,Dmitrij Spiridonovskij,Amateur Tested Sub Juniors 17-19,19,M,99.1,100,Ukraine,,,,,,140,150,160,160,,,,,,,160,Raw,B
4,Nikolaj Zhukov,Amateur Tested Sub Juniors 17-19,19,M,95.7,100,Russia,,,,,,125,135,145,145,,,,,,,145,Raw,B
5,Aleksej Mirskov,Amateur Tested Sub Juniors 17-19,18,M,93.2,100,Russia,,,,,,130,140,-150,140,,,,,,,140,Raw,B
6,Aleksej Dmitriev,Amateur Tested Sub Juniors 17-19,17,M,96.8,100,Russia,,,,,,135,-145,-145,135,,,,,,,135,Raw,B
1,Stanislav Dzasokhov,Amateur Tested Juniors 20-23,22,M,95.1,100,Russia,,,,,,185,-195,200,200,,,,,,,200,Raw,B
DQ,Valentin Nor,Amateur Tested Juniors 20-23,21,M,99.4,100,Russia,,,,,,-175,-185,-185,,,,,,,,,Raw,B
1,Igor Kostin,Amateur Tested Open,24,M,97,100,Russia,,,,,,205,-210,210,210,,,,,,,210,Raw,B
2,Aleksandr Kalyagin,Amateur Tested Open,32,M,99,100,Russia,,,,,,190,197.5,-202.5,197.5,,,,,,,197.5,Raw,B
3,Stanislav Ilin,Amateur Tested Open,32,M,93,100,Russia,,,,,,180,195,-200,195,,,,,,,195,Raw,B
4,Viktor Yeliseyev,Amateur Tested Open,28,M,97.5,100,Russia,,,,,,-175,175,185,185,,,,,,,185,Raw,B
5,Andris Kibildis,Amateur Tested Open,32,M,99.7,100,Russia,,,,,,-185,185,-200,185,,,,,,,185,Raw,B
6,Artur Krupnin,Amateur Tested Open,24,M,93.5,100,Russia,,,,,,175,-185,-185,175,,,,,,,175,Raw,B
7,Ilya Bondarenko,Amateur Tested Open,34,M,95.2,100,Russia,,,,,,162.5,175,-180,175,,,,,,,175,Raw,B
8,Maksim Samusevich,Amateur Tested Open,29,M,97.1,100,Belarus,,,,,,162.5,-170,170,170,,,,,,,170,Raw,B
9,Vladislav Takhtarov,Amateur Tested Open,29,M,94.5,100,Ukraine,,,,,,135,145,150,150,,,,,,,150,Raw,B
1,Viktor Andris,Amateur Tested Masters 40-49,41,M,96.7,100,Russia,,,,,,170,175,180,180,,,,,,,180,Raw,B
2,Aleksandr Bit-Yukhan,Amateur Tested Masters 40-49,46,M,98,100,Russia,,,,,,150,160,167.5,167.5,,,,,,,167.5,Raw,B
1,Natig Aliyev,Amateur Tested Masters 50-59,51,M,99.5,100,Russia,,,,,,180,185,190,190,,,,,,,190,Raw,B
2,Ivan Yevdokimov,Amateur Tested Masters 50-59,51,M,98.3,100,Russia,,,,,,165,170,,170,,,,,,,170,Raw,B
3,Vladimir Alekseyev,Amateur Tested Masters 50-59,52,M,98.9,100,Russia,,,,,,152.5,162.5,165,165,,,,,,,165,Raw,B
4,Murat Dzhaytabarov,Amateur Tested Masters 50-59,52,M,98.7,100,Kazakhstan,,,,,,135,140,-150,140,,,,,,,140,Raw,B
1,Sergey Lokis,Amateur Tested Juniors 20-23,23,M,102.2,110,Russia,,,,,,190,200,-205,200,,,,,,,200,Raw,B
2,Yevgeniy Miroshkin,Amateur Tested Juniors 20-23,22,M,103.4,110,Russia,,,,,,-167.5,167.5,-180,167.5,,,,,,,167.5,Raw,B
3,Aleksandr Kondratyev,Amateur Tested Juniors 20-23,21,M,101,110,Russia,,,,,,-160,-160,160,160,,,,,,,160,Raw,B
1,Yevgeniy Butenko,Amateur Tested Open,33,M,109,110,Russia,,,,,,190,200,212.5,212.5,,,,,,,212.5,Raw,B
2,Ergash Khaziyev,Amateur Tested Open,24,M,106.5,110,Russia,,,,,,190,200,-207.5,200,,,,,,,200,Raw,B
3,Vasiliy Reznikov,Amateur Tested Open,31,M,107.7,110,Russia,,,,,,170,175,-177.5,175,,,,,,,175,Raw,B
4,Dmitriy Vorobyev,Amateur Tested Open,39,M,104.5,110,Russia,,,,,,172.5,-177.5,-177.5,172.5,,,,,,,172.5,Raw,B
5,Aleksey Ananichev,Amateur Tested Open,32,M,107.3,110,Russia,,,,,,167.5,170,172.5,172.5,,,,,,,172.5,Raw,B
1,Vadim Ivanov,Amateur Tested Masters 40-49,42,M,106.5,110,Russia,,,,,,170,175,180,180,,,,,,,180,Raw,B
2,Ivan Burlov,Amateur Tested Masters 40-49,45,M,109.2,110,Russia,,,,,,167.5,175,180,180,,,,,,,180,Raw,B
3,Yevgeniy Antukh,Amateur Tested Masters 40-49,43,M,110,110,Russia,,,,,,170,175,-180,175,,,,,,,175,Raw,B
4,Mikhail Kalinin,Amateur Tested Masters 40-49,40,M,107.9,110,Russia,,,,,,160,170,172.5,172.5,,,,,,,172.5,Raw,B
DQ,Vladimir Moshkovskiy,Amateur Tested Masters 40-49,42,M,108.9,110,Russia,,,,,,-182.5,-182.5,-182.5,,,,,,,,,Raw,B
1,Andrey Skorobogatko,Amateur Tested Masters 50-59,52,M,108,110,Russia,,,,,,160,170,175,175,,,,,,,175,Raw,B
2,Igor Kurotchenko,Amateur Tested Masters 50-59,53,M,106.3,110,Russia,,,,,,140,147.5,-155,147.5,,,,,,,147.5,Raw,B
3,Marat Dzhaylaubaev,Amateur Tested Masters 50-59,59,M,103.3,110,Kazakhstan,,,,,,135,145,-152.5,145,,,,,,,145,Raw,B
4,Boris Grobovoy,Amateur Tested Masters 50-59,59,M,106.3,110,Russia,,,,,,127.5,132.5,-135,132.5,,,,,,,132.5,Raw,B
5,Yevgeniy Kozharinov,Amateur Tested Masters 70-79,70,M,102.7,110,Russia,,,,,,127.5,132.5,137.5,137.5,140,,,,,,137.5,Raw,B
1,Ivan Zaytsev,Amateur Tested Sub Juniors 17-19,18,M,117.9,125,Russia,,,,,,170,177.5,-182.5,177.5,,,,,,,177.5,Raw,B
1,Yevgeniy Zuykov,Amateur Tested Juniors 20-23,21,M,121.8,125,Russia,,,,,,177.5,-182.5,-182.5,177.5,,,,,,,177.5,Raw,B
2,Daniel Olsson,Amateur Tested Juniors 20-23,23,M,119.7,125,Sweden,,,,,,170,-180,-180,170,,,,,,,170,Raw,B
1,Artur Gulyan,Amateur Tested Open,33,M,123.7,125,Russia,,,,,,235,245,250,250,,,,,,,250,Raw,B
2,Ivan Regulyarnyy,Amateur Tested Open,31,M,115.9,125,Russia,,,,,,195,-202.5,-202.5,195,,,,,,,195,Raw,B
3,Aleksandr Kolesnikov,Amateur Tested Open,26,M,122,125,Russia,,,,,,-150,152.5,-155,152.5,,,,,,,152.5,Raw,B
1,Ruslan Murashko,Amateur Tested Masters 40-49,41,M,123.3,125,Belarus,,,,,,205,212.5,-215,212.5,,,,,,,212.5,Raw,B
1,Andrey Shishkin,Amateur Tested Masters 50-59,53,M,110.2,125,Russia,,,,,,105,-125,130,130,,,,,,,130,Raw,B
1,Dmitriy Ignatov,Amateur Tested Open,30,M,134.8,140,Russia,,,,,,170,180,-190,180,,,,,,,180,Raw,B
1,Aleksey Shoniya,Amateur Tested Masters 40-49,45,M,130.7,140,Russia,,,,,,165,175,-182.5,175,,,,,,,175,Raw,B
1,Anastasiya Dzyuba,Amateur Tested Sub Juniors 13-16,12,F,47,48,Russia,,,,,,,,,,,95,100,105,105,,105,Raw,D
1,Anastasiya Gavrichenko,Amateur Tested Juniors 20-23,22,F,47.3,48,Russia,,,,,,,,,,,80,,,80,,80,Raw,D
1,Oksana Martinovich,Amateur Tested Juniors 20-23,23,F,51.9,52,Russia,,,,,,,,,,,127.5,135,140,140,,140,Raw,D
1,Svetlana Zapolskikh,Amateur Tested Sub Juniors 13-16,15,F,52.6,56,Russia,,,,,,,,,,,55,,,55,,55,Raw,D
1,Yelena Bukhteyeva,Amateur Tested Juniors 20-23,20,F,52.1,56,Russia,,,,,,,,,,,92.5,100,105,105,,105,Raw,D
1,Varvara Kukina,Amateur Tested Open,24,F,54.4,56,Russia,,,,,,,,,,,115,,,115,,115,Raw,D
1,Lyudmila Naumenko,Amateur Tested Masters 50-59,50,F,53.4,56,Russia,,,,,,,,,,,115,122.5,-125,122.5,,122.5,Raw,D
DQ,Yelena Kondrashina,Amateur Tested Sub Juniors 13-16,16,F,59.6,60,Russia,,,,,,,,,,,-90,-100,-100,,,,Raw,D
1,Alla Selukova,Amateur Tested Open,24,F,58,60,Russia,,,,,,,,,,,120,-130,130,130,,130,Raw,D
1,Angelina Karpova,Amateur Tested Sub Juniors 17-19,18,F,65.9,67.5,Russia,,,,,,,,,,,135,142.5,147.5,147.5,,147.5,Raw,D
1,Natalya Vityuk,Amateur Tested Open,32,F,66.1,67.5,Belarus,,,,,,,,,,,115,125,-135,125,,125,Raw,D
1,Yuliya Makarova,Amateur Tested Masters 40-49,46,F,65.9,67.5,Russia,,,,,,,,,,,130,140,-147.5,140,,140,Raw,D
1,Darina Zorina,Amateur Tested Juniors 20-23,21,F,73.9,75,Russia,,,,,,,,,,,105,115,125,125,,125,Raw,D
1,Oksana Fomenko,Amateur Tested Open,27,F,70,75,Russia,,,,,,,,,,,145,152.5,-157.5,152.5,,152.5,Raw,D
2,Anna Gutova,Amateur Tested Open,27,F,69.4,75,Russia,,,,,,,,,,,130,137.5,142.5,142.5,,142.5,Raw,D
3,Dinara Musayeva,Amateur Tested Open,35,F,71.5,75,Russia,,,,,,,,,,,115,125,130,130,,130,Raw,D
1,Olga Frolova,Amateur Tested Masters 40-49,47,F,69.3,75,Russia,,,,,,,,,,,85,90,95,95,,95,Raw,D
1,Anastasiya Taranova,Amateur Tested Open,30,F,81.3,82.5,Russia,,,,,,,,,,,120,130,137.5,137.5,,137.5,Raw,D
1,Kseniya Khlebunova,Amateur Tested Juniors 20-23,23,F,85,90,Russia,,,,,,,,,,,140,,,140,,140,Raw,D
1,Riskarella Catalan,Amateur Tested Open,32,F,184.9,90+,Australia,,,,,,,,,,,155,167.5,-182.5,167.5,,167.5,Raw,D
1,Oleg Vashchenko,Amateur Tested Open,35,M,59.1,60,Russia,,,,,,,,,,,155,165,-182.5,165,,165,Raw,D
1,Aleksey Ivanov,Amateur Tested Juniors 20-23,20,M,65.8,67.5,Russia,,,,,,,,,,,175,190,200,200,,200,Raw,D
1,Viktor Fedotov,Amateur Tested Sub Juniors 13-16,13,M,75,75,Russia,,,,,,,,,,,110,117.5,122.5,122.5,,122.5,Raw,D
1,Sergey Dobritskiy,Amateur Tested Sub Juniors 17-19,17,M,70.8,75,Ukraine,,,,,,,,,,,170,180,190,190,,190,Raw,D
1,Rinat Suleymenov,Amateur Tested Juniors 20-23,21,M,72.9,75,Russia,,,,,,,,,,,230,245,-255,245,,245,Raw,D
2,Aleksandr Romashin,Amateur Tested Juniors 20-23,22,M,74.8,75,Russia,,,,,,,,,,,220,-242.5,-242.5,220,,220,Raw,D
1,Mikhail Yakovenko,Amateur Tested Open,27,M,72.4,75,Russia,,,,,,,,,,,235,245,250,250,,250,Raw,D
2,Vladimir Yeremchuk,Amateur Tested Open,26,M,68.8,75,Russia,,,,,,,,,,,-135,135,142.5,142.5,,142.5,Raw,D
1,Sergey Nikitin,Amateur Tested Masters 50-59,51,M,69.9,75,Russia,,,,,,,,,,,205,220,230,230,,230,Raw,D
1,Yevgeniy Pedurets,Amateur Tested Sub Juniors 13-16,16,M,78.4,82.5,Russia,,,,,,,,,,,180,190,-197.5,190,,190,Raw,D
1,Georgiy Dubrovin,Amateur Tested Sub Juniors 17-19,18,M,80,82.5,Russia,,,,,,,,,,,215,225,232.5,232.5,,232.5,Raw,D
1,Dmitriy Morozov,Amateur Tested Juniors 20-23,20,M,80.5,82.5,Russia,,,,,,,,,,,200,-210,-210,200,,200,Raw,D
1,Aleksandr Yerkin,Amateur Tested Open,27,M,81.1,82.5,Russia,,,,,,,,,,,230,240,250,250,,250,Raw,D
2,Aleksandr Zhigulin,Amateur Tested Open,28,M,81.8,82.5,Russia,,,,,,,,,,,240,250,-260,250,,250,Raw,D
3,Oleg Shilkin,Amateur Tested Open,28,M,79.6,82.5,Russia,,,,,,,,,,,185,195,-205,195,,195,Raw,D
4,Leonid Novikov,Amateur Tested Open,32,M,81.5,82.5,Russia,,,,,,,,,,,185,190,195,195,,195,Raw,D
DQ,Viktor Skokin,Amateur Tested Masters 50-59,58,M,80.6,82.5,Russia,,,,,,,,,,,-232.5,-232.5,-232.5,,,,Raw,D
1,Vladimir Panfilov,Amateur Tested Masters 60-69,62,M,81.5,82.5,Russia,,,,,,,,,,,-160,160,170,170,,170,Raw,D
1,Vladimir Babin,Amateur Tested Juniors 20-23,23,M,84.7,90,Russia,,,,,,,,,,,-312.5,325,-340,325,,325,Raw,D
2,Aleksey Svirin,Amateur Tested Juniors 20-23,21,M,89.1,90,Russia,,,,,,,,,,,222.5,232.5,242.5,242.5,,242.5,Raw,D
3,Danila Krapivenko,Amateur Tested Juniors 20-23,22,M,87.2,90,Russia,,,,,,,,,,,220,232.5,-242.5,232.5,,232.5,Raw,D
1,Aleksandr Gorodilov,Amateur Tested Open,25,M,87.7,90,Russia,,,,,,,,,,,180,190,205,205,,205,Raw,D
1,Sergey Lysenok,Amateur Tested Masters 40-49,44,M,84.8,90,Belarus,,,,,,,,,,,230,-240,,230,,230,Raw,D
1,Aleksandr Rogalev,Amateur Tested Masters 50-59,58,M,83.7,90,Russia,,,,,,,,,,,150,165,180,180,,180,Raw,D
1,Aleksandr Nemchinov,Amateur Tested Masters 60-69,64,M,88.9,90,Russia,,,,,,,,,,,225,240,-252.5,240,,240,Raw,D
1,Sergey Golovin,Amateur Tested Juniors 20-23,23,M,94.5,100,Ukraine,,,,,,,,,,,220,242.5,-250,242.5,,242.5,Raw,D
1,Artem Reshetnikov,Amateur Tested Open,26,M,99.7,100,Russia,,,,,,,,,,,290,,,290,,290,Raw,D
2,Sergey Myakishev,Amateur Tested Open,38,M,96.2,100,Russia,,,,,,,,,,,247.5,257.5,260,260,,260,Raw,D
3,Yuriy Suslov,Amateur Tested Open,29,M,98,100,Russia,,,,,,,,,,,260,-270,-270,260,,260,Raw,D
4,Aleksey Boyarintsev,Amateur Tested Open,26,M,90.4,100,Russia,,,,,,,,,,,255,-265,,255,,255,Raw,D
5,Ilya Bondarenko,Amateur Tested Open,34,M,95.2,100,Russia,,,,,,,,,,,212.5,230,242.5,242.5,,242.5,Raw,D
6,Pavel Malayev,Amateur Tested Open,24,M,98.9,100,Ukraine,,,,,,,,,,,212.5,220,-242.5,220,,220,Raw,D
7,Maksim Vorotovov,Amateur Tested Open,32,M,99.1,100,Russia,,,,,,,,,,,170,177.5,190,190,,190,Raw,D
DQ,Stanislav Ilin,Amateur Tested Open,32,M,93,100,Russia,,,,,,,,,,,-170,-170,,,,,Raw,D
1,Igor Chislov,Amateur Tested Masters 40-49,40,M,98.3,100,Russia,,,,,,,,,,,-220,220,-240,220,,220,Raw,D
1,Murat Dzhaytabarov,Amateur Tested Masters 50-59,52,M,98.7,100,Kazakhstan,,,,,,,,,,,150,175,200,200,,200,Raw,D
1,Artur Borisov,Amateur Tested Sub Juniors 17-19,17,M,106.9,110,Russia,,,,,,,,,,,235,250,-255,250,,250,Raw,D
1,Konstantin Morozov,Amateur Tested Open,31,M,107.3,110,Russia,,,,,,,,,,,340,-355,355,355,,355,Raw,D
2,Andrey Ivanets,Amateur Tested Open,31,M,102.2,110,Belarus,,,,,,,,,,,330,-350,-350,330,,330,Raw,D
3,Dmitriy Shchetkin,Amateur Tested Open,33,M,107.6,110,Russia,,,,,,,,,,,220,-240,-240,220,,220,Raw,D
1,Denis Folomeyev,Amateur Tested Masters 40-49,40,M,109.3,110,Russia,,,,,,,,,,,225,240,-250,240,,240,Raw,D
1,Marat Dzhaylaubaev,Amateur Tested Masters 50-59,59,M,103.3,110,Kazakhstan,,,,,,,,,,,130,145,160,160,,160,Raw,D
1,Konstantin Solovyev,Amateur Tested Juniors 20-23,20,M,125,125,Russia,,,,,,,,,,,225,-232.5,-232.5,225,,225,Raw,D
1,Ivan Regulyarnyy,Amateur Tested Open,31,M,115.9,125,Russia,,,,,,,,,,,257.5,270,277.5,277.5,,277.5,Raw,D
1,Andrey Shishkin,Amateur Tested Masters 50-59,53,M,110.2,125,Russia,,,,,,,,,,,185,235,255,255,,255,Raw,D
1,Nikolay Krasotkin,Amateur Tested Open,33,M,133,140,Russia,,,,,,,,,,,290,302.5,305,305,,305,Raw,D
2,Dmitriy Ignatov,Amateur Tested Open,30,M,134.8,140,Russia,,,,,,,,,,,260,-290,,260,,260,Raw,D
1,Aleksey Shoniya,Amateur Tested Masters 40-49,45,M,130.7,140,Russia,,,,,,,,,,,-220,220,240,240,,240,Raw,D
2,Pavel Guzev,Amateur Tested Masters 40-49,49,M,125.8,140,Russia,,,,,,,,,,,210,220,230,230,,230,Raw,D
1,Marina Salamatina,Amateur Open,34,F,51,52,Russia,60,75,-85,75,,30,37.5,-40,37.5,,50,60,70,70,,182.5,Wraps,SBD
DQ,Yelena Ochirova,Amateur Open,40,F,55.8,56,Russia,-100,-100,-100,,,,,,,,,,,,,,Wraps,SBD
1,Aleksandra Bogorodskaya,Amateur Juniors 20-23,23,F,67.3,67.5,Estonia,100,107.5,115,115,,57.5,62.5,65,65,,115,122.5,127.5,127.5,,307.5,Wraps,SBD
1,Anna Klimovich,Amateur Open,32,F,66.4,67.5,Belarus,140,152.5,-162.5,152.5,,80,87.5,95,95,,145,152.5,160,160,,407.5,Wraps,SBD
1,Oksana Lomova,Amateur Open,32,F,77.8,82.5,Russia,157.5,165,170,170,,95,-100,100,100,,175,-182.5,-182.5,175,,445,Wraps,SBD
1,Veronika Ukolova,Amateur Open,18,F,116.2,90+,Russia,170,180,187.5,187.5,,80,-82.5,-82.5,80,,140,145,147.5,147.5,,415,Wraps,SBD
1,Givi Margvelashvili,Amateur Open,26,M,67.5,67.5,Georgia,180,200,-220,200,,130,150,-160,150,,200,-220,230,230,,580,Wraps,SBD
1,Maksim Sukhobok,Amateur Masters 50-59,50,M,66.9,67.5,Russia,170,180,-195,180,,112.5,120,125,125,,210,220,230,230,,535,Wraps,SBD
1,Maksim Khersonskiy,Amateur Sub Juniors 17-19,19,M,74.4,75,Russia,-180,180,190,190,,120,130,135,135,,200,-215,215,215,,540,Wraps,SBD
1,Oleg Novogolub,Amateur Juniors 20-23,20,M,74.5,75,Moldova,160,-190,-190,160,,-130,130,-137.5,130,,200,,,200,,490,Wraps,SBD
DQ,Ilya Nidilko,Amateur Juniors 20-23,23,M,74.6,75,Russia,120,135,,135,,,,,,,,,,,,,Wraps,SBD
1,Sergey Smirnov,Amateur Open,27,M,75,75,Belarus,240,-250,,240,,150,160,,160,,230,245,282.5,282.5,,682.5,Wraps,SBD
2,Petr Lemeshkin,Amateur Open,28,M,74.8,75,Russia,-205,215,-220,215,,140,-145,-145,140,,210,-242.5,-242.5,210,,565,Wraps,SBD
1,Viktor Petrenko,Amateur Juniors 20-23,23,M,78,82.5,Ukraine,-200,-200,200,200,,130,140,-150,140,,220,250,-255,250,,590,Wraps,SBD
2,Sergey Dolgushin,Amateur Juniors 20-23,23,M,81.3,82.5,Russia,200,-210,-210,200,,145,152.5,157.5,157.5,,210,220,-235,220,,577.5,Wraps,SBD
DQ,Nikita Bobrov,Amateur Juniors 20-23,21,M,79,82.5,Russia,-220,-220,-220,,,,,,,,,,,,,,Wraps,SBD
DQ,Zardush Hasratov,Amateur Juniors 20-23,21,M,80.7,82.5,Azerbaijan,-260,-260,-260,,,,,,,,,,,,,,Wraps,SBD
1,Valikhan Ten,Amateur Open,36,M,81.3,82.5,Kazakhstan,240,255,265,265,,155,-167.5,-167.5,155,,260,270,-280,270,,690,Wraps,SBD
2,Aleksandr Skorobogatov,Amateur Open,34,M,82.1,82.5,Russia,250,260,-270,260,,-140,140,-150,140,,250,255,-260,255,,655,Wraps,SBD
3,Sergey Fomin,Amateur Open,32,M,80.7,82.5,Russia,205,215,,215,,165,-170,-172.5,165,,255,265,-275,265,,645,Wraps,SBD
DQ,Aram Grigoryan,Amateur Open,26,M,76.9,82.5,Russia,-215,-220,,,,,,,,,,,,,,,Wraps,SBD
DQ,Roman Kovalenko,Amateur Open,25,M,81.5,82.5,Russia,-200,200,215,215,,-170,-175,-175,,,,,,,,,Wraps,SBD
1,Dmitriy Rastorguyev,Amateur Juniors 20-23,21,M,89.7,90,Russia,280,-295,300,300,,170,-177.5,177.5,177.5,,260,275,-287.5,275,,752.5,Wraps,SBD
1,Sergey Lukyanov,Amateur Open,29,M,89.4,90,Russia,250,265,290,290,,170,182.5,187.5,187.5,,310,320,330,330,-342.5,807.5,Wraps,SBD
2,János Fazekas,Amateur Open,28,M,89,90,Hungary,-280,280,290,290,,190,195,-200,195,,290,-302.5,-312.5,290,,775,Wraps,SBD
3,Faraj Jalilov,Amateur Open,23,M,88.3,90,Azerbaijan,280,-300,-300,280,,170,180,-185,180,,250,270,-280,270,,730,Wraps,SBD
4,Petr Belousov,Amateur Open,26,M,86.5,90,Russia,250,265,280,280,,190,-200,-200,190,,240,250,-260,250,,720,Wraps,SBD
5,Aleksandr Makarov,Amateur Open,32,M,89.9,90,Russia,250,260,270,270,,160,170,180,180,,250,265,-275,265,,715,Wraps,SBD
6,Ariunbaatar Sharavdorj,Amateur Open,33,M,88.9,90,Mongolia,252.5,265,272.5,272.5,,160,167.5,-172.5,167.5,,245,-252.5,,245,,685,Wraps,SBD
7,Anatoliy Brezvin,Amateur Open,23,M,88.5,90,Russia,-280,280,-290,280,,150,-160,-160,150,,240,250,-260,250,,680,Wraps,SBD
8,Andrey Fokin,Amateur Open,33,M,88.9,90,Russia,-210,210,225,225,,170,180,190,190,,230,245,255,255,,670,Wraps,SBD
9,Narek Manucharyan,Amateur Open,24,M,89.7,90,Russia,-250,-250,250,250,,160,170,180,180,,220,230,237.5,237.5,,667.5,Wraps,SBD
10,Sergey Klyauzov,Amateur Open,25,M,89,90,Russia,220,240,-260,240,,140,150,-155,150,,240,245,-250,245,,635,Wraps,SBD
11,Nikolay Afanasov,Amateur Open,26,M,87.4,90,Russia,200,-215,215,215,,140,150,-155,150,,210,227.5,-237.5,227.5,,592.5,Wraps,SBD
12,Sergey Alekhin,Amateur Open,26,M,87.9,90,Russia,220,-240,-240,220,,140,-150,150,150,,200,210,220,220,,590,Wraps,SBD
13,Maksim Khanshev,Amateur Open,25,M,86.6,90,Russia,-210,210,-230,210,,130,140,145,145,,190,210,225,225,,580,Wraps,SBD
14,Vitaliy Pikalov,Amateur Open,25,M,86.1,90,Russia,180,-200,200,200,,100,115,-125,115,,180,200,-205,200,,515,Wraps,SBD
DQ,Stanislav Pyalinok,Amateur Open,26,M,88,90,Russia,-220,-220,-220,,,,,,,,,,,,,,Wraps,SBD
1,Aleksey Yagunov,Amateur Masters 40-49,47,M,88.8,90,Russia,220,230,240,240,,130,140,-150,140,,225,240,250,250,,630,Wraps,SBD
1,Roman Trefilov,Amateur Sub Juniors 17-19,19,M,96.1,100,Russia,300,320,,320,,155,165,-170,165,,250,280,,280,,765,Wraps,SBD
2,Danil Kotenko,Amateur Sub Juniors 17-19,19,M,97.4,100,Russia,-230,230,245,245,,140,152.5,160,160,,230,240,-250,240,,645,Wraps,SBD
1,Vyacheslav Ustinovich,Amateur Juniors 20-23,22,M,96.9,100,Belarus,280,290,,290,,175,180,185,185,,307.5,315,-317.5,315,,790,Wraps,SBD
2,Ramazan Shikhgasanov,Amateur Juniors 20-23,20,M,95.5,100,Russia,270,290,-300,290,,190,200,205,205,,270,-280,-280,270,,765,Wraps,SBD
3,Yevgeniy Nastenko,Amateur Juniors 20-23,23,M,96,100,Ukraine,-280,280,-290,280,,170,180,-185,180,,275,285,295,295,,755,Wraps,SBD
4,Dmitriy Shirko,Amateur Juniors 20-23,21,M,99.4,100,Belarus,-280,280,-302.5,280,,170,182.5,-192.5,182.5,,250,-262.5,,250,,712.5,Wraps,SBD
5,Nikita Zabashtan,Amateur Juniors 20-23,23,M,98.1,100,Russia,-250,250,-260,250,,170,175,180,180,,265,280,,280,,710,Wraps,SBD
6,Aleksey Podvolokin,Amateur Juniors 20-23,23,M,96.9,100,Russia,-265,265,-275,265,,145,-150,-150,145,,250,-265,-265,250,,660,Wraps,SBD
7,Aleksey Andriyanov,Amateur Juniors 20-23,21,M,99.6,100,Russia,-235,235,-240,235,,155,,,155,,220,-245,,220,,610,Wraps,SBD
1,Nikolay Gnatyuk,Amateur Open,28,M,99,100,Russia,-310,315,327.5,327.5,,190,195,-200,195,,290,300,310,310,,832.5,Wraps,SBD
2,Valeriy Kuznetsov,Amateur Open,32,M,98,100,Russia,300,320,-330,320,,190,200,205,205,,280,290,-300,290,,815,Wraps,SBD
3,Anton Anikanov,Amateur Open,30,M,92.9,100,Russia,-270,275,287.5,287.5,,190,200,205,205,,280,290,-300,290,,782.5,Wraps,SBD
4,Leontiy Miroshnik,Amateur Open,26,M,97.9,100,Ukraine,300,305,-315,305,,150,-160,-160,150,,300,-310,-310,300,,755,Wraps,SBD
5,Ivan Poryadin,Amateur Open,33,M,97.5,100,Russia,-250,250,260,260,,150,165,-170,165,,260,280,-290,280,,705,Wraps,SBD
6,Sergey Simakov,Amateur Open,31,M,99.3,100,Russia,-245,252.5,260,260,,170,-177.5,-177.5,170,,250,265,-272.5,265,,695,Wraps,SBD
7,Igor Novikov,Amateur Open,27,M,96.3,100,Russia,225,240,-255,240,,160,170,-180,170,,245,255,-262.5,255,,665,Wraps,SBD
8,Ilya Yershov,Amateur Open,27,M,97.5,100,Russia,240,-252.5,252.5,252.5,,162.5,172.5,-180,172.5,,-240,240,-250,240,,665,Wraps,SBD
9,Vasiliy Sayutin,Amateur Open,32,M,97.8,100,Russia,250,260,275,275,,160,-170,-170,160,,230,-245,-245,230,,665,Wraps,SBD
10,Aleksandr Buls,Amateur Open,25,M,97.4,100,Latvia,220,230,235,235,,150,160,165,165,,150,,,150,,550,Wraps,SBD
1,Jargalsaikhan Sosorbaram,Amateur Masters 40-49,45,M,96.5,100,Mongolia,202.5,-212.5,222.5,222.5,,142.5,-150,152.5,152.5,,200,212.5,220,220,,595,Wraps,SBD
2,Dmitriy Postnov,Amateur Masters 40-49,44,M,91.3,100,Russia,180,200,220,220,,117.5,127.5,135,135,,207.5,232.5,-240,232.5,,587.5,Wraps,SBD
3,Artur Vorontsov,Amateur Masters 40-49,47,M,95.5,100,Belarus,-180,180,-200,180,,105,112.5,-120,112.5,,170,180,190,190,,482.5,Wraps,SBD
1,Valeriy Razdorozhnyy,Amateur Masters 50-59,50,M,93.7,100,Ukraine,180,-200,-210,180,,140,-150,-160,140,,180,-200,,180,,500,Wraps,SBD
DQ,Aleksandr Tsvetkov,Amateur Masters 50-59,58,M,94.6,100,Russia,-200,,,,,,,,,,,,,,,,Wraps,SBD
1,Mikhail Kalmykov,Amateur Sub Juniors 17-19,17,M,105.6,110,Russia,220,240,250,250,,150,-165,,150,,220,240,250,250,,650,Wraps,SBD
1,Anatoliy Gribov,Amateur Juniors 20-23,23,M,109.2,110,Russia,305,325,337.5,337.5,,195,205,210,210,,305,315,320,320,,867.5,Wraps,SBD
2,Ilya Korobov,Amateur Juniors 20-23,22,M,107.7,110,Russia,260,-270,-270,260,,170,-180,-180,170,,250,-260,260,260,,690,Wraps,SBD
1,Viktor Buyko,Amateur Open,31,M,108.9,110,Kazakhstan,320,330,-340,330,,215,225,-230,225,,300,312.5,-320,312.5,,867.5,Wraps,SBD
2,Sergey Lomakin,Amateur Open,30,M,109.7,110,Russia,320,330,335,335,,190,197.5,-205,197.5,,305,315,325,325,,857.5,Wraps,SBD
3,Sergey Zelyanin,Amateur Open,28,M,109.8,110,Belarus,-300,300,310,310,,200,207.5,212.5,212.5,,300,315,320,320,,842.5,Wraps,SBD
4,Akim Vakhtin,Amateur Open,32,M,104.4,110,Russia,320,-340,-350,320,,180,-190,-190,180,,-330,330,-367.5,330,,830,Wraps,SBD
5,Zembahs Atis,Amateur Open,27,M,110,110,Latvia,270,290,-310,290,,180,190,-200,190,,300,-310,,300,,780,Wraps,SBD
6,Grigoriy Tibenko,Amateur Open,24,M,107.6,110,Russia,260,280,-295,280,,-170,170,175,175,,250,275,280,280,,735,Wraps,SBD
1,Oleg Zherdev,Amateur Masters 40-49,45,M,109.3,110,Russia,260,280,-290,280,,180,-200,-200,180,,240,250,-260,250,,710,Wraps,SBD
2,Dmitriy Antonov,Amateur Masters 40-49,40,M,108.8,110,Russia,220,250,260,260,,130,145,155,155,,240,255,-262.5,255,,670,Wraps,SBD
3,Boris Kurbatskiy,Amateur Masters 40-49,43,M,109.9,110,Ukraine,250,-260,-260,250,,150,160,-165,160,,240,257.5,-270,257.5,,667.5,Wraps,SBD
1,Ilya Klopkov,Amateur Juniors 20-23,21,M,117.8,125,Russia,280,300,305,305,,185,197.5,210,210,,300,322.5,-330,322.5,,837.5,Wraps,SBD
2,Sergey Kiselev,Amateur Juniors 20-23,20,M,116,125,Russia,295,307.5,-320,307.5,,195,207.5,210,210,,290,302.5,315,315,,832.5,Wraps,SBD
3,Grigoriy Bebenin,Amateur Juniors 20-23,22,M,114.2,125,Russia,305,-320,-320,305,,205,215,-222.5,215,,305,310,-317.5,310,,830,Wraps,SBD
4,Stefan Larch,Amateur Juniors 20-23,22,M,114.1,125,Austria,290,305,-320,305,,165,172.5,-180,172.5,,270,292.5,-300,292.5,,770,Wraps,SBD
5,Aleksandr Luzanov,Amateur Juniors 20-23,22,M,119,125,Russia,250,270,,270,,160,-170,-170,160,,240,260,-270,260,,690,Wraps,SBD
6,Mikhail Greshnov,Amateur Juniors 20-23,21,M,113.5,125,Russia,230,245,-260,245,,160,170,177.5,177.5,,230,245,-255,245,,667.5,Wraps,SBD
1,Denis Astakhov,Amateur Open,31,M,114.1,125,Russia,325,340,355,355,,175,-185,-185,175,,310,325,-330,325,,855,Wraps,SBD
2,Vladimir Aleksandrov,Amateur Open,38,M,120,125,Russia,310,320,335,335,,195,200,205,205,,285,295,300,300,,840,Wraps,SBD
3,Roman Demin,Amateur Open,35,M,113.4,125,Russia,270,285,300,300,,170,180,-190,180,,300,320,-340,320,,800,Wraps,SBD
4,Maksim Antonov,Amateur Open,34,M,120,125,Russia,270,290,300,300,,160,170,-180,170,,285,-310,-310,285,,755,Wraps,SBD
DQ,Maksim Nuyanzin,Amateur Sub Juniors 17-19,19,M,132.6,140,Russia,-250,-250,-250,,,,,,,,,,,,,,Wraps,SBD
1,Vladimir Ivankov,Amateur Open,29,M,137.6,140,Russia,330,-340,,330,,200,205,210,210,,300,312.5,-322.5,312.5,,852.5,Wraps,SBD
2,Leonardo Cavaglia,Amateur Open,39,M,126.7,140,Argentina,320,340,-355,340,,200,-210,,200,,290,310,-325,310,,850,Wraps,SBD
3,Denis Shtokolov,Amateur Open,36,M,136.7,140,Russia,310,-325,,310,,170,180,-190,180,,280,300,310,310,,800,Wraps,SBD
1,Sergey Odegov,Amateur Open,39,M,147.1,140+,Russia,340,-360,360,360,,220,240,-255,240,,-340,340,360,360,,960,Wraps,SBD
2,Sergey Yakovlev,Amateur Masters 40-49,43,M,155.7,140+,Kazakhstan,290,310,320,320,,190,205,215,215,,300,330,345,345,,880,Wraps,SBD
1,Olga Botnar,Amateur Open,28,F,44,44,Moldova,,,,,,62.5,67.5,-72.5,67.5,,,,,,,67.5,Raw,B
1,Yelena Ochirova,Amateur Open,40,F,55.7,56,Russia,,,,,,65,70,-72.5,70,,,,,,,70,Raw,B
1,Lyudmila Khromenkova,Amateur Masters 50-59,54,F,56.9,60,Russia,,,,,,47.5,52.5,55,55,,,,,,,55,Raw,B
1,Yekaterina Chernetsova,Amateur Juniors 20-23,22,F,63.7,67.5,Russia,,,,,,-65,65,67.5,67.5,,,,,,,67.5,Raw,B
1,Alla Kalinichenko,Amateur Masters 40-49,44,F,66.6,67.5,Russia,,,,,,-100,100,-105,100,,,,,,,100,Raw,B
1,Stefanie Frey,Amateur Open,32,F,72.5,75,Switzerland,,,,,,115,125,-130,125,,,,,,,125,Raw,B
1,Maria Helgesson,Amateur Open,27,F,81.3,82.5,Sweden,,,,,,102.5,107.5,115.5,115.5,120,,,,,,115.5,Raw,B
2,Anna Rodnina,Amateur Open,31,F,81.2,82.5,Russia,,,,,,80,82.5,-87.5,82.5,,,,,,,82.5,Raw,B
1,Roman Belousov,Amateur Open,24,M,55.1,56,Russia,,,,,,152.5,157.5,-160,157.5,,,,,,,157.5,Raw,B
1,Dyk-Zung Nguyen,Amateur Juniors,21,M,67.2,67.5,Russia,,,,,,-112.5,115,122.5,122.5,,,,,,,122.5,Raw,B
1,Maksim Zhidov,Amateur Sub Juniors 17-19,19,M,73.3,75,Russia,,,,,,80,-100,100,100,,,,,,,100,Raw,B
1,Vadim Mutalibov,Amateur Juniors 20-23,23,M,74.2,75,Russia,,,,,,-140,-140,140,140,,,,,,,140,Raw,B
1,Vyacheslav Tsoy,Amateur Open,31,M,74.5,75,Kazakhstan,,,,,,180,190,200,200,,,,,,,200,Raw,B
2,Andrey Kalinin,Amateur Open,31,M,72.4,75,Russia,,,,,,150,-160,-160,150,,,,,,,150,Raw,B
1,Daniil Arzhakov,Amateur Juniors 20-23,20,M,82,82.5,Russia,,,,,,165,-170,-170,165,,,,,,,165,Raw,B
DQ,Ilya Nidilko,Amateur Juniors 20-23,20,M,81.5,82.5,Russia,,,,,,-150,,,,,,,,,,,Raw,B
1,Vitaliy Porimon,Amateur Open,29,M,82.1,82.5,Belarus,,,,,,210,217.5,-222.5,217.5,,,,,,,217.5,Raw,B
2,Sergey Krastelev,Amateur Open,32,M,82.5,82.5,Russia,,,,,,170,185,192.5,192.5,,,,,,,192.5,Raw,B
3,Sergey Mik,Amateur Open,28,M,81.2,82.5,Russia,,,,,,170,185,-197.5,185,,,,,,,185,Raw,B
4,Maksim Baukin,Amateur Open,33,M,81.6,82.5,Russia,,,,,,182.5,-185,-187.5,182.5,,,,,,,182.5,Raw,B
5,Konstantin Zhigulin,Amateur Open,28,M,81.1,82.5,Russia,,,,,,165,-170,-170,165,,,,,,,165,Raw,B
6,Denis Podusov,Amateur Open,31,M,81.9,82.5,Russia,,,,,,150,160,165,165,,,,,,,165,Raw,B
7,Oleg Tikhonovskiy,Amateur Open,37,M,81.9,82.5,Russia,,,,,,157.5,-165,-165,157.5,,,,,,,157.5,Raw,B
8,Christian Clampariu,Amateur Open,29,M,78,82.5,Austria,,,,,,150,155,-160,155,,,,,,,155,Raw,B
9,Dmitriy Trofimov,Amateur Masters 40-49,43,M,82.2,82.5,Russia,,,,,,175,185,-190,185,,,,,,,185,Raw,B
10,Sergey Fedorov,Amateur Masters 50-59,53,M,81.2,82.5,Russia,,,,,,160,-170,170,170,,,,,,,170,Raw,B
1,Aleksey Zhavoronkov,Amateur Sub Juniors 17-19,19,M,87.8,90,Russia,,,,,,200,207.5,210,210,,,,,,,210,Raw,B
2,Vladislav Shust,Amateur Sub Juniors 17-19,17,M,89.2,90,Belarus,,,,,,145,-152.5,-152.5,145,,,,,,,145,Raw,B
1,Vladimir Aliyev,Amateur Juniors 20-23,23,M,87.4,90,Russia,,,,,,175,185,190,190,,,,,,,190,Raw,B
2,Vladislav Ilyushchits,Amateur Juniors 20-23,23,M,87.9,90,Belarus,,,,,,185,-195,-195,185,,,,,,,185,Raw,B
3,Dmitriy Lipatov,Amateur Juniors 20-23,22,M,86.4,90,Russia,,,,,,180,-190,-190,180,,,,,,,180,Raw,B
4,Eduard Martirosov,Amateur Juniors 20-23,20,M,89,90,Russia,,,,,,165,170,-175,170,,,,,,,170,Raw,B
5,Ilya Kolikov,Amateur Juniors 20-23,23,M,89.6,90,Russia,,,,,,145,150,152.5,152.5,,,,,,,152.5,Raw,B
1,Vjačeslavs Letlans,Amateur Open,28,M,87,90,Latvia,,,,,,205,215,227.5,227.5,230,,,,,,227.5,Raw,B
2,Valeriy Porimon,Amateur Open,29,M,89.3,90,Belarus,,,,,,220,225,-232.5,225,,,,,,,225,Raw,B
3,Denis Nikitin,Amateur Open,27,M,87.1,90,Russia,,,,,,200,217.5,-230,217.5,,,,,,,217.5,Raw,B
4,Aleksey Blintsov,Amateur Open,35,M,83.9,90,Russia,,,,,,185,190,-202.5,190,,,,,,,190,Raw,B
5,Semen Lyubimskiy,Amateur Open,29,M,86.2,90,Russia,,,,,,180,185,,185,,,,,,,185,Raw,B
6,Vladislav Verigin,Amateur Open,26,M,86.8,90,Russia,,,,,,180,-185,185,185,,,,,,,185,Raw,B
7,Maksim Domanskikh,Amateur Open,32,M,89.6,90,Russia,,,,,,167.5,-180,-180,167.5,,,,,,,167.5,Raw,B
8,Shamil Askerov,Amateur Open,26,M,82.6,90,Russia,,,,,,140,150,155,155,,,,,,,155,Raw,B
9,Sergey Popov,Amateur Masters 40-49,41,M,89.4,90,Russia,,,,,,185,190,-197.5,190,,,,,,,190,Raw,B
10,Andrey Logvin,Amateur Masters 40-49,46,M,88.3,90,Russia,,,,,,170,180,-190,180,,,,,,,180,Raw,B
11,Sergey Goncharov,Amateur Masters 60-69,63,M,84,90,Russia,,,,,,115,117.5,120,120,,,,,,,120,Raw,B
1,Daniil Fedyukov,Amateur Sub Juniors 17-19,18,M,97.8,100,Russia,,,,,,130,145,-165,145,,,,,,,145,Raw,B
1,Arman Grigoryan,Amateur Juniors 20-23,21,M,99.5,100,Russia,,,,,,-225,225,-232.5,225,,,,,,,225,Raw,B
2,Sergey Razumov,Amateur Juniors 20-23,22,M,96.3,100,Russia,,,,,,200,205,-210,205,,,,,,,205,Raw,B
DQ,Aleksandr Glushnev,Amateur Juniors 20-23,23,M,99.2,100,Russia,,,,,,-235,-235,-235,,,,,,,,,Raw,B
1,Maksut Davletkaliyev,Amateur Open,30,M,98.6,100,Kazakhstan,,,,,,230,237.5,240,240,,,,,,,240,Raw,B
2,Yuriy Belkov,Amateur Open,28,M,98.3,100,Russia,,,,,,225,232.5,237.5,237.5,,,,,,,237.5,Raw,B
3,Aleksandr Glushnev,Amateur Open,23,M,98.2,100,Russia,,,,,,225,-230,-230,225,,,,,,,225,Raw,B
4,Julien Girardin,Amateur Open,32,M,98.7,100,Switzerland,,,,,,215,225,-237.5,225,,,,,,,225,Raw,B
5,David Dzugkoyev,Amateur Open,30,M,99,100,Russia,,,,,,210,220,,220,,,,,,,220,Raw,B
6,Rodion Dubenko,Amateur Open,26,M,99.9,100,Russia,,,,,,220,-230,-230,220,,,,,,,220,Raw,B
7,Kirill Artemov,Amateur Open,33,M,94.6,100,Russia,,,,,,190,195,-197.5,195,,,,,,,195,Raw,B
8,Martín Muñoz,Amateur Open,24,M,97.1,100,Argentina,,,,,,185,195,-200,195,,,,,,,195,Raw,B
9,Dmitriy Serdyukov,Amateur Open,24,M,99.6,100,Russia,,,,,,175,190,-200,190,,,,,,,190,Raw,B
10,Akhmed Musayev,Amateur Open,35,M,98,100,Russia,,,,,,170,180,-190,180,,,,,,,180,Raw,B
11,Sergey Filipenya,Amateur Open,36,M,98.2,100,Belarus,,,,,,170,180,-190,180,,,,,,,180,Raw,B
12,Pavel Bochkarev,Amateur Open,28,M,98.7,100,Russia,,,,,,180,-200,-200,180,,,,,,,180,Raw,B
13,Oleg Mayorov,Amateur Open,28,M,99.7,100,Russia,,,,,,-180,180,-190,180,,,,,,,180,Raw,B
14,Aleksey Vasilyev,Amateur Open,36,M,99.8,100,Russia,,,,,,-170,170,180,180,,,,,,,180,Raw,B
15,Aleksey Barminov,Amateur Open,34,M,98.2,100,Russia,,,,,,175,-190,-190,175,,,,,,,175,Raw,B
DQ,Aleksandr Zhachenkov,Amateur Open,34,M,98.5,100,Russia,,,,,,-222.5,-222.5,-222.5,,,,,,,,,Raw,B
1,Roman Knishchuk,Amateur Masters 40-49,40,M,99.2,100,Russia,,,,,,220,230,235,235,,,,,,,235,Raw,B
2,Igor Lipachev,Amateur Masters 40-49,47,M,98.1,100,Russia,,,,,,210,217.5,220,220,,,,,,,220,Raw,B
1,Damir Khayrullin,Amateur Masters 50-59,52,M,99.2,100,Russia,,,,,,145,155,-165,155,,,,,,,155,Raw,B
2,Aleksey Khromenkov,Amateur Masters 50-59,58,M,97.2,100,Russia,,,,,,105,117.5,125,125,,,,,,,125,Raw,B
1,Artem Kobanov,Amateur Juniors 20-23,23,M,106.6,110,Russia,,,,,,225,230,235,235,,,,,,,235,Raw,B
2,Dávid Mészáros,Amateur Juniors 20-23,22,M,109.4,110,Hungary,,,,,,210,220,225,225,,,,,,,225,Raw,B
3,Stanislav Schastnyy,Amateur Juniors 20-23,22,M,107.7,110,Belarus,,,,,,205,215,222.5,222.5,,,,,,,222.5,Raw,B
1,Sergey Razudalov,Amateur Open,25,M,104.3,110,Russia,,,,,,240,250,-265,250,,,,,,,250,Raw,B
2,Aleksandr Revyako,Amateur Open,30,M,104.2,110,Russia,,,,,,232.5,240,-250,240,,,,,,,240,Raw,B
3,Konstantin Apushnikov,Amateur Open,34,M,105.3,110,Russia,,,,,,230,240,-245,240,,,,,,,240,Raw,B
4,Aleksey Shatilo,Amateur Open,29,M,108.7,110,Belarus,,,,,,230,-237.5,-237.5,230,,,,,,,230,Raw,B
5,Aleksey Stolyarov,Amateur Open,29,M,107.1,110,Russia,,,,,,210,220,-225,220,,,,,,,220,Raw,B
6,Yaroslav Golubev,Amateur Open,35,M,109.4,110,Russia,,,,,,205,215,-222.5,215,,,,,,,215,Raw,B
7,Igor Shaytor,Amateur Open,34,M,105.9,110,Belarus,,,,,,200,207.5,-212.5,207.5,,,,,,,207.5,Raw,B
8,Vitaliy Lomonosov,Amateur Open,28,M,105.9,110,Russia,,,,,,-185,195,205,205,,,,,,,205,Raw,B
9,Aleksandr Fedorov,Amateur Open,29,M,101,110,Russia,,,,,,190,197.5,-205,197.5,,,,,,,197.5,Raw,B
10,Vladimir Kudryashov,Amateur Open,30,M,107.8,110,Russia,,,,,,190,-200,-200,190,,,,,,,190,Raw,B
11,Anton Lysenko,Amateur Open,34,M,106.7,110,Russia,,,,,,167.5,-172.5,-177.5,167.5,,,,,,,167.5,Raw,B
12,Vladimir Stepanov,Amateur Open,35,M,102.8,110,Russia,,,,,,145,155,160,160,,,,,,,160,Raw,B
1,Sergey Polutin,Amateur Masters 40-49,40,M,102.2,110,Russia,,,,,,215,217.5,220,220,,,,,,,220,Raw,B
2,Aleksandr Galakhov,Amateur Masters 40-49,44,M,106.2,110,Russia,,,,,,190,197.5,-200,197.5,,,,,,,197.5,Raw,B
3,Aleksandr Lezin,Amateur Masters 40-49,45,M,105.2,110,Russia,,,,,,175,185,-190,185,,,,,,,185,Raw,B
1,Sergey Filinovich,Amateur Masters 50-59,53,M,104.3,110,Russia,,,,,,165,172.5,175,175,,,,,,,175,Raw,B
1,Reinis Kindzulis,Amateur Juniors 20-23,23,M,120.6,125,Latvia,,,,,,240,250,260,260,-270,,,,,,260,Raw,B
2,Marsel Talipov,Amateur Juniors 20-23,23,M,122.6,125,Russia,,,,,,-230,240,-250,240,,,,,,,240,Raw,B
3,Mikhail Samoylov,Amateur Juniors 20-23,20,M,114.3,125,Russia,,,,,,160,170,175,175,,,,,,,175,Raw,B
DQ,Dmitriy Samsonov,Amateur Juniors 20-23,22,M,122.3,125,Russia,,,,,,-195,-195,,,,,,,,,,Raw,B
1,Christian Raidel,Amateur Open,33,M,120,125,Austria,,,,,,227.5,240,-242.5,240,,,,,,,240,Raw,B
2,Igor Muravyev,Amateur Open,30,M,111,125,Russia,,,,,,230,235,237.5,237.5,,,,,,,237.5,Raw,B
3,Sergey Zhambrovskiy,Amateur Open,28,M,123.9,125,Russia,,,,,,235,-242.5,-242.5,235,,,,,,,235,Raw,B
4,Yevgeniy Vasilyev,Amateur Open,33,M,112.2,125,Russia,,,,,,220,-225,-225,220,,,,,,,220,Raw,B
5,Yevgeniy Zorin,Amateur Open,36,M,112.6,125,Russia,,,,,,200,210,215,215,,,,,,,215,Raw,B
6,Valeriy Chubotaru,Amateur Open,30,M,120.3,125,Moldova,,,,,,210,-220,-220,210,,,,,,,210,Raw,B
7,Daynis Tkachovs,Amateur Open,25,M,111.3,125,Latvia,,,,,,-200,207.5,-215,207.5,,,,,,,207.5,Raw,B
8,Viktor Khashov,Amateur Open,25,M,114.4,125,Russia,,,,,,-200,200,-207.5,200,,,,,,,200,Raw,B
9,Vladimir Barsukov,Amateur Open,35,M,120.4,125,Russia,,,,,,180,195,-207.5,195,,,,,,,195,Raw,B
10,Aleksey Nemov,Amateur Open,25,M,117.6,125,Russia,,,,,,190,-200,-200,190,,,,,,,190,Raw,B
DQ,Yuriy Vartabedyan,Amateur Open,24,M,121.6,125,Russia,,,,,,-232.5,-235,-235,,,,,,,,,Raw,B
1,Yegor Golubev,Amateur Masters 40-49,41,M,121,125,Russia,,,,,,190,200,-210,200,,,,,,,200,Raw,B
2,Nikolay Dubina,Amateur Masters 40-49,49,M,116.3,125,Russia,,,,,,180,190,192.5,192.5,,,,,,,192.5,Raw,B
3,Roman Yefimov,Amateur Masters 40-49,40,M,116.7,125,Russia,,,,,,160,170,-175,170,,,,,,,170,Raw,B
1,Aleksandr Sidorov,Amateur Open,35,M,135.9,140,Russia,,,,,,250,260,265,265,,,,,,,265,Raw,B
2,Christoph Rieser,Amateur Open,30,M,138.6,140,Austria,,,,,,220,240,250,250,,,,,,,250,Raw,B
3,Aleksey Chilikin,Amateur Open,37,M,126.1,140,Russia,,,,,,220,235,-245,235,,,,,,,235,Raw,B
4,Viktor Mima,Amateur Open,24,M,137,140,Ukraine,,,,,,200,207.5,-212.5,207.5,,,,,,,207.5,Raw,B
1,Oleg Larionov,Amateur Masters 40-49,41,M,135,140,Russia,,,,,,210,230,240,240,,,,,,,240,Raw,B
1,Yevgeniy Deryuzhenko,Amateur Open,34,M,169.5,140+,Russia,,,,,,220,230,240,240,,,,,,,240,Raw,B
2,Rikard Erlandsson,Amateur Open,38,M,156.1,140+,Sweden,,,,,,230,235,-240,235,,,,,,,235,Raw,B
1,Stanislav Karpov,Amateur Masters 40-49,44,M,160,140+,Russia,,,,,,225,230,235,235,,,,,,,235,Raw,B
1,Marina Salamatina,Amateur Open,34,F,51,52,Russia,,,,,,,,,,,70,,,70,,70,Raw,D
1,Anastasiya Marina,Amateur Sub Juniors 13-16,14,F,56,56,Russia,,,,,,,,,,,90,-102.5,-102.5,90,,90,Raw,D
1,Lyudmila Khromenkova,Amateur Masters 50-59,54,F,56.4,60,Russia,,,,,,,,,,,115,125,135,135,,135,Raw,D
1,Yekaterina Chernetsova,Amateur Juniors 20-23,22,F,63.2,67.5,Russia,,,,,,,,,,,110,120,130,130,,130,Raw,D
2,Aleksandra Bogorodskaya,Amateur Juniors 20-23,23,F,67.3,67.5,Estonia,,,,,,,,,,,127.5,,,127.5,,127.5,Raw,D
1,Anna Klimovich,Amateur Open,32,F,66.4,67.5,Belarus,,,,,,,,,,,160,,,160,,160,Raw,D
1,Yelena Abdullayeva,Amateur Open,27,F,74.9,75,Russia,,,,,,,,,,,127.5,-135,135,135,,135,Raw,D
1,Maria Helgesson,Amateur Open,27,F,81.8,82.5,Sweden,,,,,,,,,,,175,185,200,200,210,200,Raw,D
2,Anna Rodnina,Amateur Open,31,F,80.3,82.5,Russia,,,,,,,,,,,160,165,170,170,,170,Raw,D
1,Givi Margvelashvili,Amateur Open,26,M,67.5,67.5,Georgia,,,,,,,,,,,230,,,230,,230,Raw,D
1,Zardush Hasratov,Amateur Juniors 20-23,21,M,80.7,82.5,Azerbaijan,,,,,,,,,,,250,270,,270,,270,Raw,D
2,Viktor Saga,Amateur Juniors 20-23,21,M,80.7,82.5,Moldova,,,,,,,,,,,-220,220,242.5,242.5,,242.5,Raw,D
1,Aleksey Ovchinnikov,Amateur Open,29,M,79.5,82.5,Russia,,,,,,,,,,,-290,290,305,305,,305,Raw,D
2,Nikolay Durapov,Amateur Open,35,M,82,82.5,Russia,,,,,,,,,,,290,300,305,305,,305,Raw,D
3,Valikhan Ten,Amateur Open,36,M,81.3,82.5,Kazakhstan,,,,,,,,,,,260,270,,270,,270,Raw,D
4,Vladimir Akhotelashvili,Amateur Open,27,M,81,82.5,Russia,,,,,,,,,,,210,220,230,230,,230,Raw,D
1,Dmitriy Trofimov,Amateur Masters 40-49,43,M,82.5,82.5,Russia,,,,,,,,,,,200,222.5,232.5,232.5,,232.5,Raw,D
1,Viktor Kotelnikov,Amateur Masters 50-59,51,M,78,82.5,Russia,,,,,,,,,,,170,180,190,190,,190,Raw,D
1,Igor Kalugin,Amateur Open,32,M,87.1,90,Russia,,,,,,,,,,,-270,270,275,275,,275,Raw,D
2,Aleksandr Makarov,Amateur Open,32,M,89.9,90,Russia,,,,,,,,,,,265,,,265,,265,Raw,D
3,Aleksey Zinurov,Amateur Open,27,M,90,90,Russia,,,,,,,,,,,230,255,-272.5,255,,255,Raw,D
4,Ariunbaatar Sharavdorj,Amateur Open,33,M,88.9,90,Mongolia,,,,,,,,,,,235,245,-255,245,,245,Raw,D
1,Vadim Zaytsev,Amateur Masters 50-59,55,M,88.4,90,Russia,,,,,,,,,,,240,260,-270,260,,260,Raw,D
1,Daniil Fedyukov,Amateur Sub Juniors 17-19,18,M,98.5,100,Russia,,,,,,,,,,,150,180,,180,,180,Raw,D
1,Ruslan Shipitsyn,Amateur Juniors 20-23,23,M,96.2,100,Russia,,,,,,,,,,,290,300,-322.5,300,,300,Raw,D
2,Artem Zotov,Amateur Juniors 20-23,20,M,93.3,100,Russia,,,,,,,,,,,260,272.5,282.5,282.5,,282.5,Raw,D
3,Daniil Meshchanov,Amateur Juniors 20-23,20,M,93.6,100,Moldova,,,,,,,,,,,-225,225,245,245,,245,Raw,D
1,Sergey Filipenya,Amateur Open,36,M,96.3,100,Russia,,,,,,,,,,,320,-330,330,330,,330,Raw,D
2,Andrey Bulgar,Amateur Open,27,M,97.6,100,Moldova,,,,,,,,,,,315,325,-330,325,,325,Raw,D
3,Pavel Kobelev,Amateur Open,26,M,95.1,100,Russia,,,,,,,,,,,300,-322.5,-322.5,300,,300,Raw,D
4,Ivan Akhmetov,Amateur Open,24,M,99.1,100,Belarus,,,,,,,,,,,300,-315,-315,300,,300,Raw,D
5,Mikhail Grinko,Amateur Open,37,M,100,100,Russia,,,,,,,,,,,260,280,300,300,,300,Raw,D
6,Aleksey Ananin,Amateur Open,39,M,99,100,Russia,,,,,,,,,,,285,290,-302.5,290,,290,Raw,D
7,Vladimir Grigoryev,Amateur Open,29,M,94.8,100,Russia,,,,,,,,,,,270,282.5,-300,282.5,,282.5,Raw,D
8,Vyacheslav Khorkov,Amateur Open,36,M,95.8,100,Russia,,,,,,,,,,,240,-250,,240,,240,Raw,D
9,Jimsheri Tchelidze,Amateur Open,37,M,97.1,100,Georgia,,,,,,,,,,,-230,230,240,240,,240,Raw,D
1,Valeriy Churzin,Amateur Masters 40-49,41,M,98.1,100,Russia,,,,,,,,,,,200,210,215,215,,215,Raw,D
2,Jargalsaikhan Sosorbaram,Amateur Masters 40-49,45,M,96.5,100,Mongolia,,,,,,,,,,,200,-212.5,212.5,212.5,,212.5,Raw,D
1,Mikhail Verbitskiy,Amateur Masters 60-69,64,M,93.3,100,Belarus,,,,,,,,,,,250,280,-292.5,280,,280,Raw,D
1,Akim Vakhtin,Amateur Open,32,M,104.4,110,Russia,,,,,,,,,,,330,,,330,,330,Raw,D
2,Sergey Razudalov,Amateur Open,25,M,105.3,110,Russia,,,,,,,,,,,300,330,-360,330,,330,Raw,D
3,Aleksandr Tarakin,Amateur Open,29,M,101.3,110,Russia,,,,,,,,,,,300,-312.5,312.5,312.5,,312.5,Raw,D
4,Jurgen Wilflingseder,Amateur Open,34,M,104.8,110,Austria,,,,,,,,,,,270,280,,280,,280,Raw,D
5,Alexander Siljestromer,Amateur Open,31,M,103.4,110,Sweden,,,,,,,,,,,270,-300,-300,270,,270,Raw,D
1,Valeriy Yevdokimov,Amateur Juniors 20-23,23,M,122.3,125,Latvia,,,,,,,,,,,300,315,-322.5,315,,315,Raw,D
1,Kirill Afanasyev,Amateur Open,33,M,114.6,125,Latvia,,,,,,,,,,,310,330,340,340,,340,Raw,D
2,Roman Demin,Amateur Open,35,M,113.4,125,Russia,,,,,,,,,,,320,,,320,,320,Raw,D
3,Sergey Luchenkov,Amateur Open,38,M,120.7,125,Russia,,,,,,,,,,,300,320,-325,320,,320,Raw,D
4,Aleksey Nemov,Amateur Open,25,M,118.9,125,Russia,,,,,,,,,,,280,300,307.5,307.5,,307.5,Raw,D
1,Sergey Semenets,Amateur Open,37,M,136.2,140,Kazakhstan,,,,,,,,,,,355,-370,-370,355,,355,Raw,D
2,Viktor Krylov,Amateur Open,30,M,132.1,140,Russia,,,,,,,,,,,310,320,-325,320,,320,Raw,D
1,Mikhail Kalinin,Amateur Open,34,M,169.2,140+,Russia,,,,,,,,,,,280,,,280,,280,Raw,D
1,Maksim Streltsov,Amateur Masters 40-49,40,M,144,140+,Russia,,,,,,,,,,,-300,310,330,330,,330,Raw,D
1,Svetlana Burnashova,Pro Open,38,F,51.7,52,Russia,,,,,,,,,,,162.5,167.5,172.5,172.5,-175,172.5,Raw,D
1,Marianna Gasparyan,Pro Open,26,F,59,60,Kazakhstan,,,,,,,,,,,180,200,-210,200,,200,Raw,D
1,Irina Petrovich,Pro Open,31,F,66,67.5,Belarus,,,,,,,,,,,180,205,212.5,212.5,-215,212.5,Raw,D
1,Yulia Medvedeva,Pro Open,36,F,74.5,75,Russia,,,,,,,,,,,202.5,215,220,220,-225,220,Raw,D
1,Maria Helgesson,Pro Open,27,F,81.3,82.5,Sweden,,,,,,,,,,,180,-205,207.5,207.5,215,207.5,Raw,D
1,Stuart Jamieson,Pro Open,26,M,59.7,60,Ireland,,,,,,,,,,,250,270,-286,270,,270,Raw,D
1,Dmitry Nasonov,Pro Open,23,M,75,75,Russia,,,,,,,,,,,-320,320,332.5,332.5,345,332.5,Raw,D
1,Mark Brandon,Pro Open,41,M,99,100,USA,,,,,,,,,,,300,-362.5,-362.5,300,,300,Raw,D
1,Aleksandr Obukhovich,Pro Open,28,M,107,110,Russia,,,,,,,,,,,345,362.5,375,375,-382.5,375,Raw,D
2,Aleksey Vishnitskiy,Pro Open,34,M,110,110,Ukraine,,,,,,,,,,,-360,360,375,375,-385,375,Raw,D
3,Yury Belkin,Pro Open,25,M,103.1,110,Russia,,,,,,,,,,,-370,370,-387.5,370,-387.5,370,Raw,D
1,Stoyan Andreev,Pro Open,37,M,114,125,Bulgaria,,,,,,,,,,,385,400,405,405,-411.5,405,Raw,D
2,Vladislav Krivokonev,Pro Open,27,M,121,125,Ukraine,,,,,,,,,,,340,360,-380,360,-380,360,Raw,D
3,Rufat Agayev,Pro Open,40,M,123.9,125,Azerbaijan,,,,,,,,,,,360,-375,-375,360,-375,360,Raw,D
1,Mikhail Shivlyakov,Pro Open,35,M,137.5,140,Russia,,,,,,,,,,,382.5,400,-410,400,-410,400,Raw,D
2,Alexander Klyushev,Pro Open,31,M,135.9,140,Russia,,,,,,,,,,,380,-400,,380,,380,Raw,D
3,Konstantīn Konstantīnovs,Pro Open,37,M,138.2,140,Latvia,,,,,,,,,,,340,380,-402.5,380,,380,Raw,D
4,Oleg Livshits,Pro Open,42,M,135.4,140,Russia,,,,,,,,,,,360,-375,-375,360,-382.5,360,Raw,D
1,Konstantin Dzhanashiya,Pro Open,25,M,148.9,140+,Georgia,,,,,,,,,,,380,400,-405,400,,400,Raw,D
2,Aleksey Serebryakov,Pro Open,37,M,153.8,140+,Russia,,,,,,,,,,,360,380,-390,380,,380,Raw,D
1,Lina Zubritskaya,Pro Open,27,F,59.4,60,Moldova,,,,,,117.5,122.5,125,125,-127.5,,,,,,125,Raw,B
2,Marianna Gasparyan,Pro Open,26,F,59,60,Kazakhstan,,,,,,110,120,,120,,,,,,,120,Raw,B
3,Yuliya Tatyanina,Pro Open,26,F,59.8,60,Russia,,,,,,100,110,112.5,112.5,-115,,,,,,112.5,Raw,B
1,Irina Petrovich,Pro Open,31,F,66,67.5,Belarus,,,,,,110,,,110,,,,,,,110,Raw,B
1,Yulia Medvedeva,Pro Open,36,F,74.5,75,Russia,,,,,,145,150,152.5,152.5,,,,,,,152.5,Raw,B
1,Svetlana Sinacheva,Pro Open,48,F,75.1,82.5,Russia,,,,,,110,112.5,-115,112.5,-115,,,,,,112.5,Raw,B
1,Roman Eremashvili,Pro Open,34,M,67.5,67.5,Belarus,,,,,,210,222.5,228,228,-230,,,,,,228,Raw,B
1,Stanislav Milostnoy,Pro Open,36,M,81,82.5,Russia,,,,,,-240,240,245,245,-247.5,,,,,,245,Raw,B
1,Vadim Kakhuta,Pro Open,34,M,99.9,100,Russia,,,,,,257.5,-269.5,269.5,269.5,-274,,,,,,269.5,Raw,B
2,Oleg Bazilevich,Pro Open,33,M,98.8,100,Ukraine,,,,,,250,260,-270,260,-270,,,,,,260,Raw,B
1,Evgeniy Zheltenko,Pro Open,33,M,107.1,110,Russia,,,,,,-260,260,-270,260,,,,,,,260,Raw,B
2,Aleksey Solovyev,Pro Open,40,M,105.6,110,Ukraine,,,,,,220,-230,-230,220,,,,,,,220,Raw,B
1,Murad Alibegov,Pro Open,38,M,122.5,125,Russia,,,,,,255,282.5,,282.5,-285,,,,,,282.5,Raw,B
DQ,Georgi Beroshvili,Pro Open,31,M,119.5,125,Georgia,,,,,,-290,-290,-290,,-290,,,,,,,Raw,B
1,Pavel Kolokhin,Pro Open,31,M,129.2,140,Russia,,,,,,275,285,290,290,292.5,,,,,,290,Raw,B
2,Peteris Isājevs,Pro Open,31,M,135,140,Latvia,,,,,,-285,-285,285,285,-295,,,,,,285,Raw,B
3,László Mészáros,Pro Open,46,M,130.7,140,Hungary,,,,,,282.5,-287.5,-290,282.5,,,,,,,282.5,Raw,B
4,Roman Oreshkov,Pro Open,31,M,127.2,140,Russia,,,,,,255,265,-270,265,-270,,,,,,265,Raw,B
5,Pavel Klimov,Pro Open,24,M,127,140,Russia,,,,,,250,-270,-270,250,-270,,,,,,250,Raw,B
1,Andrejs Mūrnieks,Pro Open,35,M,141.5,140+,Latvia,,,,,,270,-280,285,285,292.5,,,,,,285,Raw,B
2,Vladislav Solovyev,Pro Open,28,M,150.6,140+,Russia,,,,,,260,267.5,-270,267.5,-270,,,,,,267.5,Raw,B
3,Mikhal Sidorychev,Pro Open,36,M,141.7,140+,Russia,,,,,,230,240,-250,240,-250,,,,,,240,Raw,B
1,Svetlana Burnashova,Pro Open,38,F,51.7,52,Russia,147.5,155,-162.5,155,-162.5,77.5,82.5,-85,82.5,-85,162.5,167.5,172.5,172.5,,410,Wraps,SBD
1,Yelena Sukhar,Pro Open,26,F,55.2,56,Russia,130,140,145,145,150,70,75,80,80,,110,120,130,130,140,355,Wraps,SBD
1,Marianna Gasparyan,Pro Open,26,F,59,60,Kazakhstan,180,-200,200,200,-225,110,120,,120,,180,200,-210,200,,520,Raw,SBD
1,Yulia Shenkarenko,Pro Open,28,F,67.5,67.5,Ukraine,170,180,190,190,-200,110,120,125,125,127.5,180,200,-210,200,210,515,Wraps,SBD
2,Irina Petrovich,Pro Open,31,F,66,67.5,Belarus,170,185,190,190,192.5,110,120,-125,120,-125,180,205,212.5,212.5,-215,522.5,Wraps,SBD
1,Anna Khudayarov,Pro Open,27,F,82.8,90,Finland,-215,220,-240,220,-240,115,127.5,-135,127.5,-135,210,227.7,-232.5,227.7,-232.5,575.2,Wraps,SBD
1,Irina Yaroshenko,Pro Open,29,F,99.8,90+,Russia,205,225,-237.5,225,,100,107.5,110,110,,200,220,-225,220,-225,555,Wraps,SBD
1,Alexander Karpenko,Pro Open,23,M,75,75,Russia,-270,270,-285,270,-285,150,155,160,160,-165,260,-275,,260,,690,Wraps,SBD
1,Aleksey Nikulin,Pro Open,33,M,82.1,82.5,Russia,330,345,-355,345,,170,-177.5,-177.5,170,,-290,290,-300,290,,805,Wraps,SBD
1,Mauro Spinardi,Pro Open,33,M,108.2,110,Argentina,365,-380,-380,365,,200,210,-217.5,210,,320,340,-355,340,,915,Wraps,SBD
1,Stanislav Shvetsov,Pro Open,27,M,116.8,125,Russia,380,395,405,405,-415,230,240,250,250,,320,335,345,345,-350,1000,Wraps,SBD
2,Witold Wolnowski,Pro Open,35,M,124.8,125,Poland,-330,330,-350,330,-350,220,230,-235,230,,320,340,360,360,-370,920,Wraps,SBD
3,Vitaliy Alekseyev,Pro Open,27,M,116.8,125,Ukraine,320,335,350,350,-360,200,-210,,200,,320,340,-355,340,-355,890,Wraps,SBD
DQ,Wayne Howlett,Pro Open,35,M,122.8,125,Australia,350,-370,,350,,,,,,,,,,,,,Wraps,SBD
DQ,Vusal Aliyev,Pro Open,37,M,131.4,140,Azerbaijan,-390,-390,,,,,,,,,,,,,,,Wraps,SBD
DQ,Eric Lilliebridge,Pro Open,25,M,135.5,140,USA,430,-450,,430,,,,,,,,,,,,,Wraps,SBD
DQ,Ernie Lilliebridge Sr,Pro Open,43,M,138.1,140,USA,-340,,,,,,,,,,,,,,,,Wraps,SBD
1,Andrey Malanichev,Pro Open,38,M,155.4,140+,Russia,-440,460,475,475,,230,250,260,260,,350,370,390,390,400,1125,Wraps,SBD
2,R Golubev,Pro Open,31,M,169.1,140+,Russia,380,400,410,410,-420,210,220,232.5,232.5,240,320,340,-350,340,,982.5,Wraps,SBD
DQ,Timur Gadiyev,Pro Open,30,M,141.1,140+,Russia,-370,-370,-370,,385,220,232.5,240,240,-245,320,340,355,355,-365,,Wraps,SBD
