Division,WeightClassKg,Place,Name,Team,BodyweightKg,Best3SquatKg,Best3BenchKg,Best3DeadliftKg,TotalKg,Equipment,Event,Sex
Boys,51.71,1,Brian Villarreal,Geronimo Navarro,46.45,113.4,65.77,142.88,322.05,Single-ply,SBD,M
Boys,51.71,2,Adrian Garcia,Dripping Springs,51.44,106.59,79.38,133.81,319.78,Single-ply,SBD,M
Boys,51.71,3,Ty Henderson,Lockhart,48.9,90.72,58.97,108.86,258.55,Single-ply,SBD,M
Boys,51.71,4,Trevor Ricks,Dripping Springs,47.81,102.06,52.16,79.38,233.6,Single-ply,SBD,M
Boys,51.71,DQ,Jose Trejo,Lockhart,51.71,,,,,Single-ply,SBD,M
Boys,55.79,1,Zack Reid,Dripping Springs,54.7,111.13,74.84,133.81,319.78,Single-ply,SBD,M
Boys,55.79,2,Mikey Gomez,Kyle Lehman,53.07,102.06,70.31,131.54,303.91,Single-ply,SBD,M
Boys,55.79,DQ,Alex Mata,Lockhart,55.25,117.93,63.5,,,Single-ply,SBD,M
Boys,55.79,DQ,Jose Ramirez,Kyle Lehman,52.8,,,,,Single-ply,SBD,M
Boys,59.87,1,Luis Mena,Del Valle,59.87,147.42,99.79,181.44,428.64,Single-ply,SBD,M
Boys,59.87,2,Jayden Martinez,Kyle Lehman,59.06,127.01,83.91,154.22,365.14,Single-ply,SBD,M
Boys,59.87,3,Sam Muniz,San Marcos,59.33,120.2,79.38,165.56,365.14,Single-ply,SBD,M
Boys,59.87,4,Leo Calderon,San Marcos,57.7,124.74,97.52,138.35,360.61,Single-ply,SBD,M
Boys,59.87,DQ,Jonathan Martinez,Kyle Lehman,59.42,117.93,,,,Single-ply,SBD,M
Boys,67.13,1,Brian Lopez,Geronimo Navarro,65.05,181.44,115.67,192.78,489.88,Single-ply,SBD,M
Boys,67.13,2,Eduardo Lizardo,Del Valle,62.51,136.08,104.33,170.1,410.5,Single-ply,SBD,M
Boys,67.13,3,Josh Tiah,Manor,67.13,136.08,95.25,170.1,401.43,Single-ply,SBD,M
Boys,67.13,4,Ben Remmington,Dripping Springs,66.95,136.08,104.33,142.88,383.29,Single-ply,SBD,M
Boys,67.13,5,Austin Rodriguez,Buda Hays,64.68,117.93,95.25,158.76,371.95,Single-ply,SBD,M
Boys,67.13,6,Blake Cavendar,Dripping Springs,62.69,136.08,90.72,140.61,367.41,Single-ply,SBD,M
Boys,67.13,7,Gary Mackey,Manor,61.51,127.01,81.65,147.42,356.07,Single-ply,SBD,M
Boys,67.13,8,Kenny Miller,Manor,63.23,102.06,95.25,151.95,349.27,Single-ply,SBD,M
Boys,67.13,DQ,James Price,Del Valle,67.13,,,,,Single-ply,SBD,M
Boys,74.84,1,Tyare Ihonvere,Manor,74.84,183.7,92.99,204.12,480.81,Single-ply,SBD,M
Boys,74.84,2,Marc Pickett,Kyle Lehman,74.12,161.03,124.74,188.24,474,Single-ply,SBD,M
Boys,74.84,3,David Coolidge,Manor,72.94,167.83,97.52,195.04,460.4,Single-ply,SBD,M
Boys,74.84,4,Manny Salazar,San Marcos,70.31,167.83,99.79,188.24,455.86,Single-ply,SBD,M
Boys,74.84,5,Ever Calderon,Buda Hays,70.58,167.83,97.52,181.44,446.79,Single-ply,SBD,M
Boys,74.84,6,Nieves Garcia,Kyle Lehman,72.85,138.35,111.13,195.04,444.52,Single-ply,SBD,M
Boys,74.84,7,Greg Rivera,Lockhart,72.94,138.35,95.25,163.29,396.89,Single-ply,SBD,M
Boys,74.84,8,Aron Brown,Manor,72.3,102.06,79.38,156.49,337.93,Single-ply,SBD,M
Boys,74.84,DQ,Joseph Alvarez,Kyle Lehman,73.12,,,,,Single-ply,SBD,M
Boys,74.84,DQ,Brennan Morgan,Dripping Springs,74.21,,,,,Single-ply,SBD,M
Boys,74.84,DQ,Angel Santana,Buda Hays,73.84,124.74,,,,Single-ply,SBD,M
Boys,82.1,1,Rhil Dougherty,Dripping Springs,81.19,231.33,147.42,254.01,632.76,Single-ply,SBD,M
Boys,82.1,2,Jeremy Holloway,Kyle Lehman,81.92,210.92,124.74,238.14,573.79,Single-ply,SBD,M
Boys,82.1,3,Jacob Palmares,Buda Hays,80.1,204.12,117.93,226.8,548.85,Single-ply,SBD,M
Boys,82.1,4,Jay Leal,Geronimo Navarro,79.83,201.85,113.4,226.8,542.04,Single-ply,SBD,M
Boys,82.1,5,Eutiquio Mondragon,Kyle Lehman,78.56,179.17,122.47,176.9,478.54,Single-ply,SBD,M
Boys,82.1,6,Marcos Johnson,Lockhart,81.83,165.56,108.86,204.12,478.54,Single-ply,SBD,M
Boys,82.1,7,Joel Juarez,Lockhart,82.1,167.83,111.13,195.04,474,Single-ply,SBD,M
Boys,82.1,8,Breon Kelley,Manor,81.01,170.1,97.52,204.12,471.74,Single-ply,SBD,M
Boys,82.1,9,Jared Leal,Geronimo Navarro,79.92,181.44,97.52,185.97,464.93,Single-ply,SBD,M
Boys,82.1,10,Gunner Brown,Lockhart,77.11,131.54,102.06,192.78,426.38,Single-ply,SBD,M
Boys,82.1,11,James Ball,Del Valle,79.65,142.88,97.52,170.1,410.5,Single-ply,SBD,M
Boys,82.1,12,Matt Gomez,Geronimo Navarro,80.83,147.42,90.72,158.76,396.89,Single-ply,SBD,M
Boys,82.1,13,Victor Martinez,San Marcos,80.01,136.08,83.91,156.49,376.48,Single-ply,SBD,M
Boys,82.1,14,Richard Fry,Lockhart,76.84,140.61,68.04,149.69,358.34,Single-ply,SBD,M
Boys,82.1,DQ,Sammie Spencer,Manor,76.75,,,,,Single-ply,SBD,M
Boys,82.1,DQ,Daniel Rangel,Del Valle,82.1,,,,,Single-ply,SBD,M
Boys,82.1,DQ,Will Grear,Del Valle,82.1,,,,,Single-ply,SBD,M
Boys,82.1,DQ,Nick Vasquez,Del Valle,82.1,,,,,Single-ply,SBD,M
Boys,89.81,1,Jj Johnson,Manor,89.45,217.72,158.76,260.82,637.3,Single-ply,SBD,M
Boys,89.81,2,Josh Mercado,San Marcos,88.27,217.72,147.42,260.82,625.96,Single-ply,SBD,M
Boys,89.81,3,Tyrone Owens,Manor,87.82,231.33,149.69,226.8,607.81,Single-ply,SBD,M
Boys,89.81,4,Justin Hatfield,Geronimo Navarro,89.18,197.31,122.47,226.8,546.58,Single-ply,SBD,M
Boys,89.81,5,Nick Graner,Dripping Springs,88.81,183.7,127.01,215.46,526.17,Single-ply,SBD,M
Boys,89.81,6,Ray Hall,Manor,86.82,167.83,124.74,226.8,519.36,Single-ply,SBD,M
Boys,89.81,7,Justin Torres,Lockhart,89.09,199.58,117.93,195.04,512.56,Single-ply,SBD,M
Boys,89.81,8,Shawn Schmidt,Geronimo Navarro,86.73,181.44,120.2,181.44,483.08,Single-ply,SBD,M
Boys,89.81,9,Daryl Ontiveros,San Marcos,84.82,149.69,102.06,181.44,433.18,Single-ply,SBD,M
Boys,89.81,10,Jonis Nava,San Marcos,86.64,151.95,68.04,183.7,403.7,Single-ply,SBD,M
Boys,89.81,DQ,Preston Ellison,Buda Hays,88.9,,,,,Single-ply,SBD,M
Boys,99.79,1,Elias Villalobos,San Marcos,96.8,226.8,136.08,272.16,635.03,Single-ply,SBD,M
Boys,99.79,2,Conner Roe,Geronimo Navarro,98.34,233.6,165.56,235.87,635.03,Single-ply,SBD,M
Boys,99.79,3,Zach Smith,Dripping Springs,95.8,249.48,136.08,233.6,619.15,Single-ply,SBD,M
Boys,99.79,4,Nick Hykel,Buda Hays,97.61,222.26,158.76,235.87,616.89,Single-ply,SBD,M
Boys,99.79,5,Avery McThompson,Dripping Springs,98.16,222.26,149.69,222.26,594.21,Single-ply,SBD,M
Boys,99.79,6,Curtis Hawkins,Lockhart,99.43,226.8,142.88,222.26,591.94,Single-ply,SBD,M
Boys,99.79,7,Ryan Buehler,Dripping Springs,92.08,206.38,147.42,147.42,501.22,Single-ply,SBD,M
Boys,99.79,8,Colby Ardrey,Buda Hays,94.35,181.44,131.54,183.7,496.68,Single-ply,SBD,M
Boys,99.79,9,Adrian Hunter,Manor,93.44,147.42,99.79,224.53,471.74,Single-ply,SBD,M
Boys,99.79,10,Erick Fowler,Manor,96.62,165.56,117.93,183.7,467.2,Single-ply,SBD,M
Boys,99.79,11,Daniel Perez,Kyle Lehman,97.61,170.1,111.13,183.7,464.93,Single-ply,SBD,M
Boys,99.79,12,Marshall Crabb,Geronimo Navarro,98.07,145.15,95.25,158.76,399.16,Single-ply,SBD,M
Boys,99.79,13,Matt Reyes,Buda Hays,98.88,149.69,81.65,161.03,392.36,Single-ply,SBD,M
Boys,109.77,1,Marcus Mesta,Manor,108.23,272.16,149.69,215.46,637.3,Single-ply,SBD,M
Boys,109.77,2,Jeremy Rodriguez,Geronimo Navarro,108.41,254.01,163.29,210.92,628.23,Single-ply,SBD,M
Boys,109.77,3,Lane Springs,Geronimo Navarro,102.15,217.72,133.81,190.51,542.04,Single-ply,SBD,M
Boys,109.77,4,Seth Crummley,Dripping Springs,100.33,170.1,120.2,188.24,478.54,Single-ply,SBD,M
Boys,124.74,1,Jesse Benevides Munoz,San Marcos,123.65,285.76,158.76,256.28,700.8,Single-ply,SBD,M
Boys,124.74,2,Manny Banda,Manor,117.3,238.14,117.93,233.6,589.67,Single-ply,SBD,M
Boys,124.74,3,Jimmy DeLeon,Manor,122.74,210.92,113.4,204.12,528.44,Single-ply,SBD,M
Boys,124.74,4,Josh Urrutia,San Marcos,121.65,190.51,120.2,204.12,514.83,Single-ply,SBD,M
Boys,124.74,5,Enrique Guerrola,Buda Hays,114.31,179.17,120.2,204.12,503.49,Single-ply,SBD,M
Boys,124.74,6,Seth Seale,Buda Hays,114.58,167.83,136.08,167.83,471.74,Single-ply,SBD,M
Boys,124.74,7,Tristian Reyes,Manor,124.56,183.7,95.25,158.76,437.72,Single-ply,SBD,M
Boys,124.74,DQ,Drake Bartz,Buda Hays,117.75,183.7,,,,Single-ply,SBD,M
Boys,124.74+,1,Joseph Pena,San Antonio Holy Cross,144.33,328.85,165.56,188.24,682.66,Single-ply,SBD,M
Boys,124.74+,2,Julian Silguero,Kyle Lehman,140.16,272.16,142.88,192.78,607.81,Single-ply,SBD,M
Boys,124.74+,3,Anthony Herrera,Del Valle,146.06,206.38,111.13,179.17,496.68,Single-ply,SBD,M
