Division,WeightClassKg,Place,Name,Team,BodyweightKg,Best3SquatKg,Best3BenchKg,Best3DeadliftKg,TotalKg,Equipment,Event,Sex
Girls,44.23,1,DeShante Jackson,Longview,44,81.65,34.02,113.4,229.06,Single-ply,SBD,F
Girls,44.23,2,Jessica Taylor,Gilmer,43.09,86.18,40.82,90.72,217.72,Single-ply,SBD,F
Girls,47.85,1,Karina Castillo,Gilmer,46.72,111.13,54.43,113.4,278.96,Single-ply,SBD,F
Girls,51.94,1,Luisa Soto,White Oak,50.8,113.4,40.82,113.4,267.62,Single-ply,SBD,F
Girls,51.94,2,Haley Haddock,Hallsville,51.89,102.06,49.9,113.4,265.35,Single-ply,SBD,F
Girls,51.94,3,Kailey Griffith,Gilmer,51.71,99.79,54.43,106.59,260.82,Single-ply,SBD,F
Girls,51.94,4,Ti'Dache Waters,Gilmer,50.8,106.59,40.82,108.86,256.28,Single-ply,SBD,F
Girls,51.94,5,Kelsey Brown,Hallsville,48.99,72.57,40.82,92.99,206.38,Single-ply,SBD,F
Girls,56.02,1,Victoria Urquidez,Gilmer,55.79,111.13,61.23,133.81,306.17,Single-ply,SBD,F
Girls,56.02,2,Annie Stevenson,Gilmer,55.79,127.01,52.16,127.01,306.17,Single-ply,SBD,F
Girls,56.02,3,Tyetiana Rugley,Longview,55.79,102.06,40.82,145.15,288.03,Single-ply,SBD,F
Girls,56.02,4,Destiny Jackson,Longview Pine Tree,54.88,90.72,47.63,95.25,233.6,Single-ply,SBD,F
Girls,56.02,5,Taleiah Fortner,Longview,54.88,74.84,40.82,111.13,226.8,Single-ply,SBD,F
Girls,56.02,6,Madilyn Jaggers,Hallsville,55.97,79.38,43.09,104.33,226.8,Single-ply,SBD,F
Girls,56.02,7,Joanna Campozano,Longview,52.16,86.18,31.75,104.33,222.26,Single-ply,SBD,F
Girls,60.1,1,Sydney Bell,Gilmer,59.42,124.74,56.7,127.01,308.44,Single-ply,SBD,F
Girls,60.1,2,Chelsea Sheffield,Hallsville,58.97,106.59,47.63,124.74,278.96,Single-ply,SBD,F
Girls,60.1,3,Keneshia Tatum,Longview,56.25,95.25,47.63,127.01,269.89,Single-ply,SBD,F
Girls,60.1,4,Saida Peitre,Longview Pine Tree,57.61,104.33,54.43,99.79,258.55,Single-ply,SBD,F
Girls,67.36,1,Cierra Anderson,Gilmer,63.05,136.08,58.97,124.74,319.78,Single-ply,SBD,F
Girls,67.36,2,Colleen Pulpan,White Oak,64.86,122.47,70.31,124.74,317.51,Single-ply,SBD,F
Girls,67.36,3,Alexis Smith,Hallsville,63.78,113.4,47.63,140.61,301.64,Single-ply,SBD,F
Girls,67.36,4,Carrie Gilliland,Longview,62.14,104.33,49.9,131.54,285.76,Single-ply,SBD,F
Girls,67.36,5,Brittney Ferguson,Longview,61.23,92.99,40.82,124.74,258.55,Single-ply,SBD,F
Girls,67.36,6,Jenifer Diaz,Longview Pine Tree,63.41,83.91,47.63,86.18,217.72,Single-ply,SBD,F
Girls,75.07,1,Marshae Davis,Gilmer,74.84,142.88,65.77,151.95,360.61,Single-ply,SBD,F
Girls,75.07,2,Natalie Vallejo,Hallsville,71.58,129.27,54.43,127.01,310.71,Single-ply,SBD,F
Girls,75.07,3,Madison Pike,Longview Pine Tree,72.03,106.59,61.23,108.86,276.69,Single-ply,SBD,F
Girls,75.07,4,Nallely Vasquez,Longview Pine Tree,69.4,97.52,52.16,99.79,249.48,Single-ply,SBD,F
Girls,75.07,5,Amiya Epps,Longview Pine Tree,71.49,92.99,49.9,92.99,235.87,Single-ply,SBD,F
Girls,75.07,6,Ashley Quintanilla,Longview Pine Tree,73.94,88.45,43.09,83.91,215.46,Single-ply,SBD,F
Girls,82.33,1,Nikki Bell,Longview,81.19,147.42,56.7,163.29,367.41,Single-ply,SBD,F
Girls,82.33,2,Jocalynn Fountain,Gilmer,81.19,158.76,65.77,140.61,365.14,Single-ply,SBD,F
Girls,82.33,3,Seawillow Bryant,Longview,78.02,124.74,52.16,136.08,312.98,Single-ply,SBD,F
Girls,90.04,1,Cynthia Rodriguez,Longview,89.36,117.93,49.9,149.69,317.51,Single-ply,SBD,F
Girls,90.04,2,Tionna Fite,Longview Pine Tree,84.01,108.86,58.97,111.13,278.96,Single-ply,SBD,F
Girls,100.02,1,Serenity Wilson,Gilmer,90.17,129.27,61.23,131.54,322.05,Single-ply,SBD,F
Girls,117.71,1,Bonnie Clifton,Gilmer,114.31,154.22,70.31,149.69,374.21,Single-ply,SBD,F
Girls,117.71,2,Alesia Anthony,Longview Pine Tree,103.42,136.08,65.77,92.99,294.84,Single-ply,SBD,F
Girls,117.71+,1,Shannie Jones,Gilmer,117.84,190.51,63.5,149.69,403.7,Single-ply,SBD,F
