Division,WeightClassKg,Place,Name,Team,BodyweightKg,Best3SquatKg,Best3BenchKg,Best3DeadliftKg,TotalKg,Equipment,Event,Sex
Girls,44.23,1,Destiny Barrientez,Kenedy,44.09,74.84,49.9,104.33,229.06,Single-ply,SBD,F
Girls,44.23,2,Ariana Aguilar,Stockdale,39.01,83.91,43.09,99.79,226.8,Single-ply,SBD,F
Girls,44.23,3,Catalyna Mata,San Antonio Brooks Academy,43.27,83.91,34.02,97.52,215.46,Single-ply,SBD,F
Girls,44.23,4,Angelica Hartsfield,Kenedy,43.18,77.11,27.22,95.25,199.58,Single-ply,SBD,F
Girls,44.23,5,Diana Rosales,Yorktown,42.18,68.04,31.75,77.11,176.9,Single-ply,SBD,F
Girls,47.85,1,Alexis Longoria,Yorktown,47.45,117.93,40.82,108.86,267.62,Single-ply,SBD,F
Girls,47.85,2,Annie Ochoa,Yorktown,47.72,106.59,43.09,102.06,251.74,Single-ply,SBD,F
Girls,47.85,3,Gabriella Nagueras,Universal City Randolph,46.9,68.04,29.48,58.97,156.49,Single-ply,SBD,F
Girls,51.94,1,Liszette Rosado-Ortiz,San Antonio Brooks Academy,50.35,136.08,92.99,129.27,358.34,Single-ply,SBD,F
Girls,51.94,2,Sophia Romero,Pleasanton,51.8,140.61,70.31,136.08,347,Single-ply,SBD,F
Girls,51.94,3,Phaidra Malcher,Poth,51.17,124.74,68.04,111.13,303.91,Single-ply,SBD,F
Girls,51.94,4,Megan Bailey,Karnes City,48.99,108.86,47.63,108.86,265.35,Single-ply,SBD,F
Girls,51.94,5,Regan Boissiere,Universal City Randolph,51.35,92.99,49.9,95.25,238.14,Single-ply,SBD,F
Girls,51.94,6,Shaylee Steed,Pleasanton,51.44,83.91,54.43,86.18,224.53,Single-ply,SBD,F
Girls,51.94,7,Aimsley Blank,Yorktown,50.98,83.91,43.09,90.72,217.72,Single-ply,SBD,F
Girls,51.94,8,Raven Boissiere,Universal City Randolph,48.9,74.84,40.82,83.91,199.58,Single-ply,SBD,F
Girls,51.94,9,Gabby Martinez,Kenedy,50.44,81.65,31.75,86.18,199.58,Single-ply,SBD,F
Girls,51.94,DQ,Kayla Barrientez,Pettus,51.89,,,,,Single-ply,SBD,F
Girls,56.02,1,Codi Steenbeke,Pleasanton,55.97,131.54,54.43,129.27,315.25,Single-ply,SBD,F
Girls,56.02,2,Serenity Alaniz,Karnes City,54.7,122.47,49.9,120.2,292.57,Single-ply,SBD,F
Girls,56.02,3,Robin Naranjo,Yorktown,53.34,111.13,47.63,115.67,274.42,Single-ply,SBD,F
Girls,56.02,4,Jazmin Estrada,San Antonio Brooks Academy,54.98,108.86,61.23,104.33,274.42,Single-ply,SBD,F
Girls,56.02,5,Kristianna Kelley,Pleasanton,54.43,108.86,54.43,104.33,267.62,Single-ply,SBD,F
Girls,56.02,6,Jahnvi Bhakta,San Antonio Brooks Academy,54.79,102.06,49.9,115.67,267.62,Single-ply,SBD,F
Girls,56.02,7,Jessica Ayala,Stockdale,55.88,99.79,49.9,106.59,256.28,Single-ply,SBD,F
Girls,56.02,8,Kalyssa Rios,Pleasanton,55.34,104.33,45.36,102.06,251.74,Single-ply,SBD,F
Girls,56.02,9,Mariah Perez,Yorktown,55.88,81.65,38.56,90.72,210.92,Single-ply,SBD,F
Girls,56.02,10,Madison Pron,Universal City Randolph,53.71,65.77,36.29,77.11,179.17,Single-ply,SBD,F
Girls,56.02,DQ,Alix Timbs,Pettus,55.79,102.06,38.56,,,Single-ply,SBD,F
Girls,60.1,1,Meranda Segura,Karnes City,59.42,142.88,56.7,127.01,326.59,Single-ply,SBD,F
Girls,60.1,2,Emma Johnson,Poth,57.79,106.59,58.97,111.13,276.69,Single-ply,SBD,F
Girls,60.1,3,Lee Ramirez,Karnes City,58.97,104.33,49.9,113.4,267.62,Single-ply,SBD,F
Girls,60.1,4,Maya Williams,Universal City Randolph,57.15,95.25,49.9,102.06,247.21,Single-ply,SBD,F
Girls,60.1,5,Audrey Rose,Refugio,58.24,92.99,47.63,102.06,242.67,Single-ply,SBD,F
Girls,60.1,6,Amia Skeet-King,Universal City Randolph,59.87,92.99,43.09,97.52,233.6,Single-ply,SBD,F
Girls,60.1,7,Kaylin Yanta,Poth,59.06,83.91,43.09,92.99,219.99,Single-ply,SBD,F
Girls,60.1,8,Alexis Alvarez,Goliad,57.88,74.84,52.16,90.72,217.72,Single-ply,SBD,F
Girls,60.1,9,Mya Jackson,Refugio,59.78,68.04,34.02,77.11,179.17,Single-ply,SBD,F
Girls,60.1,10,Aiden Salinas,Three Rivers,56.25,31.75,24.95,52.16,108.86,Single-ply,SBD,F
Girls,67.36,1,Nallely Gutierrez,San Antonio Brooks Academy,64.86,158.76,106.59,170.1,435.45,Single-ply,SBD,F
Girls,67.36,2,Lauren Lara,San Antonio Brooks Academy,65.23,127.01,63.5,142.88,333.39,Single-ply,SBD,F
Girls,67.36,3,Kaitlyn Duval,Goliad,65.14,136.08,63.5,117.93,317.51,Single-ply,SBD,F
Girls,67.36,4,Lauryn Campos,Yorktown,63.32,117.93,43.09,138.35,299.37,Single-ply,SBD,F
Girls,67.36,5,Melanie Delgado,San Antonio Brooks Academy,62.14,111.13,47.63,113.4,272.16,Single-ply,SBD,F
Girls,67.36,6,Paige Nance,Yorktown,65.77,111.13,52.16,99.79,263.08,Single-ply,SBD,F
Girls,67.36,7,Erica Walker,Pleasanton,62.87,99.79,49.9,111.13,260.82,Single-ply,SBD,F
Girls,67.36,8,Karissa Rios,Pleasanton,67.31,102.06,47.63,95.25,244.94,Single-ply,SBD,F
Girls,67.36,9,Emma Kenny,Universal City Randolph,63.32,72.57,34.02,92.99,199.58,Single-ply,SBD,F
Girls,67.36,10,Alex Villanueva,Kenedy,64.41,63.5,38.56,95.25,197.31,Single-ply,SBD,F
Girls,67.36,11,Margaret Seebeck,Universal City Randolph,63.32,61.23,36.29,86.18,183.7,Single-ply,SBD,F
Girls,75.07,1,Alexis Salazar,George West,73.39,158.76,74.84,136.08,369.68,Single-ply,SBD,F
Girls,75.07,2,Loren Chavez,San Antonio Brooks Academy,73.57,142.88,88.45,138.35,369.68,Single-ply,SBD,F
Girls,75.07,3,Gabby Albiar,Kenedy,72.3,136.08,74.84,154.22,365.14,Single-ply,SBD,F
Girls,75.07,4,Kinley Liska,Karnes City,72.57,147.42,77.11,133.81,358.34,Single-ply,SBD,F
Girls,75.07,5,Adrianna Landry,San Antonio Brooks Academy,70.31,138.35,68.04,136.08,342.46,Single-ply,SBD,F
Girls,75.07,6,Ashley Chacon,Poth,68.49,127.01,61.23,117.93,306.17,Single-ply,SBD,F
Girls,75.07,7,Mariah Gomez,Karnes City,73.39,129.27,54.43,111.13,294.84,Single-ply,SBD,F
Girls,75.07,8,Harley Porter,Pleasanton,74.12,127.01,47.63,111.13,285.76,Single-ply,SBD,F
Girls,75.07,9,Mary Jane Barrientez,Kenedy,69.4,97.52,38.56,106.59,242.67,Single-ply,SBD,F
Girls,75.07,10,Becca Moreno,Poth,72.21,74.84,36.29,95.25,206.38,Single-ply,SBD,F
Girls,75.07,11,Camryn Garza,Kenedy,70.58,61.23,34.02,92.99,188.24,Single-ply,SBD,F
Girls,75.07,12,Tabitha Sanchez,Pleasanton,69.85,54.43,34.02,81.65,170.1,Single-ply,SBD,F
Girls,82.33,1,Natalia Ortiz,San Antonio Brooks Academy,77.56,138.35,74.84,142.88,356.07,Single-ply,SBD,F
Girls,82.33,2,Cassie Castro,Poth,78.65,149.69,63.5,142.88,356.07,Single-ply,SBD,F
Girls,82.33,3,Aubry Williams,Goliad,81.37,142.88,63.5,131.54,337.93,Single-ply,SBD,F
Girls,82.33,4,Blanca Guerra,Goliad,76.11,127.01,63.5,145.15,335.66,Single-ply,SBD,F
Girls,82.33,5,Larissa Miller,Kenedy,81.01,113.4,74.84,136.08,324.32,Single-ply,SBD,F
Girls,82.33,6,Emma Rose,Refugio,79.29,104.33,54.43,136.08,294.84,Single-ply,SBD,F
Girls,82.33,7,Maeleigh Brown,Refugio,81.28,108.86,58.97,113.4,281.23,Single-ply,SBD,F
Girls,82.33,8,Ayde Ordaz,Refugio,76.75,99.79,52.16,113.4,265.35,Single-ply,SBD,F
Girls,90.04,1,Kyana Gayden,Universal City Randolph,88.18,158.76,56.7,149.69,365.14,Single-ply,SBD,F
Girls,90.04,2,Adriana Martinez,Kenedy,82.64,131.54,70.31,131.54,333.39,Single-ply,SBD,F
Girls,90.04,3,Abigail Vela,Three Rivers,84.82,136.08,49.9,136.08,322.05,Single-ply,SBD,F
Girls,90.04,4,Aimee Youngblood,Pleasanton,87.72,129.27,68.04,122.47,319.78,Single-ply,SBD,F
Girls,90.04,5,Olivia Monsevais,Karnes City,85.28,127.01,54.43,127.01,308.44,Single-ply,SBD,F
Girls,90.04,6,DeAnna Wood,San Antonio Brooks Academy,87.82,102.06,88.45,115.67,306.17,Single-ply,SBD,F
Girls,90.04,7,Gabby Franco,Karnes City,88.63,117.93,52.16,106.59,276.69,Single-ply,SBD,F
Girls,90.04,8,Elizabeth Emerson,George West,87.27,88.45,47.63,108.86,244.94,Single-ply,SBD,F
Girls,90.04,9,Sadie Tristan,Karnes City,87.54,74.84,47.63,92.99,215.46,Single-ply,SBD,F
Girls,100.02,1,Amberosia Aleman,Kenedy,94.17,145.15,79.38,151.95,376.48,Single-ply,SBD,F
Girls,100.02,2,Malayasia Rubit,Goliad,95.8,138.35,52.16,138.35,328.85,Single-ply,SBD,F
Girls,100.02,3,Leigha Trevino,Pettus,93.44,124.74,40.82,129.27,294.84,Single-ply,SBD,F
Girls,100.02,4,Jessica Diaz,Karnes City,91.63,113.4,58.97,120.2,292.57,Single-ply,SBD,F
Girls,100.02,5,Darian De los Santos,Karnes City,98.88,97.52,45.36,113.4,256.28,Single-ply,SBD,F
Girls,100.02,6,Gabriella Chapa,Pettus,90.81,68.04,34.02,113.4,215.46,Single-ply,SBD,F
Girls,117.71,1,Samantha Heimer,San Antonio Brooks Academy,102.06,176.9,136.08,147.42,460.4,Single-ply,SBD,F
Girls,117.71,2,Marissa Hernandez,Kenedy,111.67,145.15,68.04,142.88,356.07,Single-ply,SBD,F
Girls,117.71,3,Madison Oaks,Yorktown,110.95,142.88,56.7,131.54,331.12,Single-ply,SBD,F
Girls,117.71,4,Jazz-Lynn Lewis,Refugio,114.58,106.59,58.97,142.88,308.44,Single-ply,SBD,F
Girls,117.71,5,Charity Holland,Universal City Randolph,102.6,124.74,56.7,117.93,299.37,Single-ply,SBD,F
Girls,117.71,DQ,Alexis Alvarez,Yorktown,115.21,,,,,Single-ply,SBD,F
Girls,117.71+,1,Amber Gonzales,Kenedy,127.64,102.06,86.18,154.22,342.46,Single-ply,SBD,F
Girls,117.71+,2,Aracely Nieto,George West,120.2,95.25,54.43,122.47,272.16,Single-ply,SBD,F
Girls,,NS,Kileigh Boggess,Goliad,,,,,,Single-ply,SBD,F
Girls,,NS,Aunriette Davis,Goliad,,,,,,Single-ply,SBD,F
Girls,,NS,Hailey Koti,Pleasanton,,,,,,Single-ply,SBD,F
Girls,,NS,Daniella Coronado,Refugio,,,,,,Single-ply,SBD,F
Girls,,NS,Maggie Cleary,Pleasanton,,,,,,Single-ply,SBD,F
Girls,,NS,Kendall Straube,Three Rivers,,,,,,Single-ply,SBD,F
