Division,WeightClassKg,Place,Name,Team,BodyweightKg,Best3SquatKg,Best3BenchKg,Best3DeadliftKg,TotalKg,Equipment,Event,Sex
Boys,55.79,1,Martin Villarreal,Laredo United South,51.89,136.08,72.57,170.1,378.75,Single-ply,SBD,M
Boys,51.71,2,Francisco Fuentes,Zapata,47.17,129.27,70.31,122.47,322.05,Single-ply,SBD,M
Boys,51.71,3,Luis Ramírez,Laredo Cigarroa,51.07,113.4,70.31,136.08,319.78,Single-ply,SBD,M
Boys,51.71,4,Jake Gutierrez,Zapata,51.26,124.74,61.23,129.27,315.25,Single-ply,SBD,M
Boys,55.79,1,Jerry Alaniz,Laredo Alexander,55.7,174.63,104.33,165.56,444.52,Single-ply,SBD,M
Boys,55.79,2,Edgar Barbosa,Laredo Cigarroa,55.43,172.37,83.91,142.88,399.16,Single-ply,SBD,M
Boys,55.79,3,Eric Oliva,Laredo United South,54.7,147.42,88.45,158.76,394.63,Single-ply,SBD,M
Boys,55.79,4,Eli Torres,Laredo Nixon,54.16,115.67,74.84,145.15,335.66,Single-ply,SBD,M
Boys,55.79,5,Randy Castillo,Bruni,55.79,127.01,58.97,147.42,333.39,Single-ply,SBD,M
Boys,59.87,1,David Lopez,Laredo United South,59.87,161.03,106.59,174.63,442.25,Single-ply,SBD,M
Boys,59.87,2,Rey Fernandez,Donna,57.97,161.03,83.91,174.63,419.57,Single-ply,SBD,M
Boys,59.87,3,Mario Cantu,Laredo Cigarroa,59.6,154.22,83.91,165.56,403.7,Single-ply,SBD,M
Boys,67.13,4,Joel Lopez,Bruni,60.06,113.4,56.7,142.88,312.98,Single-ply,SBD,M
Boys,59.87,5,Luis Guevara,Laredo Nixon,57.88,111.13,74.84,117.93,303.91,Single-ply,SBD,M
Boys,67.13,1,Jordy Silguero,Hebbronville,66.41,192.78,136.08,172.37,501.22,Single-ply,SBD,M
Boys,67.13,2,Marco Ortiz,Laredo Alexander,65.86,183.7,113.4,195.04,492.15,Single-ply,SBD,M
Boys,67.13,3,Cesar Alfaro,Laredo United South,64.23,181.44,108.86,185.97,476.27,Single-ply,SBD,M
Boys,67.13,4,Abel Garcia,Donna,66.22,181.44,97.52,176.9,455.86,Single-ply,SBD,M
Boys,67.13,5,Fermin Rendon,Laredo Nixon,67.13,165.56,102.06,188.24,455.86,Single-ply,SBD,M
Boys,67.13,6,Carlos Vedarte,Laredo United South,63.23,167.83,92.99,176.9,437.72,Single-ply,SBD,M
Boys,67.13,7,Mike Alvarez,Zapata,66.68,158.76,83.91,170.1,412.77,Single-ply,SBD,M
Boys,67.13,8,Luis Mendoza,Laredo Martin,60.96,129.27,65.77,151.95,347,Single-ply,SBD,M
Boys,67.13,9,Albert Estrada,Laredo Martin,62.32,117.93,102.06,117.93,337.93,Single-ply,SBD,M
Boys,67.13,10,Tadeo Gonzalez,Laredo Nixon,66.77,124.74,70.31,127.01,322.05,Single-ply,SBD,M
Boys,74.84,1,Kevin Guerrero,Hebbronville,70.76,204.12,124.74,222.26,551.11,Single-ply,SBD,M
Boys,74.84,2,Rudy Leon,Laredo United South,73.57,174.63,104.33,226.8,505.76,Single-ply,SBD,M
Boys,74.84,3,Marco Lopez,Donna,71.76,188.24,111.13,174.63,474,Single-ply,SBD,M
Boys,74.84,4,Edgar Trejo,Laredo United South,74.48,163.29,108.86,192.78,464.93,Single-ply,SBD,M
Boys,74.84,5,Sergio Garcia,Laredo Nixon,73.57,172.37,92.99,183.7,449.06,Single-ply,SBD,M
Boys,74.84,6,David Reyes,Laredo Martin,74.66,165.56,88.45,183.7,437.72,Single-ply,SBD,M
Boys,74.84,7,Estevan Alfaro,Bruni,71.76,151.95,81.65,188.24,421.84,Single-ply,SBD,M
Boys,74.84,8,Ramiro Garcia,Zapata,73.94,158.76,86.18,174.63,419.57,Single-ply,SBD,M
Boys,74.84,9,Kris Yanez,Donna,74.57,161.03,99.79,151.95,412.77,Single-ply,SBD,M
Boys,74.84,10,Jose Mosequeda,Laredo Cigarroa,69.04,113.4,72.57,170.1,356.07,Single-ply,SBD,M
Boys,74.84,11,Javier Martinez,Laredo Alexander,70.22,117.93,72.57,142.88,333.39,Single-ply,SBD,M
Boys,74.84,12,Javier Botello,Laredo Nixon,73.12,106.59,74.84,136.08,317.51,Single-ply,SBD,M
Boys,74.84,DQ,Edgar Mendiola,Laredo Nixon,74.03,,,,,Single-ply,SBD,M
Boys,82.1,1,Joel Elizondo,Zapata,79.83,181.44,108.86,197.31,487.61,Single-ply,SBD,M
Boys,89.81,2,Victor Ramos,Laredo United South,82.28,170.1,111.13,201.85,483.08,Single-ply,SBD,M
Boys,89.81,3,Carlos Martinez,Laredo Alexander,82.19,181.44,124.74,172.37,478.54,Single-ply,SBD,M
Boys,82.1,4,Adrian Munoz,Laredo Martin,80.83,172.37,102.06,183.7,458.13,Single-ply,SBD,M
Boys,82.1,5,Daniel Briones,Laredo United South,78.02,167.83,104.33,181.44,453.59,Single-ply,SBD,M
Boys,82.1,6,Marco DeLuna,Laredo United South,75.21,165.56,106.59,176.9,449.06,Single-ply,SBD,M
Boys,82.1,7,David Galvan,Laredo Cigarroa,80.83,156.49,92.99,192.78,442.25,Single-ply,SBD,M
Boys,82.1,8,Mike Cadena,Donna,77.93,158.76,97.52,174.63,430.91,Single-ply,SBD,M
Boys,82.1,9,Diego Chapa,Laredo Cigarroa,80.83,147.42,88.45,179.17,415.04,Single-ply,SBD,M
Boys,82.1,10,Frank Garcia,Laredo Martin,82.1,156.49,79.38,179.17,415.04,Single-ply,SBD,M
Boys,82.1,11,Benito Orozco,Laredo Martin,80.01,138.35,108.86,151.95,399.16,Single-ply,SBD,M
Boys,82.1,12,Randall Hinojosa,Laredo Alexander,78.93,147.42,92.99,154.22,394.63,Single-ply,SBD,M
Boys,82.1,13,Jaime Hinojosa,Laredo Alexander,77.47,147.42,72.57,158.76,378.75,Single-ply,SBD,M
Boys,89.81,1,Rene Saenz,Hebbronville,86.82,229.06,102.06,181.44,512.56,Single-ply,SBD,M
Boys,89.81,2,AJ Alvarez,Donna,87.63,192.78,108.86,192.78,494.42,Single-ply,SBD,M
Boys,89.81,3,Daniel Barrera,Hebbronville,88.36,165.56,115.67,181.44,462.66,Single-ply,SBD,M
Boys,89.81,4,Zachary Smith,Bruni,89.45,147.42,81.65,151.95,381.02,Single-ply,SBD,M
Boys,89.81,5,Frank Rossi,Hebbronville,87.82,147.42,72.57,154.22,374.21,Single-ply,SBD,M
Boys,89.81,6,Bryan Vela,Bruni,84.46,124.74,61.23,147.42,333.39,Single-ply,SBD,M
Boys,99.79,1,Erik Fernandez,Laredo Nixon,98.79,219.99,145.15,231.33,596.47,Single-ply,SBD,M
Boys,99.79,2,Jose Coreas,Laredo Cigarroa,95.07,244.94,122.47,226.8,594.21,Single-ply,SBD,M
Boys,99.79,3,Guadalupe Gonzalez,Zapata,98.88,247.21,115.67,213.19,576.06,Single-ply,SBD,M
Boys,99.79,4,Heriberto Canales,Hebbronville,99.52,235.87,115.67,215.46,566.99,Single-ply,SBD,M
Boys,99.79,5,Esteban Arredondo,Hebbronville,91.44,174.63,124.74,204.12,503.49,Single-ply,SBD,M
Boys,99.79,6,Carlos Munoz,Laredo Nixon,95.53,195.04,102.06,204.12,501.22,Single-ply,SBD,M
Boys,99.79,7,Florencio Palmerin,Laredo Nixon,94.62,181.44,111.13,181.44,474,Single-ply,SBD,M
Boys,99.79,8,Juan Jasso,Zapata,98.43,176.9,102.06,192.78,471.74,Single-ply,SBD,M
Boys,99.79,9,Jc Lopez,Donna,99.52,181.44,113.4,165.56,460.4,Single-ply,SBD,M
Boys,99.79,10,Silvestre Bustamante,Zapata,98.88,174.63,102.06,163.29,439.98,Single-ply,SBD,M
Boys,109.77,1,Victor Martinez,Laredo Martin,109.68,278.96,161.03,215.46,655.44,Single-ply,SBD,M
Boys,109.77,2,Jorge Gutierrez,Zapata,108.86,208.65,142.88,215.46,566.99,Single-ply,SBD,M
Boys,109.77,3,Rolando Garza,Hebbronville,107.41,181.44,127.01,219.99,528.44,Single-ply,SBD,M
Boys,109.77,4,Christian Rosas,Laredo Alexander,102.87,181.44,124.74,215.46,521.63,Single-ply,SBD,M
Boys,109.77,5,Justin Hernandez,Laredo Nixon,109.5,208.65,106.59,188.24,503.49,Single-ply,SBD,M
Boys,109.77,6,Paul Gonzalez,Laredo United South,101.33,172.37,120.2,192.78,485.34,Single-ply,SBD,M
Boys,109.77,7,Orlando Rodriguez,Laredo Cigarroa,101.24,165.56,97.52,185.97,449.06,Single-ply,SBD,M
Boys,109.77,8,Jaime Moreno,Donna,105.23,163.29,92.99,142.88,399.16,Single-ply,SBD,M
Boys,109.77,DQ,Frank Villarreal,Laredo Martin,109.59,272.16,,,,Single-ply,SBD,M
Boys,124.74,1,Joseph Guerrero,Donna,111.67,215.46,142.88,197.31,555.65,Single-ply,SBD,M
Boys,124.74,2,Francisco Moreno,Zapata,111.13,238.14,97.52,215.46,551.11,Single-ply,SBD,M
Boys,124.74,3,Gilbert Hernandez,Laredo Cigarroa,118.02,183.7,106.59,170.1,460.4,Single-ply,SBD,M
Boys,124.74,4,Sebastian Betancourt,Hebbronville,111.86,172.37,104.33,151.95,428.64,Single-ply,SBD,M
Boys,124.74,DQ,Chris Lira,Bruni,116.39,154.22,,,,Single-ply,SBD,M
Boys,124.74+,1,Rick Perez,Donna,132.45,249.48,138.35,219.99,607.81,Single-ply,SBD,M
Boys,124.74+,2,Jose Flores,Laredo Cigarroa,142.25,254.01,136.08,217.72,607.81,Single-ply,SBD,M
Boys,124.74+,3,Eddie Sanchez,Zapata,129.27,210.92,136.08,183.7,530.7,Single-ply,SBD,M
Boys,124.74+,4,Fred Romo,Laredo Alexander,135.35,204.12,124.74,188.24,517.1,Single-ply,SBD,M
Boys,124.74+,5,Jacob Chapa,Bruni,128.73,204.12,104.33,181.44,489.88,Single-ply,SBD,M
Boys,124.74+,6,Rudy Flores,Laredo United South,134.08,174.63,117.93,197.31,489.88,Single-ply,SBD,M
