Division,WeightClassKg,Place,Name,Team,BodyweightKg,Best3SquatKg,Best3BenchKg,Best3DeadliftKg,TotalKg,Equipment,Event,Sex
Boys,59.87,1,Dustin Mccullar,Hallsville,59.42,106.59,63.5,122.47,292.57,Single-ply,SBD,M
Boys,59.87,2,Joe Neshyba,Atlanta,56.88,113.4,56.7,102.06,272.16,Single-ply,SBD,M
Boys,59.87,3,Gage Allen,Hallsville,58.97,97.52,63.5,108.86,269.89,Single-ply,SBD,M
Boys,67.13,1,Justin Spurlin,Waskom,63.05,136.08,79.38,165.56,381.02,Single-ply,SBD,M
Boys,67.13,2,Terry Dickerson,Atlanta,67.13,120.2,74.84,149.69,344.73,Single-ply,SBD,M
Boys,67.13,3,Jared Nixon,Big Sandy Harmony,66.22,142.88,74.84,124.74,342.46,Single-ply,SBD,M
Boys,67.13,4,Cameron Conway,Hallsville,63.05,106.59,70.31,131.54,308.44,Single-ply,SBD,M
Boys,74.84,1,Dk Calloway,Carthage,73.84,204.12,124.74,204.12,532.97,Single-ply,SBD,M
Boys,74.84,2,Santos Estrada,Hallsville,73.94,183.7,129.27,201.85,514.83,Single-ply,SBD,M
Boys,74.84,3,JC Garcia,Waskom,73.03,204.12,92.99,188.24,485.34,Single-ply,SBD,M
Boys,74.84,4,Everett Dickerson,Atlanta,73.75,151.95,90.72,197.31,439.98,Single-ply,SBD,M
Boys,74.84,5,Quatron Davis,Hallsville,69.85,161.03,99.79,167.83,428.64,Single-ply,SBD,M
Boys,74.84,6,Jesse Navarro,Hallsville,72.57,156.49,102.06,161.03,419.57,Single-ply,SBD,M
Boys,74.84,7,Levi Roberts,Atlanta,72.57,167.83,95.25,149.69,412.77,Single-ply,SBD,M
Boys,74.84,8,Braden Fleet,Hallsville,70.76,145.15,102.06,158.76,405.97,Single-ply,SBD,M
Boys,74.84,9,Matt Hosea,Big Sandy Harmony,71.21,147.42,92.99,154.22,394.63,Single-ply,SBD,M
Boys,74.84,10,Brandon Glenn,Big Sandy Harmony,71.21,154.22,92.99,136.08,383.29,Single-ply,SBD,M
Boys,74.84,11,Sam Ruley,Atlanta,70.31,122.47,102.06,151.95,376.48,Single-ply,SBD,M
Boys,74.84,12,Seth Bolden,Hallsville,70.31,104.33,86.18,129.27,319.78,Single-ply,SBD,M
Boys,82.1,1,Derek Mccullar,Hallsville,80.29,190.51,113.4,181.44,485.34,Single-ply,SBD,M
Boys,82.1,2,Jacob Neshyba,Atlanta,75.8,190.51,99.79,188.24,478.54,Single-ply,SBD,M
Boys,82.1,3,Graham Sams,Atlanta,75.7,136.08,95.25,181.44,412.77,Single-ply,SBD,M
Boys,82.1,4,Dextar Ward,Hallsville,80.29,154.22,111.13,147.42,412.77,Single-ply,SBD,M
Boys,82.1,5,David Jackson,Carthage,80.92,142.88,86.18,161.03,390.09,Single-ply,SBD,M
Boys,82.1,6,Jacob Benson,Hallsville,76.2,136.08,92.99,140.61,369.68,Single-ply,SBD,M
Boys,82.1,7,Trevor Morgan,Hallsville,80.74,113.4,104.33,149.69,367.41,Single-ply,SBD,M
Boys,82.1,8,Jacob Lindsy,Big Sandy Harmony,75.75,136.08,81.65,140.61,358.34,Single-ply,SBD,M
Boys,82.1,9,Joseph Juarez,Carthage,78.74,142.88,86.18,122.47,351.53,Single-ply,SBD,M
Boys,82.1,10,AJ Rose,Hallsville,77.11,95.25,115.67,136.08,347,Single-ply,SBD,M
Boys,82.1,DQ,Clayton Findley,Hallsville,77.56,,,,,Single-ply,SBD,M
Boys,89.81,1,Roderick Boyd,Hallsville,87.54,240.4,142.88,204.12,587.4,Single-ply,SBD,M
Boys,89.81,2,Dan Davis,Atlanta,83.55,176.9,108.86,199.58,485.34,Single-ply,SBD,M
Boys,99.79,3,Deshanti Holloway,Atlanta,89.86,181.44,77.11,199.58,458.13,Single-ply,SBD,M
Boys,89.81,4,Jade Panaro,Atlanta,86.27,156.49,90.72,174.63,421.84,Single-ply,SBD,M
Boys,89.81,5,Brandon Friedman,Carthage,89.09,142.88,95.25,151.95,390.09,Single-ply,SBD,M
Boys,89.81,6,Branson Davis,Big Sandy Harmony,86.64,142.88,90.72,151.95,385.55,Single-ply,SBD,M
Boys,89.81,DQ,Coby Bradford,Hallsville,88.9,,,,,Single-ply,SBD,M
Boys,99.79,1,Stephen Godwin,Hallsville,91.63,204.12,158.76,204.12,566.99,Single-ply,SBD,M
Boys,99.79,2,Cole Davis,Atlanta,92.62,190.51,106.59,213.19,510.29,Single-ply,SBD,M
Boys,99.79,3,K'Aelin Ware,Carthage,95.25,183.7,97.52,190.51,471.74,Single-ply,SBD,M
Boys,99.79,4,River Barrios,Hallsville,92.08,179.17,111.13,176.9,467.2,Single-ply,SBD,M
Boys,99.79,5,Cade Clinton,Carthage,98.88,149.69,120.2,188.24,458.13,Single-ply,SBD,M
Boys,109.77,6,Garrett Harvey,Carthage,99.97,181.44,108.86,163.29,453.59,Single-ply,SBD,M
Boys,99.79,7,Cody Shaddix,Atlanta,99.56,172.37,97.52,174.63,444.52,Single-ply,SBD,M
Boys,99.79,8,Branton Halcomb,Carthage,93.62,151.95,102.06,142.88,396.89,Single-ply,SBD,M
Boys,99.79,9,Jonathon Stanton,Atlanta,94.08,142.88,79.38,170.1,392.36,Single-ply,SBD,M
Boys,99.79,10,Robert Earnhart,Atlanta,99.52,147.42,92.99,151.95,392.36,Single-ply,SBD,M
Boys,99.79,11,Brandon Hosey,Hallsville,96.62,124.74,102.06,145.15,371.95,Single-ply,SBD,M
Boys,99.79,12,Logon Bailey,Hallsville,97.07,136.08,99.79,136.08,371.95,Single-ply,SBD,M
Boys,99.79,13,Robert Ramsey,Hallsville,97.98,117.93,81.65,170.1,369.68,Single-ply,SBD,M
Boys,99.79,14,Ranzy Armstrong,Carthage,94.35,133.81,90.72,129.27,353.8,Single-ply,SBD,M
Boys,99.79,15,Trent Jackson,Carthage,95.25,185.97,,,185.97,Single-ply,S,M
Boys,109.77,1,Joey Lenard,Atlanta,106.23,199.58,129.27,226.8,555.65,Single-ply,SBD,M
Boys,109.77,2,Mario McCain,Carthage,101.06,179.17,131.54,174.63,485.34,Single-ply,SBD,M
Boys,109.77,3,Justin Smith,Hallsville,102.06,183.7,113.4,183.7,480.81,Single-ply,SBD,M
Boys,109.77,4,Jordan Edgar,Hallsville,106.59,170.1,88.45,170.1,428.64,Single-ply,SBD,M
Boys,109.77,5,Will Harris,Carthage,102.42,158.76,79.38,181.44,419.57,Single-ply,SBD,M
Boys,109.77,6,Dylan Husar,Carthage,104.37,163.29,95.25,158.76,417.3,Single-ply,SBD,M
Boys,109.77,7,Thorn Berry,Hallsville,104.78,147.42,97.52,170.1,415.04,Single-ply,SBD,M
Boys,109.77,8,Trey King,Hallsville,101.15,204.12,,195.04,399.16,Single-ply,SD,M
Boys,109.77,9,Tanner Stinson,Carthage,109.68,165.56,79.38,154.22,399.16,Single-ply,SBD,M
Boys,109.77,10,William Ruley,Atlanta,105.87,151.95,92.99,138.35,383.29,Single-ply,SBD,M
Boys,109.77,11,Trey Worrell,Hallsville,106.59,124.74,88.45,145.15,358.34,Single-ply,SBD,M
Boys,109.77,DQ,Lucas Roberts,Hallsville,109.32,,,,,Single-ply,SBD,M
Boys,109.77,DQ,Micheal Wilbur,Hallsville,103.87,,,,,Single-ply,SBD,M
Boys,124.74,1,Eliseo Mireles,Big Sandy Harmony,123.38,226.8,111.13,176.9,514.83,Single-ply,SBD,M
Boys,124.74,2,Dextar Clough,Carthage,123.38,190.51,140.61,179.17,510.29,Single-ply,SBD,M
Boys,124.74,3,Brandon Parkman,Atlanta,112.76,190.51,127.01,190.51,508.02,Single-ply,SBD,M
Boys,124.74,4,Carlton Hasten,Hallsville,112.49,117.93,72.57,,190.51,Single-ply,SB,M
Boys,124.74+,1,Kason Willis,Atlanta,131.27,199.58,120.2,226.8,546.58,Single-ply,SBD,M
Boys,124.74+,2,Wesley Prince,Waskom,143.15,226.8,113.4,190.51,530.7,Single-ply,SBD,M
Boys,124.74+,3,Griffin Bankhead,Carthage,127.01,163.29,99.79,172.37,435.45,Single-ply,SBD,M
