Division,WeightClassKg,Place,Name,Team,BodyweightKg,Best3SquatKg,Best3BenchKg,Best3DeadliftKg,TotalKg,Equipment,Event,Sex
Boys,55.79,1,Carlos Salazar,Manvel,51.8,129.27,79.38,165.56,374.21,Single-ply,SBD,M
Boys,51.71,2,Diego Gallegos,Alvin,51.17,124.74,81.65,142.88,349.27,Single-ply,SBD,M
Boys,51.71,3,Aspen Whitsine,Port Lavaca Calhoun,51.26,106.59,70.31,127.01,303.91,Single-ply,SBD,M
Boys,51.71,4,Mark Salinas,Manvel,50.08,77.11,58.97,99.79,235.87,Single-ply,SBD,M
Boys,59.87,1,Moc Moo,Port Lavaca Calhoun,56.02,165.56,102.06,145.15,412.77,Single-ply,SBD,M
Boys,55.79,2,Jacob Warchesik,Manvel,54.52,102.06,74.84,136.08,312.98,Single-ply,SBD,M
Boys,55.79,3,Kamron Lilly,Baytown Sterling,52.71,104.33,61.23,122.47,288.03,Single-ply,SBD,M
Boys,59.87,4,Christian Flores,Alvin,55.97,86.18,49.9,104.33,240.4,Single-ply,SBD,M
Boys,55.79,5,Conner Jackson,Willis,55.34,61.23,43.09,113.4,217.72,Single-ply,SBD,M
Boys,55.79,DQ,Bryce Ham,Danbury,55.57,79.38,,,,Single-ply,SBD,M
Boys,59.87,1,Jarrett Burford,Port Lavaca Calhoun,58.69,195.04,122.47,192.78,510.29,Single-ply,SBD,M
Boys,67.13,2,Kendrick Sonnier,Port Arthur Memorial,60.1,179.17,81.65,183.7,444.52,Single-ply,SBD,M
Boys,67.13,3,Gavin Kennedy,Alvin,60.06,136.08,74.84,158.76,369.68,Single-ply,SBD,M
Boys,59.87,4,Bryce Hall,Baytown Sterling,57.97,149.69,70.31,133.81,353.8,Single-ply,SBD,M
Boys,59.87,5,Devin Bracy,Fort Bend Hightower,56.34,102.06,68.04,131.54,301.64,Single-ply,SBD,M
Boys,59.87,6,Roland Royce,Port Neches-Groves,58.51,92.99,70.31,113.4,276.69,Single-ply,SBD,M
Boys,59.87,7,Russell January,Beaumont Ozen,58.88,79.38,45.36,113.4,238.14,Single-ply,SBD,M
Boys,67.13,DQ,Dariun Hunter,Port Arthur Memorial,59.96,151.95,,,,Single-ply,SBD,M
Boys,67.13,1,Jacob de la Paz,Alvin,66.45,217.72,113.4,226.8,557.92,Single-ply,SBD,M
Boys,67.13,2,Zach Mutchler,Manvel,66.41,192.78,142.88,183.7,519.36,Single-ply,SBD,M
Boys,67.13,3,Daniel Martinez,Port Lavaca Calhoun,66.9,192.78,102.06,201.85,496.68,Single-ply,SBD,M
Boys,67.13,4,Joseph Garza,Port Lavaca Calhoun,66.9,190.51,97.52,190.51,478.54,Single-ply,SBD,M
Boys,74.84,5,Osvaldo Sardina,Danbury,67.31,167.83,113.4,192.78,474,Single-ply,SBD,M
Boys,67.13,6,Arnaldo Garcia,Port Arthur Memorial,65.23,172.37,99.79,179.17,451.32,Single-ply,SBD,M
Boys,67.13,7,Esai Gonzalez,Port Lavaca Calhoun,65.95,149.69,88.45,154.22,392.36,Single-ply,SBD,M
Boys,67.13,8,Keith Chesson,Manvel,63.68,149.69,88.45,142.88,381.02,Single-ply,SBD,M
Boys,67.13,9,Shawn Glover,Danbury,60.78,127.01,92.99,151.95,371.95,Single-ply,SBD,M
Boys,67.13,10,Steven Jones,Beaumont West Brook,66.9,131.54,92.99,142.88,367.41,Single-ply,SBD,M
Boys,67.13,11,Blair Simon,Fort Bend Hightower,65.86,108.86,72.57,129.27,310.71,Single-ply,SBD,M
Boys,67.13,12,Anthony Garcia,Port Neches-Groves,62.69,106.59,74.84,120.2,301.64,Single-ply,SBD,M
Boys,67.13,13,Rodney Winford,Beaumont Ozen,66.41,104.33,70.31,117.93,292.57,Single-ply,SBD,M
Boys,67.13,14,Shawn Wilson,Alvin,62.69,81.65,68.04,127.01,276.69,Single-ply,SBD,M
Boys,67.13,15,Christopher Hogan,Alvin,61.42,65.77,56.7,124.74,247.21,Single-ply,SBD,M
Boys,67.13,DQ,Kalen Redmon,Beaumont Ozen,66.32,102.06,,,,Single-ply,SBD,M
Boys,74.84,1,Rodney Kinchen,Port Arthur Memorial,73.84,213.19,122.47,208.65,544.31,Single-ply,SBD,M
Boys,74.84,2,Victor Varela,Alvin,72.67,199.58,138.35,197.31,535.24,Single-ply,SBD,M
Boys,74.84,3,Terrance Giles,Alvin,73.3,199.58,131.54,192.78,523.9,Single-ply,SBD,M
Boys,74.84,4,Russhun Limbrick,Beaumont West Brook,71.4,167.83,106.59,172.37,446.79,Single-ply,SBD,M
Boys,74.84,5,James Jones,Beaumont West Brook,69.4,158.76,97.52,167.83,424.11,Single-ply,SBD,M
Boys,74.84,6,Alex Mendez,Alvin,68.4,149.69,83.91,181.44,415.04,Single-ply,SBD,M
Boys,74.84,7,Kade Guilbeaux,Port Neches-Groves,71.4,145.15,115.67,138.35,399.16,Single-ply,SBD,M
Boys,82.1,8,Chris Gonzalez,Alvin,74.93,149.69,86.18,163.29,399.16,Single-ply,SBD,M
Boys,74.84,9,Keunte Jerry,Port Arthur Memorial,72.57,142.88,90.72,140.61,374.21,Single-ply,SBD,M
Boys,74.84,10,Blake Sharp,Baytown Sterling,74.12,122.47,63.5,142.88,328.85,Single-ply,SBD,M
Boys,74.84,11,Austin Hughes,Port Neches-Groves,72.94,120.2,74.84,129.27,324.32,Single-ply,SBD,M
Boys,74.84,12,Yuki Namae,Manvel,70.76,104.33,81.65,113.4,299.37,Single-ply,SBD,M
Boys,74.84,13,Lamound Lee,Fort Bend Hightower,70.53,97.52,47.63,90.72,235.87,Single-ply,SBD,M
Boys,82.1,DQ,Dominic Joubert,Fort Bend Hightower,75.02,90.72,,,,Single-ply,SBD,M
Boys,74.84,DQ,Billy Gipson,Fort Bend Hightower,69.85,,,,,Single-ply,SBD,M
Boys,82.1,1,Carlos García,Alvin,80.47,226.8,127.01,226.8,580.6,Single-ply,SBD,M
Boys,82.1,2,Caleb Lamberth,Manvel,80.92,210.92,127.01,217.72,555.65,Single-ply,SBD,M
Boys,82.1,3,Eloi Fernandez,Alvin,75.3,195.04,136.08,206.38,537.51,Single-ply,SBD,M
Boys,82.1,4,Xavier Rivera,Port Lavaca Calhoun,77.79,174.63,113.4,188.24,476.27,Single-ply,SBD,M
Boys,89.81,5,Kreg Williams,Willis,82.33,188.24,102.06,185.97,476.27,Single-ply,SBD,M
Boys,82.1,6,Chris Almaguer,Beaumont West Brook,80.74,183.7,108.86,181.44,474,Single-ply,SBD,M
Boys,82.1,7,Raymond Castillo,Manvel,79.83,176.9,115.67,179.17,471.74,Single-ply,SBD,M
Boys,82.1,8,Payton Sanchez,Port Lavaca Calhoun,80.92,170.1,104.33,195.04,469.47,Single-ply,SBD,M
Boys,82.1,9,Sterling Winzor,Beaumont Ozen,77.75,151.95,106.59,185.97,444.52,Single-ply,SBD,M
Boys,82.1,10,Jakobi Harris,Beaumont West Brook,79.61,158.76,90.72,181.44,430.91,Single-ply,SBD,M
Boys,82.1,11,Santress Broussard,Fort Bend Hightower,80.38,151.95,106.59,161.03,419.57,Single-ply,SBD,M
Boys,82.1,12,Griffin Kaprice,Fort Bend Hightower,78.2,124.74,117.93,163.29,405.97,Single-ply,SBD,M
Boys,82.1,13,Chris Chapa,Manvel,79.56,142.88,92.99,165.56,401.43,Single-ply,SBD,M
Boys,82.1,14,Anthony Anniboli,Port Neches-Groves,78.38,149.69,104.33,122.47,376.48,Single-ply,SBD,M
Boys,82.1,DQ,Chris Narcisse,Beaumont Ozen,78.93,199.58,,,,Single-ply,SBD,M
Boys,82.1,DQ,Markel Perry,Beaumont Ozen,77.66,179.17,,,,Single-ply,SBD,M
Boys,89.81,1,Rene Orsonia,Port Lavaca Calhoun,85.5,208.65,122.47,199.58,530.7,Single-ply,SBD,M
Boys,89.81,2,Tony Landry,Baytown Sterling,85.37,174.63,113.4,192.78,480.81,Single-ply,SBD,M
Boys,89.81,3,Mykel Thomas,Port Arthur Memorial,89.45,156.49,104.33,181.44,442.25,Single-ply,SBD,M
Boys,89.81,4,Nick Hernandez,Alvin,84.1,154.22,90.72,174.63,419.57,Single-ply,SBD,M
Boys,89.81,5,John Thompson,Alvin,84.46,149.69,86.18,174.63,410.5,Single-ply,SBD,M
Boys,89.81,6,Jake Jones,Willis,84.01,147.42,79.38,145.15,371.95,Single-ply,SBD,M
Boys,89.81,7,Mycal Evans,Fort Bend Hightower,86.82,117.93,113.4,138.35,369.68,Single-ply,SBD,M
Boys,89.81,8,Christian Valdez,Danbury,88.45,120.2,74.84,122.47,317.51,Single-ply,SBD,M
Boys,89.81,DQ,Jacob Hackney,Fort Bend Hightower,87.91,140.61,,,,Single-ply,SBD,M
Boys,89.81,DQ,Terrell Malone,Fort Bend Hightower,86.09,,,,,Single-ply,SBD,M
Boys,99.79,1,Joe Thomas,Beaumont Ozen,94.08,226.8,120.2,226.8,573.79,Single-ply,SBD,M
Boys,99.79,2,Brent Kobersky,Alvin,98.97,197.31,133.81,195.04,526.17,Single-ply,SBD,M
Boys,99.79,3,Jared Parrino,Baytown Sterling,90.95,158.76,92.99,190.51,442.25,Single-ply,SBD,M
Boys,99.79,4,Robert Guidry,Manvel,92.17,154.22,97.52,190.51,442.25,Single-ply,SBD,M
Boys,99.79,5,Seth Leija,Alvin,95.62,163.29,104.33,165.56,433.18,Single-ply,SBD,M
Boys,99.79,6,Clayton Kelleher,Willis,95.89,167.83,97.52,154.22,419.57,Single-ply,SBD,M
Boys,99.79,7,Irving Perez,Manvel,90.26,156.49,99.79,158.76,415.04,Single-ply,SBD,M
Boys,99.79,8,Mason Sumrall,Baytown Sterling,92.76,124.74,61.23,129.27,315.25,Single-ply,SBD,M
Boys,99.79,9,Ajani Armstrong,Beaumont Ozen,97.07,102.06,74.84,127.01,303.91,Single-ply,SBD,M
Boys,99.79,DQ,Chris Williams,Fort Bend Hightower,99.79,,,,,Single-ply,SBD,M
Boys,99.79,DQ,John Carter,Willis,94.89,195.04,,,,Single-ply,SBD,M
Boys,109.77,1,Eddie Garcia,Port Lavaca Calhoun,107.14,272.16,133.81,213.19,619.15,Single-ply,SBD,M
Boys,109.77,2,Deandre Washington,Beaumont Ozen,103.51,215.46,136.08,204.12,555.65,Single-ply,SBD,M
Boys,109.77,3,Cedric Duncan,Manvel,102.51,215.46,120.2,215.46,551.11,Single-ply,SBD,M
Boys,109.77,4,Jacob Gonzalez,Alvin,107.73,201.85,142.88,185.97,530.7,Single-ply,SBD,M
Boys,109.77,5,Kainen Collins,Port Arthur Memorial,109.32,199.58,111.13,195.04,505.76,Single-ply,SBD,M
Boys,109.77,6,Colby Thomas,Manvel,108.14,170.1,120.2,206.38,496.68,Single-ply,SBD,M
Boys,109.77,7,Arthur Harmon,Beaumont Ozen,104.51,170.1,102.06,165.56,437.72,Single-ply,SBD,M
Boys,124.74,8,Juan Espinoza,Baytown Sterling,110,136.08,120.2,151.95,408.23,Single-ply,SBD,M
Boys,109.77,9,Joseph Roberts,Alvin,101.7,129.27,83.91,174.63,387.82,Single-ply,SBD,M
Boys,124.74,1,Tyler Moran,Port Neches-Groves,116.75,242.67,192.78,219.99,655.44,Single-ply,SBD,M
Boys,124.74,DQ,Brandon Jackson,Port Arthur Memorial,118.48,,,,,Single-ply,SBD,M
Boys,124.74,3,Jonathon Alfred,Manvel,110.22,238.14,142.88,240.4,621.42,Single-ply,SBD,M
Boys,124.74,4,DeQuan Allen,Baytown Sterling,111.58,229.06,163.29,181.44,573.79,Single-ply,SBD,M
Boys,124.74,5,Luis Barron,Danbury,122.65,226.8,136.08,204.12,566.99,Single-ply,SBD,M
Boys,124.74,6,Peyton Opre,Alvin,113.58,190.51,122.47,222.26,535.24,Single-ply,SBD,M
Boys,124.74,7,Lane Beasley,Alvin,111.81,172.37,102.06,179.17,453.59,Single-ply,SBD,M
Boys,124.74,8,Jason Vargas,Willis,121.11,183.7,90.72,158.76,433.18,Single-ply,SBD,M
Boys,124.74,9,Christian Brown,Danbury,120.43,165.56,102.06,151.95,419.57,Single-ply,SBD,M
Boys,124.74,10,Leonardo Alegria,Alvin,111.31,136.08,92.99,138.35,367.41,Single-ply,SBD,M
Boys,124.74,11,Herman McElroy,Port Arthur Memorial,113.94,147.42,68.04,124.74,340.19,Single-ply,SBD,M
Boys,124.74,12,Parker Fraiser,Danbury,119.43,122.47,81.65,136.08,340.19,Single-ply,SBD,M
Boys,124.74+,1,Jimmy White,Willis,134.81,244.94,142.88,226.8,614.62,Single-ply,SBD,M
Boys,124.74+,2,Brandon Artis,Port Arthur Memorial,130.73,215.46,124.74,226.8,566.99,Single-ply,SBD,M
Boys,124.74+,3,Scott Christ,Manvel,132.81,219.99,120.2,219.99,560.19,Single-ply,SBD,M
Boys,124.74+,4,Logan Tonini,Manvel,137.53,183.7,124.74,215.46,523.9,Single-ply,SBD,M
Boys,124.74+,5,Herbert Goudeau,Baytown Sterling,165.92,201.85,115.67,204.12,521.63,Single-ply,SBD,M
Boys,124.74+,6,Kaleb Allen,Port Arthur Memorial,137.89,192.78,113.4,204.12,510.29,Single-ply,SBD,M
Boys,124.74+,7,Kade Carson,Baytown Sterling,128.82,185.97,120.2,181.44,487.61,Single-ply,SBD,M
Boys,124.74+,8,Jamaud Lane,Beaumont West Brook,125.28,181.44,115.67,183.7,480.81,Single-ply,SBD,M
Boys,124.74+,9,Ambrow Moreland,Beaumont Ozen,147.33,188.24,104.33,183.7,476.27,Single-ply,SBD,M
Boys,124.74+,10,Lester Blunt,Fort Bend Hightower,154.77,170.1,131.54,151.95,453.59,Single-ply,SBD,M
Boys,124.74+,DQ,Weston Meyer,Willis,126.46,192.78,102.06,,,Single-ply,SBD,M
