Division,WeightClassKg,Place,Name,Team,BodyweightKg,Best3SquatKg,Best3BenchKg,Best3DeadliftKg,TotalKg,Equipment,Event,Sex
Boys,51.71,1,Austin Gressett,Santo,50.89,92.99,49.9,95.25,238.14,Single-ply,SBD,M
Boys,55.79,1,Jace Duncan,Mineral Wells,55.16,142.88,88.45,120.2,351.53,Single-ply,SBD,M
Boys,59.87,1,Jonah Maston,Santo,57.7,147.42,79.38,156.49,383.29,Single-ply,SBD,M
Boys,59.87,2,Trayce Barber,Boyd,59.78,140.61,92.99,142.88,376.48,Single-ply,SBD,M
Boys,59.87,3,Cam Coffman,Gordon,59.15,113.4,74.84,124.74,312.98,Single-ply,SBD,M
Boys,59.87,4,Aubrey Milwee,Sidney,58.6,106.59,70.31,111.13,288.03,Single-ply,SBD,M
Boys,67.13,1,Jayton Trammell,Santo,66.86,188.24,102.06,204.12,494.42,Single-ply,SBD,M
Boys,67.13,2,Caleb Rodriguez,Boyd,65.41,167.83,92.99,170.1,430.91,Single-ply,SBD,M
Boys,67.13,3,Hayden Monk,Stephenville,67.13,158.76,77.11,170.1,405.97,Single-ply,SBD,M
Boys,67.13,4,Jared Singleton,Mineral Wells,66.32,163.29,81.65,142.88,387.82,Single-ply,SBD,M
Boys,67.13,5,Grant Carter,Santo,66.13,142.88,74.84,142.88,360.61,Single-ply,SBD,M
Boys,67.13,6,Brandon Savage,Gordon,67.13,136.08,83.91,122.47,342.46,Single-ply,SBD,M
Boys,67.13,7,Blake Pettit,Hamilton,63.68,127.01,70.31,142.88,340.19,Single-ply,SBD,M
Boys,67.13,8,Keondrae Sadler,Jacksboro,64.95,127.01,61.23,149.69,337.93,Single-ply,SBD,M
Boys,67.13,9,Ethan Fudge #2,Jacksboro,67.04,131.54,79.38,120.2,331.12,Single-ply,SBD,M
Boys,67.13,10,Casey Reynolds,Boyd,62.23,127.01,74.84,120.2,322.05,Single-ply,SBD,M
Boys,67.13,11,Lee Crohan,Boyd,64.86,120.2,70.31,129.27,319.78,Single-ply,SBD,M
Boys,67.13,12,Tucker Elliott,Santo,66.72,108.86,61.23,149.69,319.78,Single-ply,SBD,M
Boys,67.13,13,Joseph Brannon,Stephenville,62.69,106.59,68.04,124.74,299.37,Single-ply,SBD,M
Boys,67.13,14,Reese Haile,Hamilton,63.32,104.33,47.63,117.93,269.89,Single-ply,SBD,M
Boys,74.84,1,Jacob Bridges,Jacksboro,71.94,185.97,124.74,204.12,514.83,Single-ply,SBD,M
Boys,74.84,2,Destin Montelongo,Santo,74.39,183.7,113.4,188.24,485.34,Single-ply,SBD,M
Boys,74.84,3,Martin Najera,Hamilton,74.66,181.44,102.06,183.7,467.2,Single-ply,SBD,M
Boys,74.84,4,Noah Maston,Santo,74.3,181.44,92.99,181.44,455.86,Single-ply,SBD,M
Boys,74.84,5,Josh Wells,Jacksboro,70.85,165.56,99.79,181.44,446.79,Single-ply,SBD,M
Boys,74.84,6,Matthew Oldham,Boyd,74.75,149.69,74.84,158.76,383.29,Single-ply,SBD,M
Boys,74.84,7,Clayton Cray,Brock,72.76,147.42,83.91,140.61,371.95,Single-ply,SBD,M
Boys,74.84,8,James Young,Hamilton,73.21,120.2,74.84,127.01,322.05,Single-ply,SBD,M
Boys,82.1,1,Hunter Hackley,Jacksboro,80.65,197.31,124.74,188.24,510.29,Single-ply,SBD,M
Boys,82.1,2,Mikey Golden,Brock,81.92,188.24,108.86,174.63,471.74,Single-ply,SBD,M
Boys,82.1,3,Cole Schkade,Santo,81.28,181.44,104.33,181.44,467.2,Single-ply,SBD,M
Boys,82.1,4,Kade Weldon,Jacksboro,75.11,163.29,113.4,170.1,446.79,Single-ply,SBD,M
Boys,82.1,5,Issac De La Cruz,Stephenville,80.01,163.29,104.33,179.17,446.79,Single-ply,SBD,M
Boys,82.1,6,Jared Stone,Mineral Wells,79.11,149.69,99.79,195.04,444.52,Single-ply,SBD,M
Boys,82.1,7,Ryan Goodwin,Mineral Wells,79.2,170.1,99.79,172.37,442.25,Single-ply,SBD,M
Boys,82.1,8,Mason Myall,Santo,80.83,161.03,70.31,181.44,412.77,Single-ply,SBD,M
Boys,89.81,1,Ethan Norris,Stephenville,86.73,165.56,88.45,167.83,421.84,Single-ply,SBD,M
Boys,89.81,2,Cody Howard,Jacksboro,84.46,129.27,70.31,140.61,340.19,Single-ply,SBD,M
Boys,89.81,3,Wyatt Catoe,Hamilton,88.54,,83.91,,83.91,Single-ply,B,M
Boys,99.79,1,Johnny Morales,Mineral Wells,93.89,249.48,154.22,204.12,607.81,Single-ply,SBD,M
Boys,99.79,2,Cody Wilson,Hamilton,95.8,226.8,120.2,249.48,596.47,Single-ply,SBD,M
Boys,99.79,3,Seth Alston,Santo,92.99,219.99,111.13,183.7,514.83,Single-ply,SBD,M
Boys,99.79,4,Nathan Martin,Stephenville,93.71,197.31,120.2,188.24,505.76,Single-ply,SBD,M
Boys,99.79,5,Dakota Partin,Boyd,90.63,181.44,113.4,190.51,485.34,Single-ply,SBD,M
Boys,99.79,6,Sage Boleman,Brock,94.53,181.44,113.4,176.9,471.74,Single-ply,SBD,M
Boys,99.79,7,Tre Rose,Brock,98.88,199.58,102.06,167.83,469.47,Single-ply,SBD,M
Boys,99.79,8,Emanuel Rodriguez,Gordon,91.08,172.37,108.86,172.37,453.59,Single-ply,SBD,M
Boys,99.79,9,Ross Bates,Hamilton,99.7,174.63,92.99,181.44,449.06,Single-ply,SBD,M
Boys,99.79,10,Astin Carr,Hamilton,91.72,158.76,,,158.76,Single-ply,S,M
Boys,109.77,1,Austin Coker,Santo,106.96,265.35,149.69,206.38,621.42,Single-ply,SBD,M
Boys,109.77,2,Jacob Boyd,Mineral Wells,107.59,226.8,167.83,210.92,605.55,Single-ply,SBD,M
Boys,109.77,3,Bradley Aaron,Mineral Wells,107.05,215.46,131.54,172.37,519.36,Single-ply,SBD,M
Boys,109.77,4,Anthony Coker,Santo,102.87,204.12,102.06,204.12,510.29,Single-ply,SBD,M
Boys,109.77,5,Tyvonn Robinson,Stephenville,103.06,183.7,124.74,185.97,494.42,Single-ply,SBD,M
Boys,109.77,6,Trace Coe,Mineral Wells,104.6,188.24,122.47,174.63,485.34,Single-ply,SBD,M
Boys,109.77,7,Chandler Bridges,Jacksboro,100.7,197.31,95.25,185.97,478.54,Single-ply,SBD,M
Boys,109.77,8,David Garcia,Mineral Wells,100.88,188.24,106.59,174.63,469.47,Single-ply,SBD,M
Boys,109.77,9,Alex Silva,Boyd,100.43,181.44,97.52,172.37,451.32,Single-ply,SBD,M
Boys,109.77,10,Jacob Poston,Stephenville,109.68,188.24,102.06,158.76,449.06,Single-ply,SBD,M
Boys,109.77,11,KC Rater,Jacksboro,101.24,142.88,86.18,142.88,371.95,Single-ply,SBD,M
Boys,124.74,1,Aaron Hite,Mineral Wells,112.31,231.33,136.08,210.92,578.33,Single-ply,SBD,M
Boys,124.74,2,Will Bridgwater,Hamilton,111.04,192.78,104.33,192.78,489.88,Single-ply,SBD,M
Boys,124.74,3,Cameron Urteaga,Stephenville,118.66,188.24,108.86,183.7,480.81,Single-ply,SBD,M
Boys,124.74,4,Caleb Brown,Boyd,114.4,190.51,97.52,181.44,469.47,Single-ply,SBD,M
Boys,124.74+,1,John Brunner,Brock,127.01,158.76,102.06,140.61,401.43,Single-ply,SBD,M
