Place,Name,CyrillicName,BirthYear,Sex,WeightClassKg,BodyweightKg,Best3SquatKg,Best3BenchKg,Best3DeadliftKg,TotalKg,Event,Equipment,Division
1,Tatyana Koroleva,Татьяна Королёва,1986,F,44,43.95,142.5,70,145,357.5,SBD,Single-ply,Open
2,Dina Klimenkova,Дина Клименкова,1987,F,44,43.65,140,70,130,340,SBD,Single-ply,Open
1,Valentina Vermenyuk,Валентина Верменюк,1986,F,48,47.45,170,92.5,172.5,435,SBD,Single-ply,Open
2,Olga Golubeva,Ольга Голубева,1970,F,48,47.05,152.5,90,157.5,400,SBD,Single-ply,Open
3,Kadriya Murtazina,Кадрия Муртазина,1986,F,48,47.55,145,85,155,385,SBD,Single-ply,Open
4,Natalya Krikunova,Наталья Крикунова,1981,F,48,47.5,150,75,135,360,SBD,Single-ply,Open
5,Lyubov Potanina,Любовь Потанина,1984,F,48,47.7,147.5,85,125,357.5,SBD,Single-ply,Open
6,Marina Nikiforova,Марина Никифорова,1983,F,48,47.8,147.5,75,120,342.5,SBD,Single-ply,Open
7,Lyudmila Belova,Людмила Белова,1967,F,48,47.7,130,70,140,340,SBD,Single-ply,Open
8,Olga Bychkova,Ольга Бычкова,1966,F,48,47.65,125,52.5,115,292.5,SBD,Single-ply,Open
DQ,Yuliya Kovzalova,Юлия Ковзалова,1982,F,48,47.4,155,72.5,,,SBD,Single-ply,Open
1,Anna Komlaeva,Анна Комлаева,1979,F,52,51.95,195,97.5,175,467.5,SBD,Single-ply,Open
2,Landysh Gavina,Ландыш Гавина,1980,F,52,51.95,167.5,107.5,185,460,SBD,Single-ply,Open
3,Anastasia Pavlova,Анастасия Павлова,1983,F,52,51.65,155,100,152.5,407.5,SBD,Single-ply,Open
4,Ekaterina Perina,Екатерина Перина,1977,F,52,51.35,162.5,87.5,145,395,SBD,Single-ply,Open
5,Natalya Starygina,Наталья Старыгина,1986,F,52,51.9,150,80,145,375,SBD,Single-ply,Open
6,Valentina Khodusova,Валентина Ходусова,1987,F,52,51.65,130,72.5,112.5,315,SBD,Single-ply,Open
DQ,Marina Lemenovskaya,Марина Леменовская,1985,F,52,51.35,140,,,,SBD,Single-ply,Open
DQ,Mariya Oreshkova,Мария Орешкова,1986,F,52,51.9,155,,,,SBD,Single-ply,Open
DQ,Oksana Lisitskaya,Оксана Лисицкая,1984,F,52,,,,,,SBD,Single-ply,Open
1,Anna Ryzhkova,Анна Рыжкова,1986,F,56,55.65,225,122.5,195,542.5,SBD,Single-ply,Open
2,Inna Filimonova #1,Инна Филимонова,1976,F,56,55.8,230,112.5,195,537.5,SBD,Single-ply,Open
3,Larisa Kotkova,Лариса Коткова,1974,F,56,55.3,155,125,155,435,SBD,Single-ply,Open
4,Elena Kaneva,Елена Канева,1980,F,56,55.65,170,82.5,160,412.5,SBD,Single-ply,Open
5,Yana Krivorotova,Яна Криворотова,1988,F,56,55.75,170,75,160,405,SBD,Single-ply,Open
6,Lina Rodicheva,Лина Родичева,1980,F,56,53.65,157.5,82.5,150,390,SBD,Single-ply,Open
7,Ekaterina Ostapenko,Екатерина Остапенко,1983,F,56,55.85,160,75,150,385,SBD,Single-ply,Open
8,Ekaterina Kazakova,Екатерина Казакова,1988,F,56,55.9,155,85,140,380,SBD,Single-ply,Open
DQ,Lidiya Pakhomova,Лидия Пахомова,1988,F,56,55.75,,,,,SBD,Single-ply,Open
1,Irina Poletaeva,Ирина Полетаева,1982,F,60,59.7,215,157.5,195,567.5,SBD,Single-ply,Open
2,Yulia Lukina,Юлия Лукина,1988,F,60,59.9,215,145,202.5,562.5,SBD,Single-ply,Open
3,Kira Pavlovskaya,Кира Павловская,1983,F,60,59.95,205,120,210,535,SBD,Single-ply,Open
4,Tatyana Eltsova,Татьяна Ельцова,1978,F,60,59.5,207.5,135,190,532.5,SBD,Single-ply,Open
5,Viktoriya Nechaeva,Виктория Нечаева,1983,F,60,59.75,185,97.5,172.5,455,SBD,Single-ply,Open
6,Natalya Seryogina,Наталья Серёгина,1979,F,60,59.6,182.5,85,170,437.5,SBD,Single-ply,Open
7,Viktoriya Poltoratskaya,Виктория Полторацкая,1981,F,60,59.65,135,80,120,335,SBD,Single-ply,Open
1,Galina Potselueva,Галина Поцелуева,1980,F,67.5,67.35,252.5,155,220,627.5,SBD,Single-ply,Open
2,Maria Revva,Мария Ревва,1977,F,67.5,66.8,195,137.5,215,547.5,SBD,Single-ply,Open
3,Valentina Kharina,Валентина Харина,1977,F,67.5,67.5,200,127.5,175,502.5,SBD,Single-ply,Open
4,Lyubov Sosnovskaya,Любовь Сосновская,1986,F,67.5,67.5,192.5,110,172.5,475,SBD,Single-ply,Open
5,Tatyana Zakharova,Татьяна Захарова,1980,F,67.5,67.5,192.5,105,175,472.5,SBD,Single-ply,Open
6,Elena Bukina,Елена Букина,1971,F,67.5,66.65,177.5,115,160,452.5,SBD,Single-ply,Open
DQ,Yulia Medvedeva,Юлия Медведева,1986,F,67.5,66.95,227.5,,,,SBD,Single-ply,Open
DQ,Oksana Avdeeva,Оксана Авдеева,1986,F,67.5,67.45,,,,,SBD,Single-ply,Open
1,Yulia Zaugolova,Юлия Зауголова,1981,F,75,69.95,278.5,160,242.5,681,SBD,Single-ply,Open
2,Olga Pantina,Ольга Пантина,1979,F,75,71.95,240,130,190,560,SBD,Single-ply,Open
3,Svetlana Tsvetkova,Светлана Цветкова,1980,F,75,73,215,115,220,550,SBD,Single-ply,Open
4,Alla Tishina,Алла Тишина,1961,F,75,74.15,200,85,192.5,477.5,SBD,Single-ply,Open
1,Svetlana Dedyulya,Светлана Дедюля,1975,F,82.5,82.25,250,200,230,680,SBD,Single-ply,Open
2,Evgeniya Sukhova,Евгения Сухова,1980,F,82.5,75.05,215,150,217.5,582.5,SBD,Single-ply,Open
3,Larisa Yastrebova,Лариса Ястребова,1985,F,82.5,82.5,220,120,207.5,547.5,SBD,Single-ply,Open
4,Mariya Panfyorova,Мария Панфёрова,1977,F,82.5,75.4,210,130,190,530,SBD,Single-ply,Open
5,Natalya Savinykh,Наталья Савиных,1985,F,82.5,81.35,222.5,107.5,190,520,SBD,Single-ply,Open
1,Valeria Shcheglova,Валерия Щеглова,1983,F,90,89.45,270,182.5,230,682.5,SBD,Single-ply,Open
2,Lyudmila Protchenko,Людмила Протченко,1986,F,90,87.5,240,135,197.5,572.5,SBD,Single-ply,Open
3,Svetlana Bochko,Светлана Бочко,1963,F,90,82.65,170,100,100,370,SBD,Single-ply,Open
1,Irina Lugovaya,Ирина Луговая,1974,F,90+,98.2,265,185,235,685,SBD,Single-ply,Open
2,Olga Gemaletdinova,Ольга Гемалетдинова,1986,F,90+,119.2,272.5,145,251,668.5,SBD,Single-ply,Open
3,Marina Dzhavakhishvili,Марина Джавахишвили,1988,F,90+,110.1,175,102.5,170,447.5,SBD,Single-ply,Open
1,Oleg Noskov,Олег Носков,1984,M,52,51.95,160,95,195,450,SBD,Single-ply,Open
1,Sergey Fedosienko,Сергей Федосиенко,1982,M,56,55.7,280,170,220,670,SBD,Single-ply,Open
2,Konstantin Danilov,Константин Данилов,1986,M,56,55.8,257.5,137.5,242.5,637.5,SBD,Single-ply,Open
3,Alexey Romanov,Алексей Романов,1981,M,56,55.8,255,165,205,625,SBD,Single-ply,Open
4,Vitaliy Poberezhnyy,Виталий Побережный,1984,M,56,55.7,225,145,207.5,577.5,SBD,Single-ply,Open
5,Vladimir Druzhinin,Владимир Дружинин,1985,M,56,53.3,190,145,175,510,SBD,Single-ply,Open
1,Sergey Gladkikh,Сергей Гладких,1989,M,60,59.9,275,160,230,665,SBD,Single-ply,Open
2,Sergey Skochek,Сергей Скочек,1983,M,60,59.95,247.5,160,240,647.5,SBD,Single-ply,Open
3,Ivan Mylnikov,Иван Мыльников,1986,M,60,60,240,165,230,635,SBD,Single-ply,Open
4,Dmitriy Alekseev,Дмитрий Алексеев,1983,M,60,59.9,255,142.5,215,612.5,SBD,Single-ply,Open
5,Vladimir Obozhin,Владимир Обожин,1985,M,60,59.7,215,155,220,590,SBD,Single-ply,Open
6,Evgeniy Manyanov,Евгений Манянов,1988,M,60,60,230,140,220,590,SBD,Single-ply,Open
7,Mikhail Penkov,Михаил Пеньков,1983,M,60,58.4,200,125,210,535,SBD,Single-ply,Open
DQ,Konstantin Pavlov,Константин Павлов,1973,M,60,58.35,260,,,,SBD,Single-ply,Open
1,Ravil Kazakov,Равиль Казаков,1982,M,67.5,67.35,326,225,245,796,SBD,Single-ply,Open
2,Aleksandr Zolov,Александр Золов,1980,M,67.5,67.45,280,212.5,260,752.5,SBD,Single-ply,Open
3,Mikhail Andryukhin,Михаил Андрюхин,1970,M,67.5,66.15,280,175,270,725,SBD,Single-ply,Open
4,Aleksandr Penkov,Александр Пеньков,1986,M,67.5,66,295,180,240,715,SBD,Single-ply,Open
5,Nikolay Sokolov,Николай Соколов,1979,M,67.5,66.2,275,175,255,705,SBD,Single-ply,Open
6,Stanislav Babkin,Станислав Бабкин,1986,M,67.5,67.3,265,165,270,700,SBD,Single-ply,Open
7,Sergey Agafonov,Сергей Агафонов,1984,M,67.5,65.5,260,170,260,690,SBD,Single-ply,Open
8,Idris Chadaev,Идрис Чадаев,1978,M,67.5,67.3,260,160,240,660,SBD,Single-ply,Open
DQ,Pavel Chernikov,Павел Черников,1973,M,67.5,66.55,265,145,,,SBD,Single-ply,Open
DQ,Sergey Konovalov,Сергей Коновалов,1987,M,67.5,67.5,240,,,,SBD,Single-ply,Open
1,Alexander Govorin,Александр Говорин,1985,M,75,74.7,341,170,325,836,SBD,Single-ply,Open
2,Alexey Merkulov,Алексей Меркулов,1983,M,75,74.85,320,235,262.5,817.5,SBD,Single-ply,Open
3,Aleksandr Gromov,Александр Громов,1981,M,75,74.5,330,220,260,810,SBD,Single-ply,Open
4,Artem Korotygin,Артем Коротыгин,1980,M,75,74.85,315,222.5,270,807.5,SBD,Single-ply,Open
5,Aleksey Zhukov,Алексей Жуков,1980,M,75,75,300,220,280,800,SBD,Single-ply,Open
6,Konstantin Girin,Константин Гирин,1981,M,75,74.7,320,210,260,790,SBD,Single-ply,Open
7,Maksim Nurutdinov,Максим Нурутдинов,1982,M,75,74,315,180,285,780,SBD,Single-ply,Open
8,Sergey Saranskiy,Сергей Саранский,1979,M,75,74.65,310,205,260,775,SBD,Single-ply,Open
9,Viktor Baranov,Виктор Баранов,1967,M,75,72.7,305,172.5,290,767.5,SBD,Single-ply,Open
10,Vladimir Sholskiy,Владимир Шольский,1985,M,75,74.8,300,190,277.5,767.5,SBD,Single-ply,Open
11,Alexey Bakhirev,Алексей Бахирев,1981,M,75,73.7,270,205,275,750,SBD,Single-ply,Open
12,Denis Stolboushkin,Денис Столбоушкин,1986,M,75,74.9,290,180,280,750,SBD,Single-ply,Open
13,Aleksey Dementev,Алексей Дементьев,1986,M,75,74.8,270,185,270,725,SBD,Single-ply,Open
14,Vladimir Manitsin,Владимир Маницин,1982,M,75,74.95,285,170,270,725,SBD,Single-ply,Open
15,Viktor Kolobov,Виктор Колобов,1985,M,75,74.4,270,170,270,710,SBD,Single-ply,Open
16,Dmitriy Ladygin,Дмитрий Ладыгин,1978,M,75,74.85,260,157.5,267.5,685,SBD,Single-ply,Open
17,Suliman Musovstov,Сулиман Мусовстов,1981,M,75,73.95,250,170,260,680,SBD,Single-ply,Open
18,Mikhail Kryukov,Михаил Крюков,1972,M,75,73.5,280,120,265,665,SBD,Single-ply,Open
DQ,Aleksandr Bykov,Александр Быков,1982,M,75,71.6,,,,,SBD,Single-ply,Open
NS,Kasym Ismailov,Касым Исмаилов,1988,M,,,,,,,SBD,Single-ply,Open
1,Sergey Bogdanov,Сергей Богданов,1985,M,82.5,82.15,340,230,300,870,SBD,Single-ply,Open
2,Oleg Turov,Олег Туров,1979,M,82.5,82.3,345,180,332.5,857.5,SBD,Single-ply,Open
3,Alexey Sorokin,Алексей Сорокин,1985,M,82.5,82.1,350,200,290,840,SBD,Single-ply,Open
4,Ivan Fedotov,Иван Федотов,1986,M,82.5,81.75,310,220,290,820,SBD,Single-ply,Open
5,Pavel Ozerov,Павел Озеров,1980,M,82.5,78.7,310,200,300,810,SBD,Single-ply,Open
6,Aleksey Bizyaev,Алексей Бизяев,1982,M,82.5,79.65,315,177.5,315,807.5,SBD,Single-ply,Open
7,Anton Poptsov,Антон Попцов,1982,M,82.5,82,300,180,307.5,787.5,SBD,Single-ply,Open
8,Aleksandr Kokornov,Александр Кокорнов,1964,M,82.5,81.75,295,187.5,275,757.5,SBD,Single-ply,Open
9,Aleksey Krivonogov,Алексей Кривоногов,1980,M,82.5,80.45,300,170,275,745,SBD,Single-ply,Open
10,Evgeniy Shurygin,Евгений Шурыгин,1983,M,82.5,81.75,270,200,260,730,SBD,Single-ply,Open
DQ,Gennadiy Eryomin,Геннадий Ерёмин,1973,M,82.5,81.7,332.5,230,,,SBD,Single-ply,Open
DQ,Artyom Zaytsev,Артём Зайцев,1985,M,82.5,82.4,310,,290,,SBD,Single-ply,Open
1,Andrey Belyaev,Андрей Беляев,1983,M,90,89.2,365,255,370,990,SBD,Single-ply,Open
2,Andrey Tarasenko,Андрей Тарасенко,1975,M,90,89.25,365,245,335,945,SBD,Single-ply,Open
3,Dmitriy Stepanov,Дмитрий Степанов,1982,M,90,89.65,335,222.5,340,897.5,SBD,Single-ply,Open
4,Yuriy Arkhipov,Юрий Архипов,1985,M,90,87.4,340,230,325,895,SBD,Single-ply,Open
5,Aleksey Kudryavtsev,Алексей Кудрявцев,1988,M,90,90,337.5,182.5,330,850,SBD,Single-ply,Open
6,Igor Rudnev,Игорь Руднев,1983,M,90,89.4,327.5,210,300,837.5,SBD,Single-ply,Open
7,Ivan Dmitriev,Иван Дмитриев,1970,M,90,86.7,287.5,205,340,832.5,SBD,Single-ply,Open
8,Aleksey Onofrienko,Алексей Онофриенко,1974,M,90,88.95,310,180,315,805,SBD,Single-ply,Open
9,Sergey Kasaraev,Сергей Касараев,1974,M,90,89.5,300,230,270,800,SBD,Single-ply,Open
10,Maksim Proshin,Максим Прошин,1980,M,90,89,315,190,285,790,SBD,Single-ply,Open
11,Konstantin Ratnieks,Константин Ратниекс,1980,M,90,89.05,305,190,290,785,SBD,Single-ply,Open
12,Aleksandr Glushakov,Александр Глушаков,1979,M,90,88.15,300,192.5,277.5,770,SBD,Single-ply,Open
13,Stanislav Vishnyakov,Станислав Вишняков,1976,M,90,89.65,285,180,300,765,SBD,Single-ply,Open
DQ,Denis Arkhipov,Денис Архіпов,1979,M,90,88.85,345,230,,,SBD,Single-ply,Open
DQ,Evgeniy Dolgikh,Евгений Долгих,1979,M,90,89.9,280,180,,,SBD,Single-ply,Open
DQ,Mikhail Kuksenko,Михаил Куксенко,1983,M,90,89.1,305,,,,SBD,Single-ply,Open
DQ,Ruslan Gasiev,Руслан Гасиев,1974,M,90,89.9,,,,,SBD,Single-ply,Open
DQ,Vladimir Pronin,Владимир Пронин,1983,M,90,88.7,,,,,SBD,Single-ply,Open
DQ,Sergey Gradin,Сергей Градин,1979,M,90,89.45,,,,,SBD,Single-ply,Open
1,Konstantin Lebedko,Константин Лебедко,1981,M,100,99.35,382.5,262.5,340,985,SBD,Single-ply,Open
2,Aleksey Malunin,Алексей Малунин,1978,M,100,99.7,365,255,345,965,SBD,Single-ply,Open
3,Oleg Timofeev,Олег Тимофеев,1976,M,100,97.75,355,260,332.5,947.5,SBD,Single-ply,Open
4,Konstantin Pozdeev,Константин Поздеев,1984,M,100,96.75,380,215,350,945,SBD,Single-ply,Open
5,Ivan Solovyov,Иван Соловьёв,1984,M,100,98.6,362.5,242.5,290,895,SBD,Single-ply,Open
6,Mikhail Kim,Михаил Ким,1980,M,100,98.55,330,212.5,350,892.5,SBD,Single-ply,Open
7,Amiran Basov,Амиран Басов,1987,M,100,96.75,355,195,315,865,SBD,Single-ply,Open
8,Andrey Loginov,Андрей Логинов,1976,M,100,98.4,330,212.5,315,857.5,SBD,Single-ply,Open
9,Denis Alyokhin,Денис Алёхин,1978,M,100,99.85,340,190,325,855,SBD,Single-ply,Open
10,Andrey Gornostaev,Андрей Горностаев,1977,M,100,98.05,320,210,315,845,SBD,Single-ply,Open
11,Dmitriy Popov,Дмитрий Попов,1987,M,100,97.15,340,225,270,835,SBD,Single-ply,Open
12,Zakhar Petrichev,Захар Петричев,1976,M,100,99.45,300,230,255,785,SBD,Single-ply,Open
13,Aleksandr Luchnikov,Александр Лучников,1984,M,100,98.2,290,210,250,750,SBD,Single-ply,Open
DQ,Vladimir Kondratovich,Владимир Кондратович,1983,M,100,97.65,350,250,,,SBD,Single-ply,Open
DQ,Andrey Tikhonov,Андрей Тихонов,1983,M,100,93.65,320,,300,,SBD,Single-ply,Open
DQ,Pavel Berlin,Павел Берлин,1986,M,100,97.55,320,,,,SBD,Single-ply,Open
DQ,Yuriy Sakharov,Юрий Сахаров,1984,M,100,93.8,,,,,SBD,Single-ply,Open
DQ,Anton Kamov,Антон Камов,1973,M,100,95.85,,,,,SBD,Single-ply,Open
DQ,Ernst Gross,Эрнст Гросс,1987,M,100,98.25,,,,,SBD,Single-ply,Open
DQ,Akmal Yusupov,Акмал Юсупов,1984,M,100,98.3,340,,,,SBD,Single-ply,Open
1,Maxim Barkhatov,Максим Бархатов,1981,M,110,109.1,390,270,375,1035,SBD,Single-ply,Open
2,Yuriy Fedorenko,Юрий Федоренко,1974,M,110,108.65,375,255,360,990,SBD,Single-ply,Open
3,Aleksandr Atlas,Александр Атлас,1981,M,110,107,370,260,340,970,SBD,Single-ply,Open
4,Evgeniy Kovalkov,Евгений Ковальков,1982,M,110,108.4,330,230,330,890,SBD,Single-ply,Open
5,Andrey Shurbenkov,Андрей Шурбенков,1979,M,110,102.9,330,220,320,870,SBD,Single-ply,Open
6,Nikolay Uglyankin,Николай Углянкин,1967,M,110,105.2,340,230,300,870,SBD,Single-ply,Open
7,Dmitriy Reshetov,Дмитрий Решетов,1975,M,110,109.65,320,240,305,865,SBD,Single-ply,Open
8,Renad Akhmetov,Ренад Ахметов,1961,M,110,106.15,300,222.5,300,822.5,SBD,Single-ply,Open
9,Guram Chikhradze,Гурам Чихрадзе,1981,M,110,108.7,320,210,290,820,SBD,Single-ply,Open
10,Vladimir Gavrin,Владимир Гаврин,1974,M,110,109.1,320,230,250,800,SBD,Single-ply,Open
11,Aleksandr Zakharov,Александр Захаров,1985,M,110,109.2,300,205,290,795,SBD,Single-ply,Open
DQ,Mikhail Romanov,Михаил Романов,1977,M,110,109.45,365,230,,,SBD,Single-ply,Open
DQ,Dmitriy Kornienko,Дмитрий Корниенко,1977,M,110,104.65,,,,,SBD,Single-ply,Open
DQ,Igor Perepelitsyn,Игорь Перепелицын,1977,M,110,106.5,,,,,SBD,Single-ply,Open
1,Igor Gagin,Игорь Гагин,1969,M,125,124.5,395,272.5,340,1007.5,SBD,Single-ply,Open
2,Kirill Golberg,Кирилл Гольберг,1976,M,125,119.9,375,272.5,350,997.5,SBD,Single-ply,Open
3,Sergey Sosnovskiy,Сергей Сосновский,1983,M,125,122.15,400,255,342.5,997.5,SBD,Single-ply,Open
4,Andrey Drachyov,Андрей Драчёв,1985,M,125,112.8,380,250,350,980,SBD,Single-ply,Open
5,Mikhail Viasovskiy,Михаил Виасовский,1984,M,125,124.15,350,220,330,900,SBD,Single-ply,Open
DQ,Vyacheslav Zelenov,Вячеслав Зеленов,1965,M,125,119.85,335,,,,SBD,Single-ply,Open
DQ,Vladimir Sudarikov,Владимир Судариков,1984,M,125,124.6,375,,,,SBD,Single-ply,Open
DQ,Vadim Sosnovskiy,Вадим Сосновский,1977,M,125,118.45,,,,,SBD,Single-ply,Open
1,Vladimir Bondarenko,Владимир Бондаренко,1978,M,125+,156.55,425,275,380,1080,SBD,Single-ply,Open
2,Oleg Gagin,Олег Гагин,1975,M,125+,160.75,415,277.5,325,1017.5,SBD,Single-ply,Open
3,Anton Kibirev,Антон Кибирев,1982,M,125+,133.35,400,260,330,990,SBD,Single-ply,Open
4,Aleksandr Berezin,Александр Березин,1974,M,125+,134.75,365,275,330,970,SBD,Single-ply,Open
DQ,Oleg Livshits,Олег Лившиц,1973,M,125+,128.95,330,,,,SBD,Single-ply,Open
DQ,Andrey Reshetnyak,Андрей Решетняк,1979,M,125+,148.35,,,,,SBD,Single-ply,Open
DQ,Karen Danilyan,Карен Данилян,1976,M,125+,164.4,350,,,,SBD,Single-ply,Open
