Place,Sex,Name,Event,Division,WeightClassKg,Equipment,BirthYear,State,BodyweightKg,Squat1Kg,Squat2Kg,Squat3Kg,Best3SquatKg,Bench1Kg,Bench2Kg,Bench3Kg,Best3BenchKg,Deadlift1Kg,Deadlift2Kg,Deadlift3Kg,Best3DeadliftKg,TotalKg
1,M,Shawn Knapp,B,MR-M2,74,Raw,1966,FL,72.3,,,,,115,125,-127.5,125,,,,,125
1,M,Chris Dixon,B,MR-M2,120+,Raw,1965,FL,128.1,,,,,170,-185,-185,170,,,,,170
1,M,Chip Hultquist,B,MR-M3,83,Raw,1949,FL,78.1,,,,,70,80,82.5,82.5,,,,,82.5
1,M,Shawn Knapp,B,MR-O,74,Raw,1966,FL,72.3,,,,,115,125,-127.5,125,,,,,125
1,M,Brian Mott,B,MR-PF,74,Raw,1970,FL,71.87,,,,,100,-105,-105,100,,,,,100
1,M,Ariel Yera,B,MR-T1,83,Raw,2001,FL,76.6,,,,,-100,120,130,130,,,,,130
1,M,Shamarr Carmino,D,MR-Jr,83,Raw,1995,FL,77.7,,,,,,,,,-200,200,205,205,205
1,M,Bill Shuping,D,MR-M2,83,Raw,1958,FL,80.4,,,,,,,,,152.5,162.5,187.5,187.5,187.5
1,M,David Silverbloom,D,MR-M2,120+,Raw,1960,FL,126.6,,,,,,,,,260,-276,-276,260,260
1,M,Larry Bucchioni,D,MR-M3,120,Raw,1949,FL,114.5,,,,,,,,,172.5,217.5,-227.5,217.5,217.5
1,M,Ahmad Rozan,D,MR-O,59,Raw,1988,FL,57.29,,,,,,,,,165,175,192.5,192.5,192.5
1,M,Larry Bucchioni,D,MR-O,120,Raw,1949,FL,114.5,,,,,,,,,172.5,217.5,-227.5,217.5,217.5
1,F,Kelli Dari,SBD,FR-C,63,Raw,1992,FL,59.07,-90,90,-100,90,55,-60,-60,55,117.5,-130,-132.5,117.5,262.5
1,F,Christie Cajina,SBD,FR-C,84+,Raw,1994,FL,109.38,155,160,165,165,67.5,70,75,75,162.5,167.5,172.5,172.5,412.5
1,F,Mimi Ho,SBD,FR-Jr,47,Raw,1994,FL,46.45,-97.5,97.5,102.5,102.5,70,72.5,77.5,77.5,100,105,112.5,112.5,292.5
1,F,Lauren Bordelon,SBD,FR-Jr,57,Raw,1993,FL,56.3,92.5,97.5,-107.5,97.5,55,57.5,60,60,115,127.5,137.5,137.5,295
1,F,Dianelys Espinosa,SBD,FR-Jr,63,Raw,1993,FL,61.08,95,102.5,-105,102.5,67.5,-70,-70,67.5,140,147.5,152.5,152.5,322.5
2,F,Layann Alhunaidi,SBD,FR-Jr,63,Raw,1996,FL,61.6,-75,77.5,-82.5,77.5,45,47.5,-50,47.5,107.5,110,112.5,112.5,237.5
1,F,Emma Goldberg,SBD,FR-Jr,72,Raw,1994,FL,66.55,75,80,85,85,-65,67.5,-72.5,67.5,110,117.5,125,125,277.5
1,F,Alexandra Castellanos,SBD,FR-Jr,84,Raw,1995,FL,82.61,130,135,140,140,60,65,-70,65,165,182.5,190,190,395
2,F,Caitlyn Eddy,SBD,FR-Jr,84,Raw,1996,FL,74.92,115,122.5,127.5,127.5,60,65,70,70,137.5,147.5,155,155,352.5
3,F,Alexandra Servia,SBD,FR-Jr,84,Raw,1996,FL,73.48,77.5,82.5,-87.5,82.5,42.5,47.5,-50,47.5,107.5,112.5,-120,112.5,242.5
1,F,Christie Cajina,SBD,FR-Jr,84+,Raw,1994,FL,109.38,155,160,165,165,67.5,70,75,75,162.5,167.5,172.5,172.5,412.5
1,F,Courtney Carswell,SBD,FR-M1,63,Raw,1976,FL,61.59,115,-120,-120,115,65,67.5,-70,67.5,117.5,125,-130,125,307.5
2,F,Shannon Mosca,SBD,FR-M1,63,Raw,1977,FL,60.97,60,75,85,85,55,-67.5,67.5,67.5,60,,,60,212.5
1,F,Kimberly Creighton,SBD,FR-M2,57,Raw,1964,FL,56.3,80,85,-90,85,47.5,50,52.5,52.5,102.5,107.5,112.5,112.5,250
1,F,Suzanne LaForge,SBD,FR-M2,72,Raw,1959,FL,66.58,130,-145.5,145.5,145.5,72.5,80.5,-82.5,80.5,175,-192.5,192.5,192.5,418.5
1,F,Ann Whitmarsh,SBD,FR-M3,63,Raw,1953,FL,58,67.5,75,80,80,35,37.5,-40,37.5,95,100,105,105,222.5
2,F,Sandra Simmons,SBD,FR-M3,63,Raw,1948,FL,62.93,72.5,-82.5,90,90,37.5,42.5,47.5,47.5,45,,,45,182.5
1,F,Susan Paxson,SBD,FR-M3,84,Raw,1953,FL,82.07,62.5,67.5,-70,67.5,42.5,45,-47.5,45,102.5,110,115,115,227.5
1,F,Susan Elwyn,SBD,FR-M4,52,Raw,1947,FL,47.95,65,75,80,80,30,35,,35,100,110,,110,225
1,F,Gabriella Coronell,SBD,FR-O,52,Raw,1991,FL,51.98,112.5,120,125,125,80,85,-87.5,85,125,132.5,137.5,137.5,347.5
2,F,Susan Elwyn,SBD,FR-O,52,Raw,1947,FL,47.95,65,75,80,80,30,35,,35,100,110,,110,225
1,F,Christina Lodato,SBD,FR-O,57,Raw,1993,FL,55.07,107.5,110,112.5,112.5,62.5,65,-67.5,65,142.5,147.5,150,150,327.5
2,F,Lauren Bordelon,SBD,FR-O,57,Raw,1993,FL,56.3,92.5,97.5,-107.5,97.5,55,57.5,60,60,115,127.5,137.5,137.5,295
3,F,Maria Pinto,SBD,FR-O,57,Raw,1987,FL,55.63,90,-97.5,97.5,97.5,57.5,60,62.5,62.5,110,117.5,125,125,285
4,F,Rebecca Hurst,SBD,FR-O,57,Raw,1988,FL,55.83,85,-102.5,-107.5,85,52.5,57.5,60,60,102.5,115,127.5,127.5,272.5
1,F,Dianelys Espinosa,SBD,FR-O,63,Raw,1993,FL,61.08,95,102.5,-105,102.5,67.5,-70,-70,67.5,140,147.5,152.5,152.5,322.5
2,F,Courtney Carswell,SBD,FR-O,63,Raw,1976,FL,61.59,115,-120,-120,115,65,67.5,-70,67.5,117.5,125,-130,125,307.5
3,F,Lindsay Gray,SBD,FR-O,63,Raw,1988,FL,60.23,102.5,110,125,125,47.5,52.5,-55,52.5,102.5,117.5,122.5,122.5,300
4,F,Shari Meth,SBD,FR-O,63,Raw,1990,FL,61.87,115,125,-130,125,60,-65,-65,60,115,-130,-130,115,300
5,F,Zoey Panzarino,SBD,FR-O,63,Raw,1991,FL,61.98,95,100,-105,100,52.5,55,-57.5,55,122.5,130,137.5,137.5,292.5
6,F,Nicola Walash,SBD,FR-O,63,Raw,1982,FL,61.6,80,85,87.5,87.5,52.5,55,57.5,57.5,92.5,102.5,107.5,107.5,252.5
7,F,Shannon Mosca,SBD,FR-O,63,Raw,1977,FL,60.97,60,75,85,85,55,-67.5,67.5,67.5,60,,,60,212.5
1,F,Marcia Darbouze,SBD,FR-O,72,Raw,1988,FL,71.7,152.5,-162.5,-162.5,152.5,80,82.5,-85,82.5,192.5,-205,-205,192.5,427.5
2,F,Suzanne LaForge,SBD,FR-O,72,Raw,1959,FL,66.58,130,-145.5,145.5,145.5,72.5,80,-82.5,80,175,-192.5,192.5,192.5,418
3,F,Bianca Dixon,SBD,FR-O,72,Raw,1992,FL,68.93,107.5,-110,-110,107.5,67.5,-72.5,72.5,72.5,102.5,110,115,115,295
4,F,Christine Chalfant,SBD,FR-O,72,Raw,1985,FL,71.46,80,90,100,100,55,-57.5,57.5,57.5,120,130,137.5,137.5,295
5,F,Kristen McKee,SBD,FR-O,72,Raw,1990,FL,65.58,82.5,90,-95,90,45,-50,-50,45,82.5,90,97.5,97.5,232.5
1,F,Kelly Hafkey,SBD,FR-O,84,Raw,1981,FL,77.46,125,-132.5,-132.5,125,75,-80,-80,75,142.5,150,-155,150,350
2,F,Sarah Shireen,SBD,FR-O,84,Raw,1988,FL,83.37,120,125,130,130,67.5,70,-72.5,70,135,145,147.5,147.5,347.5
3,F,Tiffany Tucker,SBD,FR-O,84,Raw,1988,FL,78.02,112.5,120,127.5,127.5,57.5,62.5,-67.5,62.5,122.5,130,137.5,137.5,327.5
4,F,Nora Santiago,SBD,FR-O,84,Raw,1991,FL,79.09,-127.5,127.5,130,130,57.5,60,62.5,62.5,120,125,130,130,322.5
5,F,Samantha Ocanas,SBD,FR-O,84,Raw,1992,FL,77.64,92.5,97.5,102.5,102.5,42.5,45,47.5,47.5,105,110,115,115,265
1,F,Christie Cajina,SBD,FR-O,84+,Raw,1994,FL,109.38,155,160,165,165,67.5,70,75,75,162.5,167.5,172.5,172.5,412.5
2,F,Melissa Nadeau,SBD,FR-O,84+,Raw,1980,FL,87.77,90,102.5,110,110,57.5,62.5,65,65,145,155,165,165,340
3,F,Cristen McCarthy,SBD,FR-O,84+,Raw,1988,FL,97.25,107.5,115,120,120,60,65,67.5,67.5,137.5,145,150,150,337.5
1,F,Brianna Mott,SBD,FR-T1,63,Raw,2001,FL,59.55,62.5,65,67.5,67.5,35,37.5,-40,37.5,75,80,85,85,190
1,F,Brianna Morrison,SBD,FR-T2,43,Raw,2001,FL,40.65,85,90,95,95,45,-50,50,50,90,95,100,100,245
1,F,Zoe Vinacco,SBD,FR-T2,84,Raw,2000,FL,75.72,85,90,95,95,40,42.5,-45,42.5,87.5,92.5,97.5,97.5,235
1,F,Ariana Baklajian,SBD,FR-T3,57,Raw,1997,NJ,55.33,82.5,87.5,92.5,92.5,42.5,50,-52.5,50,97.5,105,110,110,252.5
DQ,M,Pete Andrich,SBD,M-M1,120+,Single-ply,1970,FL,130.5,,,,,,,,,,,,,
1,M,Uwe Thormann,SBD,M-M3,120,Single-ply,1957,FL,115.9,100,-140,-160,100,110,130,,130,180,210,-230,210,440
1,M,Patraic Currey,SBD,M-M4,83,Single-ply,1942,FL,80,130,132.5,147.5,147.5,120,125,-130,125,155,172.5,185,185,457.5
1,M,Christopher Semiramis,SBD,M-M,105,Single-ply,1981,FL,99.8,200,215,-220,215,115,130,-142.5,130,205,215,-230,215,560
1,M,Heath Bailey,SBD,MR-C,105,Raw,1993,FL,103.28,225,237.5,-250,237.5,152.5,160,165,165,250,267.5,277.5,277.5,680
1,M,Amos Jouquin,SBD,MR-Jr,74,Raw,1995,FL,72,155,165,175,175,112.5,120,125,125,-182.5,182.5,200,200,500
2,M,Andre Carrion,SBD,MR-Jr,74,Raw,1994,FL,70.2,-140,-140,140,140,102.5,110,-120,110,185,-187.5,,185,435
3,M,Mason Liu,SBD,MR-Jr,74,Raw,1994,FL,73.05,130,137.5,142.5,142.5,95,100,-105,100,172.5,182.5,187.5,187.5,430
1,M,Adam Steede,SBD,MR-Jr,83,Raw,1993,FL,81,210,230,240,240,-127.5,127.5,-137.5,127.5,272.5,290,295,295,662.5
2,M,Nicholas D'Asto,SBD,MR-Jr,83,Raw,1995,MD,79.43,165,175,-182.5,175,120,125,127.5,127.5,205,215,222.5,222.5,525
3,M,Christian Marcos,SBD,MR-Jr,83,Raw,1994,FL,81.6,165,175,182.5,182.5,105,110,112.5,112.5,210,222.5,227.5,227.5,522.5
4,M,Shamir Walters,SBD,MR-Jr,83,Raw,1997,FL,79.3,160,167.5,175,175,95,100,105,105,177.5,187.5,200,200,480
1,M,Brandon Barnett,SBD,MR-Jr,93,Raw,1996,FL,91.2,202.5,-215,-215,202.5,122.5,132.5,-142.5,132.5,245,257.5,275,275,610
2,M,Luis Dominguez,SBD,MR-Jr,93,Raw,1995,FL,88.4,125,,,125,135,-142.5,-142.5,135,185,,,185,445
DQ,M,Keegan Laud,SBD,MR-Jr,93,Raw,1995,FL,91.4,235,247.5,-255,247.5,155,165,-170,165,-265,-282.5,-282.5,,
1,M,Vincent Victorero,SBD,MR-Jr,105,Raw,1993,FL,101.29,235,240,250,250,167.5,177.5,185,185,255,267.5,277.5,277.5,712.5
2,M,Heath Bailey,SBD,MR-Jr,105,Raw,1993,FL,103.28,225,237.5,-250,237.5,152.5,160,165,165,250,267.5,277.5,277.5,680
1,M,George Clauson,SBD,MR-Jr,120+,Raw,1997,FL,131.87,217.5,230,-235,230,135,142.5,147.5,147.5,247.5,262.5,277.5,277.5,655
2,M,Nick Loiacano,SBD,MR-Jr,120+,Raw,1996,FL,158.4,175,185,195,195,85,90,-97.5,90,195,205,-210,205,490
1,M,David Deetscreek,SBD,MR-M2,93,Raw,1958,FL,86.32,120,-127.5,127.5,127.5,100,105,107.5,107.5,175,185,192.5,192.5,427.5
2,M,Craig Starley,SBD,MR-M2,93,Raw,1961,FL,90.7,-125,125,145,145,125,-140,140,140,125,142.5,-150,142.5,427.5
1,M,Samuel Trawick,SBD,MR-M2,120+,Raw,1966,FL,128.49,220,232.5,240,240,150,157.5,,157.5,222.5,235,242.5,242.5,640
1,M,Michael Czop,SBD,MR-M3,105,Raw,1956,FL,103,157.5,165,175,175,70,75,-77.5,75,162.5,175,182.5,182.5,432.5
1,M,Robert Braunstein,SBD,MR-M4,120+,Raw,1945,FL,121,167.5,182.5,,182.5,125,140,145,145,-167.5,167.5,182.5,182.5,510
1,M,Ahmad Rozan,SBD,MR-O,59,Raw,1988,FL,57.29,127.5,137.5,147.5,147.5,80,-90,-90,80,165,175,192.5,192.5,420
2,M,Keith Gordon,SBD,MR-O,59,Raw,1990,FL,58.57,142.5,150,157.5,157.5,65,70,75,75,142.5,152.5,165,165,397.5
1,M,Matthew Levit,SBD,MR-O,66,Raw,1994,FL,64.5,150,162.5,167.5,167.5,-100,100,102.5,102.5,175,185,187.5,187.5,457.5
1,M,Zachary Nelson,SBD,MR-O,74,Raw,1990,FL,73.46,185,195,-202.5,195,132.5,137.5,142.5,142.5,192.5,205,215,215,552.5
2,M,Luciano Torres,SBD,MR-O,74,Raw,1989,FL,70.61,175,190,195,195,107.5,-112.5,-112.5,107.5,205,-215,-215,205,507.5
3,M,Zachary Martinez,SBD,MR-O,74,Raw,1999,FL,73.78,150,160,170,170,107.5,115,120,120,175,187.5,200,200,490
4,M,Imani Martinez,SBD,MR-O,74,Raw,1993,FL,71.34,122.5,-127.5,-130,122.5,97.5,-100,-100,97.5,142.5,150,-160,150,370
1,M,Eric Perez,SBD,MR-O,83,Raw,1991,FL,81.6,220,227.5,235,235,-125,125,130,130,-222.5,222.5,232.5,232.5,597.5
2,M,Richard Falls,SBD,MR-O,83,Raw,1983,FL,82.5,182.5,197.5,202.5,202.5,137.5,142.5,-147.5,142.5,210,222.5,-235,222.5,567.5
1,M,Adam Curk,SBD,MR-O,93,Raw,1991,FL,89.45,225,237.5,245,245,152.5,160,165,165,252.5,262.5,277.5,277.5,687.5
2,M,Robbie Hyde,SBD,MR-O,93,Raw,1990,FL,91.9,212.5,225,235,235,127.5,135,140,140,225,240,252.5,252.5,627.5
3,M,Luke Labreche,SBD,MR-O,93,Raw,1994,FL,92.1,210,220,227.5,227.5,127.5,-137.5,-137.5,127.5,247.5,257.5,262.5,262.5,617.5
4,M,Matthew Greene,SBD,MR-O,93,Raw,1991,FL,91.52,197.5,220,-227.5,220,132.5,145,147.5,147.5,220,235,242.5,242.5,610
5,M,Luis Frometa,SBD,MR-O,93,Raw,1990,FL,86.03,185,200,215,215,147.5,160,165,165,210,227.5,-242.5,227.5,607.5
6,M,Shane Walters,SBD,MR-O,93,Raw,1989,FL,89.68,205,220,-230,220,132.5,140,145,145,222.5,230,240,240,605
7,M,Jason Bua,SBD,MR-O,93,Raw,1982,FL,88.3,177.5,-187.5,-187.5,177.5,127.5,132.5,-137.5,132.5,197.5,210,-215,210,520
8,M,Jeffrey Brophy,SBD,MR-O,93,Raw,1970,FL,92.2,160,170,175,175,112.5,115,117.5,117.5,205,212.5,-217.5,212.5,505
1,M,Anthony Loreto,SBD,MR-O,105,Raw,1986,FL,99.9,230,250,-265,250,150,165,170,170,280,295,312.5,312.5,732.5
2,M,Steven Speranza,SBD,MR-O,105,Raw,1987,FL,103.1,240,247.5,-252.5,247.5,160,170,-172.5,170,280,-290,-290,280,697.5
3,M,Alexander Cramer,SBD,MR-O,105,Raw,1991,FL,101.99,240,255,-265,255,147.5,-157.5,-160,147.5,272.5,290,-305,290,692.5
4,M,Heath Bailey,SBD,MR-O,105,Raw,1993,FL,103.28,225,237.5,-250,237.5,152.5,160,165,165,250,267.5,277.5,277.5,680
5,M,Rayaz Jabar,SBD,MR-O,105,Raw,1991,FL,102.2,185,200,220,220,175,190,-200,190,205,220,240,240,650
6,M,Matthew Karbowski,SBD,MR-O,105,Raw,1991,FL,100.9,227.5,-240,-247.5,227.5,150,165,-167.5,165,240,-265,-265,240,632.5
7,M,Yoel Carreno,SBD,MR-O,105,Raw,1990,FL,100.7,190,200,210,210,132.5,142.5,-147.5,142.5,240,250,260,260,612.5
8,M,Rey Nunez,SBD,MR-O,105,Raw,1978,FL,101.2,180,185,190,190,95,100,105,105,192.5,207.5,215,215,510
9,M,Elliott Flignor,SBD,MR-O,105,Raw,1992,FL,93.8,-170,170,-182.5,170,110,-120,-120,110,-200,210,-220,210,490
DQ,M,David Soltys,SBD,MR-O,105,Raw,1987,FL,100.3,220,227.5,232.5,232.5,-172.5,-172.5,-177.5,,227.5,245,260,260,
1,M,James Wildman,SBD,MR-O,120,Raw,1959,FL,118,190,205,215,215,160,170,175,175,190,205,212.5,212.5,602.5
2,M,Shaun Krin,SBD,MR-O,120,Raw,1981,FL,119.2,170,185,-187.5,185,140,147.5,-150,147.5,227.5,235,240,240,572.5
3,M,Allan Bagalacsa,SBD,MR-O,120,Raw,1982,FL,116.9,177.5,192.5,202.5,202.5,132.5,142.5,150,150,197.5,210,215,215,567.5
4,M,Edniel Florvilus,SBD,MR-O,120,Raw,1990,FL,113.8,172.5,182.5,190,190,127.5,135,-142.5,135,190,210,225,225,550
1,M,Ken Morris,SBD,MR-O,120+,Raw,1985,FL,136.6,300,315,-325,315,200,210,-212.5,210,310,330,342.5,342.5,867.5
1,M,Logan Morrison,SBD,MR-T2,105,Raw,1999,FL,100.76,192.5,205,215,215,112.5,120,125,125,200,210,217.5,217.5,557.5
1,M,Joeshua Ayala,SBD,MR-T3,59,Raw,1998,FL,53.56,85,95,105,105,67.5,75,80,80,125,-137.5,-137.5,125,310
1,M,Zachary Martinez,SBD,MR-T3,74,Raw,1999,FL,73.78,150,160,170,170,107.5,115,120,120,175,187.5,200,200,490
1,M,Chase Johnston,SBD,MR-T3,83,Raw,1997,FL,81.6,177.5,195,205,205,117.5,-132.5,132.5,132.5,190,212.5,227.5,227.5,565
1,M,Marcos Fernandez,SBD,MR-T3,105,Raw,1997,FL,102.2,195,210,225,225,130,147.5,-155,147.5,-217.5,217.5,245,245,617.5
1,M,David Montoya,SBD,MR-T3,120,Raw,1998,FL,116.92,187.5,197.5,205,205,130,137.5,140,140,220,227.5,230,230,575
1,M,Evan McGill,SBD,MR-Y3,40,Raw,2003,FL,37.17,20,22.5,27.5,27.5,12.5,17.5,20,20,45,47.5,52.5,52.5,100
1,F,Marie Sanders,BD,FR-M2,84+,Raw,1964,FL,86.03,,,,,50,-52.5,52.5,52.5,92.5,97.5,100,100,152.5
1,M,Michael Ricker,BD,M-M2,120+,Single-ply,1965,FL,135.4,,,,,-220,-220,220,220,-240,240,-280,240,460
1,M,Victor Cruz,BD,MR-Jr,105,Raw,1994,FL,101.1,,,,,125,145,-157.5,145,210,227.5,250,250,395
1,M,Nelson Lugo Jr,BD,MR-M3,120,Raw,1948,FL,116.4,,,,,110,-115,117.5,117.5,152.5,160,-167.5,160,277.5
1,M,Michael Cosgrove,BD,MR-M4,74,Raw,1946,FL,71.07,,,,,-62.5,62.5,67.5,67.5,80,90,100,100,167.5
1,M,Matthew Shanosky,BD,MR-O,120+,Raw,1985,FL,178.5,,,,,140,145,-150,145,217.5,-227.5,-227.5,217.5,362.5
