Division,WeightClassKg,Place,Name,Team,BodyweightKg,Best3SquatKg,Best3BenchKg,Best3DeadliftKg,TotalKg,Equipment,Event,Sex
Boys,51.71,1,Enoch Solis,Edinburg Economedes,48.08,195.04,108.86,167.83,471.74,Single-ply,SBD,M
Boys,51.71,2,Jesus Puente,La Joya Palmview,51.26,165.56,97.52,165.56,428.64,Single-ply,SBD,M
Boys,51.71,3,Erik Estrella,Brownsville Lopez,51.71,158.76,81.65,163.29,403.7,Single-ply,SBD,M
Boys,51.71,4,Chris Medina,Brownsville Hanna,50.35,147.42,83.91,170.1,401.43,Single-ply,SBD,M
Boys,51.71,5,Damian Reyna,Edinburg,46.72,102.06,63.5,127.01,292.57,Single-ply,SBD,M
Boys,55.79,1,Tyrone Irizarry,Brownsville Lopez,54.43,172.37,99.79,188.24,460.4,Single-ply,SBD,M
Boys,55.79,2,Eric Camarillo,Edinburg Economedes,55.34,158.76,70.31,174.63,403.7,Single-ply,SBD,M
Boys,55.79,3,Fred Mares,Edinburg,54.43,131.54,86.18,176.9,394.63,Single-ply,SBD,M
Boys,55.79,4,Jose Hernandez,Brownsville Rivera,54.43,142.88,92.99,142.88,378.75,Single-ply,SBD,M
Boys,55.79,5,Giovanni Salazar,La Joya,54.43,145.15,79.38,154.22,378.75,Single-ply,SBD,M
Boys,55.79,6,Adrian Garcia,Edinburg Economedes,55.79,142.88,86.18,136.08,365.14,Single-ply,SBD,M
Boys,55.79,DQ,Andy Oceguerra,Edcouch-Elsa,54.88,,,,,Single-ply,SBD,M
Boys,59.87,1,Jose Soto,Edinburg Economedes,57.61,192.78,124.74,174.63,492.15,Single-ply,SBD,M
Boys,59.87,2,San Juan Rodriguez,Edcouch-Elsa,58.51,181.44,102.06,183.7,467.2,Single-ply,SBD,M
Boys,59.87,3,Albert Banuelos,Los Fresnos,59.87,158.76,120.2,167.83,446.79,Single-ply,SBD,M
Boys,59.87,4,Mario Mancera,Edinburg Economedes,59.42,156.49,88.45,174.63,419.57,Single-ply,SBD,M
Boys,59.87,5,Jonathon Gracia,Brownsville Lopez,59.87,151.95,77.11,170.1,399.16,Single-ply,SBD,M
Boys,59.87,6,Jacob Olivarez,PSJA Memorial,59.42,122.47,65.77,136.08,324.32,Single-ply,SBD,M
Boys,67.13,1,Ricky Ortiz,Edcouch-Elsa,66.22,281.23,181.44,272.16,734.82,Single-ply,SBD,M
Boys,67.13,2,Jose Porras,Brownsville Hanna,67.13,219.99,117.93,226.8,564.72,Single-ply,SBD,M
Boys,67.13,3,Corbin Garza,Los Fresnos,64.86,215.46,122.47,204.12,542.04,Single-ply,SBD,M
Boys,67.13,4,Isaac Rodriguez,Rio Hondo,67.13,210.92,129.27,192.78,532.97,Single-ply,SBD,M
Boys,67.13,5,Edgar Martinez,Edinburg Vela,65.77,215.46,122.47,183.7,521.63,Single-ply,SBD,M
Boys,67.13,6,Miguel Castillo,Edinburg Vela,66.68,185.97,115.67,185.97,487.61,Single-ply,SBD,M
Boys,67.13,7,Jacob Reyes,Edinburg Vela,66.68,176.9,124.74,179.17,480.81,Single-ply,SBD,M
Boys,67.13,8,Micheal Garcia,Edinburg Vela,65.32,174.63,120.2,183.7,478.54,Single-ply,SBD,M
Boys,67.13,9,Alan Olvera,Edinburg Economedes,64.86,183.7,99.79,181.44,464.93,Single-ply,SBD,M
Boys,67.13,10,Frank Hernandez,Rio Hondo,64.41,165.56,127.01,170.1,462.66,Single-ply,SBD,M
Boys,67.13,11,Dezi Saenz,Weslaco East,67.13,154.22,106.59,192.78,453.59,Single-ply,SBD,M
Boys,67.13,12,Irvin Diaz,Weslaco East,65.32,158.76,102.06,188.24,449.06,Single-ply,SBD,M
Boys,67.13,13,Michael Tamez,La Joya Palmview,67.13,174.63,97.52,174.63,446.79,Single-ply,SBD,M
Boys,67.13,14,Erick Castro,Mission Veterans Memorial,65.32,149.69,83.91,170.1,403.7,Single-ply,SBD,M
Boys,67.13,15,John Paul Olivares,Harlingen,65.77,120.2,88.45,154.22,362.87,Single-ply,SBD,M
Boys,67.13,16,Diego Mercado,Mission Veterans Memorial,62.6,113.4,63.5,120.2,297.1,Single-ply,SBD,M
Boys,67.13,17,Isaac Iglesias,Mission Veterans Memorial,61.23,92.99,83.91,104.33,281.23,Single-ply,SBD,M
Boys,67.13,DQ,Javi Castro,Brownsville Lopez,67.13,,,,,Single-ply,SBD,M
Boys,67.13,DQ,Adan Elizondo,La Joya,66.68,151.95,97.52,272.16,,Single-ply,SBD,M
Boys,74.84,1,Roman Garay,Brownsville Hanna,73.48,235.87,131.54,256.28,623.69,Single-ply,SBD,M
Boys,74.84,2,Angel Vasquez,Edinburg Vela,73.94,215.46,136.08,206.38,557.92,Single-ply,SBD,M
Boys,74.84,3,Jesus Sepulveda,Edinburg Economedes,73.48,215.46,136.08,195.04,546.58,Single-ply,SBD,M
Boys,74.84,4,Marco Islas,Edinburg,69.85,206.38,151.95,176.9,535.24,Single-ply,SBD,M
Boys,74.84,5,Jesse Contreras,Edcouch-Elsa,73.94,215.46,104.33,213.19,532.97,Single-ply,SBD,M
Boys,74.84,6,Albert Troncoso,Mission Veterans Memorial,71.21,183.7,113.4,183.7,480.81,Single-ply,SBD,M
Boys,74.84,7,Jacob Torres,Rio Hondo,71.67,174.63,120.2,183.7,478.54,Single-ply,SBD,M
Boys,74.84,8,Carlos Arjona,La Joya Palmview,68.49,165.56,104.33,163.29,433.18,Single-ply,SBD,M
Boys,74.84,DQ,Andrew Solis,Edinburg Vela,73.94,,,,,Single-ply,SBD,M
Boys,74.84,DQ,Anthony Elvir,Los Fresnos,73.94,,,,,Single-ply,SBD,M
Boys,74.84,DQ,Christian Gamez,Brownsville Lopez,73.94,269.89,154.22,,,Single-ply,SBD,M
Boys,82.1,1,Jacob Perez,Edcouch-Elsa,81.65,249.48,127.01,251.74,628.23,Single-ply,SBD,M
Boys,82.1,2,Gilbert Sanchez,Brownsville Veterans Memorial,81.19,235.87,129.27,219.99,585.13,Single-ply,SBD,M
Boys,82.1,3,Alonso Requena,Los Fresnos,81.65,219.99,129.27,229.06,578.33,Single-ply,SBD,M
Boys,82.1,4,Guadalupe Lopez,Brownsville Veterans Memorial,79.83,215.46,129.27,226.8,571.53,Single-ply,SBD,M
Boys,82.1,5,Tony Gil,Edcouch-Elsa,80.74,235.87,131.54,192.78,560.19,Single-ply,SBD,M
Boys,82.1,6,Sebastian Zapata,Brownsville Veterans Memorial,77.11,183.7,99.79,197.31,480.81,Single-ply,SBD,M
Boys,82.1,7,Jose Ibarra,Mission Veterans Memorial,81.19,174.63,102.06,172.37,449.06,Single-ply,SBD,M
Boys,82.1,8,David Lopez,Harlingen,76.66,145.15,92.99,158.76,396.89,Single-ply,SBD,M
Boys,82.1,9,Rogelio Mendoza,Rio Hondo,80.74,149.69,99.79,138.35,387.82,Single-ply,SBD,M
Boys,82.1,DQ,Rosbel Zamarripa,La Joya Palmview,80.29,,,,,Single-ply,SBD,M
Boys,82.1,DQ,Juan Torres,Mission Veterans Memorial,79.83,108.86,72.57,,,Single-ply,SBD,M
Boys,89.81,1,Brandon Esteves,Brownsville Hanna,89.81,272.16,156.49,272.16,700.8,Single-ply,SBD,M
Boys,89.81,2,Mario Reyna,Edinburg Economedes,89.36,283.5,167.83,231.33,682.66,Single-ply,SBD,M
Boys,89.81,3,Aaron Alvarez,Edinburg Vela,88.9,272.16,151.95,217.72,641.83,Single-ply,SBD,M
Boys,89.81,4,Isaac de Anda,Edcouch-Elsa,87.09,258.55,124.74,240.4,623.69,Single-ply,SBD,M
Boys,89.81,5,Robert Garza,Los Fresnos,88.45,229.06,142.88,249.48,621.42,Single-ply,SBD,M
Boys,89.81,6,Carlos Arrellano,Brownsville Lopez,88,238.14,108.86,229.06,576.06,Single-ply,SBD,M
Boys,89.81,7,Chris Jimenez,Brownsville Lopez,89.36,215.46,142.88,210.92,569.26,Single-ply,SBD,M
Boys,89.81,8,Noah Martinez,Edinburg,88,238.14,124.74,199.58,562.45,Single-ply,SBD,M
Boys,89.81,9,Robert Sumbillo,Edcouch-Elsa,88.45,208.65,131.54,213.19,553.38,Single-ply,SBD,M
Boys,89.81,10,Matthew Guzman,Edinburg Vela,88.45,224.53,124.74,188.24,537.51,Single-ply,SBD,M
Boys,89.81,11,Aaron Longoria,Mission Veterans Memorial,87.09,215.46,117.93,190.51,523.9,Single-ply,SBD,M
Boys,89.81,12,Ethan Fonseca,Weslaco East,87.54,188.24,111.13,192.78,492.15,Single-ply,SBD,M
Boys,89.81,13,Marc Garcia,La Joya,87.09,195.04,117.93,161.03,474,Single-ply,SBD,M
Boys,89.81,14,Alex Galaviz,La Joya,85.28,172.37,99.79,181.44,453.59,Single-ply,SBD,M
Boys,89.81,15,Ricardo Alanis,Brownsville St. Joseph Academy,89.81,174.63,99.79,158.76,433.18,Single-ply,SBD,M
Boys,89.81,16,Jairo Bueno,Weslaco East,86.64,174.63,104.33,149.69,428.64,Single-ply,SBD,M
Boys,89.81,17,Gaberial Martinez,Harlingen,87.54,161.03,108.86,147.42,417.3,Single-ply,SBD,M
Boys,89.81,18,Ruben Ramirez,Mission Veterans Memorial,89.36,147.42,97.52,151.95,396.89,Single-ply,SBD,M
Boys,89.81,19,Angel Olvero,La Joya,84.37,149.69,74.84,167.83,392.36,Single-ply,SBD,M
Boys,89.81,20,Jesus Hernandez,Brownsville Rivera,88,142.88,92.99,147.42,383.29,Single-ply,SBD,M
Boys,89.81,21,Davin Pollard,PSJA Memorial,88,131.54,83.91,142.88,358.34,Single-ply,SBD,M
Boys,89.81,22,Robert Arevalo,Edinburg Vela,84.82,113.4,95.25,142.88,351.53,Single-ply,SBD,M
Boys,89.81,23,Federico Rendon,Brownsville St. Joseph Academy,89.81,129.27,61.23,138.35,328.85,Single-ply,SBD,M
Boys,89.81,DQ,Oscar Mendoza,La Joya Palmview,83.46,,,,,Single-ply,SBD,M
Boys,99.79,1,Justin Flores,Rio Hondo,98.43,292.57,204.12,231.33,728.02,Single-ply,SBD,M
Boys,99.79,2,Nate Vallejo,Edcouch-Elsa,97.07,272.16,181.44,260.82,714.41,Single-ply,SBD,M
Boys,99.79,3,Frank Coronado,Edinburg,97.52,247.21,151.95,249.48,648.64,Single-ply,SBD,M
Boys,99.79,4,Adalberto Rodriguez,Los Fresnos,91.63,233.6,131.54,226.8,591.94,Single-ply,SBD,M
Boys,99.79,5,Jesus Chavana,La Joya,97.98,233.6,115.67,235.87,585.13,Single-ply,SBD,M
Boys,99.79,6,Anthony Martinez,Rio Hondo,98.88,229.06,156.49,195.04,580.6,Single-ply,SBD,M
Boys,99.79,7,Juan Mendoza,Edinburg,98.43,219.99,149.69,208.65,578.33,Single-ply,SBD,M
Boys,99.79,8,John Garcia,Mission Veterans Memorial,96.16,219.99,127.01,183.7,530.7,Single-ply,SBD,M
Boys,99.79,9,Chris Ramirez,La Joya Palmview,99.34,206.38,131.54,183.7,521.63,Single-ply,SBD,M
Boys,99.79,10,Alberto Vargas,La Joya Palmview,95.71,183.7,142.88,190.51,517.1,Single-ply,SBD,M
Boys,99.79,11,Arturo Del Angel,La Joya,99.34,195.04,124.74,192.78,512.56,Single-ply,SBD,M
Boys,99.79,12,Isaac Martinez,Harlingen,94.8,163.29,129.27,217.72,510.29,Single-ply,SBD,M
Boys,99.79,13,Dylan De La Garza,Edinburg Vela,91.17,195.04,117.93,188.24,501.22,Single-ply,SBD,M
Boys,99.79,14,Robert Osegueda,Harlingen,94.35,179.17,97.52,195.04,471.74,Single-ply,SBD,M
Boys,99.79,15,John Sanchez,Weslaco East,96.62,165.56,102.06,192.78,460.4,Single-ply,SBD,M
Boys,99.79,16,Robert Torres,Weslaco East,96.62,156.49,97.52,183.7,437.72,Single-ply,SBD,M
Boys,99.79,17,Guadalupe Salinas,Brownsville Rivera,99.79,156.49,99.79,181.44,437.72,Single-ply,SBD,M
Boys,99.79,18,Ezekiel Coronado,La Joya,97.52,115.67,88.45,158.76,362.87,Single-ply,SBD,M
Boys,99.79,19,Christian Villegas,Weslaco East,92.53,,102.06,158.76,260.82,Single-ply,BD,M
Boys,99.79,DQ,Matthew Cortinas,Brownsville Lopez,99.79,215.46,,,,Single-ply,SBD,M
Boys,99.79,DQ,Jaime Quintero,PSJA Memorial,91.63,,,,,Single-ply,SBD,M
Boys,99.79,DQ,Jose Raya,Brownsville Hanna,97.98,265.35,136.08,,,Single-ply,SBD,M
Boys,109.77,1,Cody Alvarado,Edcouch-Elsa,108.41,317.51,188.24,281.23,786.98,Single-ply,SBD,M
Boys,109.77,2,Lazaro Patlan,Edinburg,103.87,274.42,174.63,231.33,680.39,Single-ply,SBD,M
Boys,109.77,3,Matthew Alfaro,Edinburg Economedes,107.5,267.62,158.76,233.6,659.98,Single-ply,SBD,M
Boys,109.77,4,Jonathan De Los Reyes,Brownsville Hanna,109.32,265.35,147.42,244.94,657.71,Single-ply,SBD,M
Boys,109.77,5,Luis Uvalle,Harlingen,106.14,151.95,77.11,190.51,419.57,Single-ply,SBD,M
Boys,109.77,5,Juan Payan,Brownsville Rivera,108.86,247.21,133.81,226.8,607.81,Single-ply,SBD,M
Boys,109.77,6,Joseph Guerra,Edinburg Economedes,107.05,215.46,142.88,215.46,573.79,Single-ply,SBD,M
Boys,109.77,7,Ryan Rodriguez,Edinburg,105.23,197.31,161.03,208.65,566.99,Single-ply,SBD,M
Boys,109.77,8,Elvin Ecoto,Harlingen,105.69,151.95,88.45,192.78,433.18,Single-ply,SBD,M
Boys,109.77,9,Hector Guerrero,Brownsville Rivera,104.33,142.88,83.91,183.7,410.5,Single-ply,SBD,M
Boys,109.77,10,Juan Obregon,Brownsville Rivera,109.77,151.95,86.18,165.56,403.7,Single-ply,SBD,M
Boys,109.77,DQ,Calvin Hinojosa,Brownsville Hanna,101.15,,,,,Single-ply,SBD,M
Boys,109.77,DQ,Derek Guevara,Los Fresnos,104.33,233.6,149.69,,,Single-ply,SBD,M
Boys,109.77,DQ,Chris Arredondo,Brownsville Hanna,106.14,226.8,,,,Single-ply,SBD,M
Boys,109.77,DQ,Justin Alaya,Brownsville Veterans Memorial,102.97,229.06,,,,Single-ply,SBD,M
Boys,109.77,DQ,Jose Solis,Brownsville Veterans Memorial,101.15,247.21,,,,Single-ply,SBD,M
Boys,124.74,1,Lorenzo Villarreal,Los Fresnos,121.11,294.84,210.92,276.69,782.45,Single-ply,SBD,M
Boys,124.74,2,Juan Rivas,La Joya Palmview,121.11,281.23,195.04,272.16,748.43,Single-ply,SBD,M
Boys,124.74,3,Imanol Rodriguez,Edcouch-Elsa,120.2,294.84,188.24,244.94,728.02,Single-ply,SBD,M
Boys,124.74,4,Antonio Mujica,Edinburg Economedes,118.39,285.76,151.95,226.8,664.51,Single-ply,SBD,M
Boys,124.74,5,Shayne Hernandez,Edinburg,112.94,254.01,151.95,244.94,650.91,Single-ply,SBD,M
Boys,124.74,6,Josue Ramiez,Brownsville Rivera,120.2,274.42,156.49,213.19,644.1,Single-ply,SBD,M
Boys,124.74,7,Derek Tobar,Brownsville Veterans Memorial,124.74,272.16,163.29,206.38,641.83,Single-ply,SBD,M
Boys,124.74,8,Jose Garcia,Brownsville Lopez,115.67,265.35,145.15,226.8,637.3,Single-ply,SBD,M
Boys,124.74,9,Luis Trevino,Edinburg,113.4,256.28,147.42,213.19,616.89,Single-ply,SBD,M
Boys,124.74,10,Adrian Salinas,Brownsville Hanna,113.4,247.21,129.27,233.6,610.08,Single-ply,SBD,M
Boys,124.74,11,Anthony Cardona,Edinburg,122.02,244.94,136.08,226.8,607.81,Single-ply,SBD,M
Boys,124.74,12,Jp Martinez,Weslaco East,122.02,219.99,102.06,215.46,537.51,Single-ply,SBD,M
Boys,124.74,13,Brandon Sandoval,Rio Hondo,117.48,183.7,124.74,161.03,469.47,Single-ply,SBD,M
Boys,124.74,14,Alex Mendiola,La Joya Palmview,119.75,199.58,9.07,158.76,367.41,Single-ply,SBD,M
Boys,124.74,DQ,Rogelio Garza,Rio Hondo,110.68,183.7,,,,Single-ply,SBD,M
Boys,124.74,DQ,Gonzalo Moya,Edinburg Vela,123.38,127.01,,,,Single-ply,SBD,M
Boys,124.74+,1,Justin Garza,Brownsville Rivera,132.45,344.73,165.56,278.96,789.25,Single-ply,SBD,M
Boys,124.74+,2,Joel Chapa,Brownsville Lopez,152.86,356.07,167.83,256.28,780.18,Single-ply,SBD,M
Boys,124.74+,3,Troy Macias,Rio Hondo,125.19,226.8,183.7,226.8,637.3,Single-ply,SBD,M
Boys,124.74+,4,Jesus Lozano,Weslaco East,127.01,210.92,102.06,206.38,519.36,Single-ply,SBD,M
Boys,124.74+,DQ,Sebastian Garcia,Brownsville Hanna,146.51,340.19,,,,Single-ply,SBD,M
Boys,124.74+,DQ,Jason Vasquez,Edcouch-Elsa,130.18,,,,,Single-ply,SBD,M
Boys,124.74+,DQ,Jose Tovar,PSJA Memorial,131.68,,,,,Single-ply,SBD,M
