Division,WeightClassKg,Place,Name,Team,BodyweightKg,Best3SquatKg,Best3BenchKg,Best3DeadliftKg,TotalKg,Equipment,Event,Sex
Boys,51.71,1,Cody Henson,Abernathy,48.81,136.08,74.84,151.95,362.87,Single-ply,SBD,M
Boys,51.71,2,Carlos Perez #3,Sundown,49.8,99.79,58.97,131.54,290.3,Single-ply,SBD,M
Boys,51.71,3,Toby Crabb,Slaton,44.63,81.65,56.7,102.06,240.4,Single-ply,SBD,M
Boys,51.71,4,Julian Torrez,Abernathy,43.82,79.38,56.7,92.99,229.06,Single-ply,SBD,M
Boys,51.71,5,John Calzoncit,Tahoka,48.63,81.65,40.82,102.06,224.53,Single-ply,SBD,M
Boys,55.79,1,Carlos Rodriguez,Olton,53.16,147.42,74.84,163.29,385.55,Single-ply,SBD,M
Boys,55.79,2,Landon Simmons,Slaton,54.07,127.01,72.57,117.93,317.51,Single-ply,SBD,M
Boys,55.79,3,Paxtyn Gwin,Tahoka,55.52,111.13,68.04,122.47,301.64,Single-ply,SBD,M
Boys,55.79,4,Brayden Sanders,Sundown,54.43,106.59,56.7,129.27,292.57,Single-ply,SBD,M
Boys,55.79,5,Aaron Cortez,Abernathy,53.98,102.06,52.16,111.13,265.35,Single-ply,SBD,M
Boys,55.79,6,Marcus Hernandez,Sundown,53.89,90.72,49.9,113.4,254.01,Single-ply,SBD,M
Boys,55.79,7,Braden Crouch,Lubbock Cooper,54.07,90.72,52.16,106.59,249.48,Single-ply,SBD,M
Boys,55.79,8,Angel Ramirez,Tahoka,55.16,90.72,40.82,108.86,240.4,Single-ply,SBD,M
Boys,59.87,1,Santos Yanez,Slaton,59.42,158.76,88.45,172.37,419.57,Single-ply,SBD,M
Boys,59.87,2,Zack Gilbert,Lubbock Roosevelt,57.33,122.47,86.18,149.69,358.34,Single-ply,SBD,M
Boys,59.87,3,Eddy Betencourt,Slaton,59.33,113.4,65.77,172.37,351.53,Single-ply,SBD,M
Boys,59.87,4,Truman Richerson,Abernathy,58.51,127.01,77.11,120.2,324.32,Single-ply,SBD,M
Boys,59.87,5,Jose Perez,Sundown,57.15,122.47,58.97,133.81,315.25,Single-ply,SBD,M
Boys,67.13,1,Zach Ponciano,Abernathy,67.04,165.56,102.06,181.44,449.06,Single-ply,SBD,M
Boys,67.13,2,Juwan Hamilton,Tahoka,63.78,181.44,74.84,190.51,446.79,Single-ply,SBD,M
Boys,67.13,3,Isaac Hernandez,Sundown,65.14,158.76,92.99,172.37,424.11,Single-ply,SBD,M
Boys,67.13,4,Cade Conway,Sundown,61.51,151.95,90.72,161.03,403.7,Single-ply,SBD,M
Boys,67.13,5,Jesus Rivera,Abernathy,67.13,156.49,92.99,129.27,378.75,Single-ply,SBD,M
Boys,67.13,6,Christian Jones,Shallowater,62.69,142.88,79.38,147.42,369.68,Single-ply,SBD,M
Boys,67.13,7,Eli Samarron,Sundown,65.32,136.08,83.91,147.42,367.41,Single-ply,SBD,M
Boys,67.13,8,Brandon Ureste,Abernathy,64.5,133.81,83.91,147.42,365.14,Single-ply,SBD,M
Boys,67.13,9,Kelby Barnes,Shallowater,67.04,136.08,97.52,124.74,358.34,Single-ply,SBD,M
Boys,67.13,10,Jakeum DeLaCruz,Abernathy,60.87,124.74,77.11,129.27,331.12,Single-ply,SBD,M
Boys,67.13,11,Case Garrett,Lubbock Roosevelt,63.05,104.33,86.18,140.61,331.12,Single-ply,SBD,M
Boys,67.13,12,Ivan Camargo,Tahoka,62.41,99.79,61.23,117.93,278.96,Single-ply,SBD,M
Boys,67.13,13,Pablo Gonzlaez,Olton,66.13,104.33,61.23,113.4,278.96,Single-ply,SBD,M
Boys,67.13,14,Xavier Rodriguez,Olton,61.96,92.99,61.23,122.47,276.69,Single-ply,SBD,M
Boys,67.13,DQ,Ben Flores,Abernathy,65.14,,,,,Single-ply,SBD,M
Boys,74.84,1,Blake Hulse,Sundown,70.03,215.46,104.33,217.72,537.51,Single-ply,SBD,M
Boys,74.84,2,Alexander Herevia,Tahoka,68.76,181.44,97.52,204.12,483.08,Single-ply,SBD,M
Boys,74.84,3,Isiah Roacha,Slaton,74.57,154.22,106.59,181.44,442.25,Single-ply,SBD,M
Boys,74.84,4,Isaiah Ramos,Shallowater,68.04,163.29,106.59,163.29,433.18,Single-ply,SBD,M
Boys,74.84,5,Matthew Diaz,Tahoka,70.22,170.1,83.91,176.9,430.91,Single-ply,SBD,M
Boys,74.84,6,George Flores,Abernathy,68.76,142.88,108.86,158.76,410.5,Single-ply,SBD,M
Boys,74.84,7,Peyton Lowdermilk,Tahoka,71.49,147.42,95.25,163.29,405.97,Single-ply,SBD,M
Boys,74.84,8,Dawson Sproul,Lubbock Roosevelt,68.22,147.42,97.52,154.22,399.16,Single-ply,SBD,M
Boys,74.84,9,Michael Trevino,Abernathy,74.39,149.69,86.18,156.49,392.36,Single-ply,SBD,M
Boys,74.84,10,Miguel Granados,Tahoka,74.75,136.08,70.31,151.95,358.34,Single-ply,SBD,M
Boys,74.84,11,Nathaniel Resendez,Tahoka,72.76,136.08,70.31,145.15,351.53,Single-ply,SBD,M
Boys,74.84,12,Rashaun Williams,Olton,72.48,124.74,65.77,154.22,344.73,Single-ply,SBD,M
Boys,74.84,13,Jon Evan Cortez,Abernathy,72.03,124.74,72.57,145.15,342.46,Single-ply,SBD,M
Boys,74.84,14,Colt Wood,Lubbock Cooper,69.4,102.06,61.23,124.74,288.03,Single-ply,SBD,M
Boys,74.84,15,Jody Nevill,Tahoka,70.22,90.72,49.9,127.01,267.62,Single-ply,SBD,M
Boys,74.84,16,Grayson Autry,Lubbock Cooper,74.3,83.91,52.16,97.52,233.6,Single-ply,SBD,M
Boys,74.84,DQ,Dante Flores,Abernathy,74.75,,,,,Single-ply,SBD,M
Boys,74.84,DQ,Aldo Vasquez,Olton,69.76,190.51,106.59,,,Single-ply,SBD,M
Boys,74.84,DQ,Dawson Glover,Tahoka,74.39,149.69,70.31,,,Single-ply,SBD,M
Boys,82.1,1,Brayden Castillon,Tahoka,77.93,213.19,124.74,215.46,553.38,Single-ply,SBD,M
Boys,89.81,1,Nicodemus Ayala,Tahoka,87.91,195.04,111.13,192.78,498.95,Single-ply,SBD,M
Boys,89.81,2,Hunter Stanley,Sundown,84.01,176.9,106.59,183.7,467.2,Single-ply,SBD,M
Boys,89.81,3,Austin Callaway,Abernathy,87.72,151.95,90.72,181.44,424.11,Single-ply,SBD,M
Boys,89.81,4,Stephen Cortez,Abernathy,89.36,151.95,95.25,163.29,410.5,Single-ply,SBD,M
Boys,89.81,5,Zakary Gragson,Sundown,85.18,165.56,79.38,156.49,401.43,Single-ply,SBD,M
Boys,89.81,6,Sam Fallin,Lubbock Roosevelt,88.18,142.88,79.38,147.42,369.68,Single-ply,SBD,M
Boys,89.81,7,Mason Walker,Tahoka,83.73,136.08,74.84,138.35,349.27,Single-ply,SBD,M
Boys,89.81,8,Kalub Morales,Abernathy,83.46,117.93,74.84,136.08,328.85,Single-ply,SBD,M
Boys,89.81,9,Garrett Emerson,Slaton,86,86.18,54.43,149.69,290.3,Single-ply,SBD,M
Boys,89.81,DQ,Brody Black,Sundown,87.63,,,,,Single-ply,SBD,M
Boys,89.81,DQ,Holt Pierce,Shallowater,89.63,195.04,,,,Single-ply,SBD,M
Boys,89.81,DQ,Braxton Juardo,Shallowater,85.64,204.12,,,,Single-ply,SBD,M
Boys,99.79,1,Jeremy L Hernandez,Sundown,96.62,240.4,111.13,226.8,578.33,Single-ply,SBD,M
Boys,99.79,2,Alberto Sinaloa,Olton,94.98,201.85,129.27,183.7,514.83,Single-ply,SBD,M
Boys,99.79,3,Jimmy Poyner,Lubbock Cooper,99.16,183.7,115.67,183.7,483.08,Single-ply,SBD,M
Boys,99.79,4,Blake Harmon,Tahoka,95.62,183.7,106.59,163.29,453.59,Single-ply,SBD,M
Boys,99.79,5,Ryan Fife,Lubbock Cooper,94.53,136.08,102.06,145.15,383.29,Single-ply,SBD,M
Boys,99.79,6,Bryson Leaks,Abernathy,92.08,145.15,86.18,149.69,381.02,Single-ply,SBD,M
Boys,99.79,7,Kade Hurt,Tahoka,96.07,138.35,74.84,136.08,349.27,Single-ply,SBD,M
Boys,99.79,8,Conner Hand,Lubbock Cooper,96.98,102.06,56.7,120.2,278.96,Single-ply,SBD,M
Boys,109.77,1,Ruben Quinonez,Tahoka,102.15,254.01,145.15,213.19,612.35,Single-ply,SBD,M
Boys,109.77,2,JR Paiz,Sundown,100.52,226.8,122.47,181.44,530.7,Single-ply,SBD,M
Boys,109.77,3,Isaiah Sanchez,Lubbock Cooper,104.33,174.63,104.33,161.03,439.98,Single-ply,SBD,M
Boys,109.77,4,Jd Hogan,Slaton,101.15,136.08,90.72,136.08,362.87,Single-ply,SBD,M
Boys,109.77,DQ,Gabriel Chavez,Olton,107.5,260.82,,,,Single-ply,SBD,M
Boys,124.74,1,Andy Casias,Abernathy,114.03,249.48,145.15,235.87,630.49,Single-ply,SBD,M
Boys,124.74,2,Robert Haney,Lubbock Cooper,123.38,206.38,102.06,185.97,494.42,Single-ply,SBD,M
Boys,124.74,3,Corbin Escobedo,Tahoka,117.21,204.12,95.25,174.63,474,Single-ply,SBD,M
Boys,124.74,DQ,Isreal Rodriguez,Slaton,113.13,226.8,,,,Single-ply,SBD,M
Boys,124.74+,1,Francisco Saenz,Olton,140.89,281.23,149.69,249.48,680.39,Single-ply,SBD,M
Boys,124.74+,2,Josh Salas,Slaton,143.7,247.21,129.27,199.58,576.06,Single-ply,SBD,M
Boys,124.74+,3,Cameron Hastings,Sundown,139.71,219.99,120.2,170.1,510.29,Single-ply,SBD,M
Boys,124.74+,4,Arty Lopez,Abernathy,126.73,204.12,108.86,192.78,505.76,Single-ply,SBD,M
Boys,124.74+,5,Ayden Visage,Lubbock Cooper,127.91,156.49,83.91,174.63,415.04,Single-ply,SBD,M
Boys,,NS,Jacob McMinn,Abernathy,,,,,,Single-ply,SBD,M
Boys,,NS,Sergio Guerrero,Olton,,,,,,Single-ply,SBD,M
Boys,,NS,Juan Carlos Pedroza,Olton,,,,,,Single-ply,SBD,M
Boys,,NS,David Sinaloa,Olton,,,,,,Single-ply,SBD,M
