Division,WeightClassKg,Place,Name,Team,BodyweightKg,Best3SquatKg,Best3BenchKg,Best3DeadliftKg,TotalKg,Equipment,Event,Sex
Boys,51.71,1,Tye Ochoa,Temple,51.71,104.33,61.23,124.74,290.3,Single-ply,SBD,M
Boys,51.71,2,Ryshad Johnson,Temple,50.8,102.06,54.43,113.4,269.89,Single-ply,SBD,M
Boys,51.71,DQ,Ryan Dean,Waco Midway,48.26,,,,,Single-ply,SBD,M
Boys,55.79,1,Clint Lott,Waco Midway,55.7,142.88,81.65,156.49,381.02,Single-ply,SBD,M
Boys,55.79,DQ,Isaiah Robinson,Waco Midway,54.61,,,,,Single-ply,SBD,M
Boys,59.87,3,Jake Evans,Waco Midway,55.97,95.25,49.9,95.25,240.4,Single-ply,SBD,M
Boys,55.79,4,Dylan Willmann,Waco Midway,54.79,79.38,49.9,99.79,229.06,Single-ply,SBD,M
Boys,55.79,DQ,George Vig,Temple,55.79,102.06,58.97,124.74,,Single-ply,SBD,M
Boys,59.87,DQ,Pete Contreras,Belton,56.79,,,,,Single-ply,SBD,M
Boys,59.87,2,Bell Dedriell,Temple,59.78,122.47,83.91,172.37,378.75,Single-ply,SBD,M
Boys,67.13,3,Reamond Martinez,Belton,60.1,122.47,86.18,158.76,367.41,Single-ply,SBD,M
Boys,59.87,4,Collins Marquis,Temple,59.06,127.01,70.31,149.69,347,Single-ply,SBD,M
Boys,59.87,5,Tyler Williams,Copperas Cove,58.33,102.06,61.23,136.08,299.37,Single-ply,SBD,M
Boys,59.87,6,Cliff Curry,Waco Midway,57.61,52.16,43.09,79.38,174.63,Single-ply,SBD,M
Boys,74.84,1,Robert Martinez,Belton,67.36,163.29,92.99,208.65,464.93,Single-ply,SBD,M
Boys,67.13,2,Xavier Moffit,Belton,66.32,158.76,88.45,206.38,453.59,Single-ply,SBD,M
Boys,67.13,3,Tyson Eno,Belton,60.96,127.01,99.79,147.42,374.21,Single-ply,SBD,M
Boys,67.13,4,Ladarian Johnson,Copperas Cove,61.51,102.06,72.57,122.47,297.1,Single-ply,SBD,M
Boys,67.13,DQ,Akeel Wilson,Temple,66.13,,,,,Single-ply,SBD,M
Boys,67.13,DQ,Dedreon Bell,Temple,64.68,,,,,Single-ply,SBD,M
Boys,67.13,DQ,Jeff Carr,Temple,64.86,,,,,Single-ply,SBD,M
Boys,67.13,DQ,Kadarius Wells,Waco,61.42,,,,,Single-ply,SBD,M
Boys,67.13,DQ,Diego Gill,Copperas Cove,65.59,102.06,,,,Single-ply,SBD,M
Boys,74.84,DQ,Andy Owens,Waco Midway,67.22,122.47,,,,Single-ply,SBD,M
Boys,82.1,1,Stephen St John,Belton,74.93,210.92,113.4,222.26,546.58,Single-ply,SBD,M
Boys,74.84,2,Case D'Herde,Waco Midway,74.12,170.1,115.67,222.26,508.02,Single-ply,SBD,M
Boys,74.84,3,Fabian Valenzuela,Copperas Cove,71.49,158.76,92.99,195.04,446.79,Single-ply,SBD,M
Boys,74.84,4,Dominique Johnson-Nealy,Temple,73.12,170.1,99.79,167.83,437.72,Single-ply,SBD,M
Boys,74.84,5,Stephen Snyder,Belton,71.3,145.15,90.72,192.78,428.64,Single-ply,SBD,M
Boys,74.84,6,Jerret Gosnell,Copperas Cove,68.49,151.95,97.52,158.76,408.23,Single-ply,SBD,M
Boys,74.84,7,Javonte Langrum,Temple,74.84,142.88,97.52,154.22,394.63,Single-ply,SBD,M
Boys,74.84,8,Trent Foster,Belton,67.59,136.08,83.91,136.08,356.07,Single-ply,SBD,M
Boys,74.84,9,Aaron Velez,Copperas Cove,73.03,127.01,88.45,133.81,349.27,Single-ply,SBD,M
Boys,74.84,DQ,Brandon Julian,Belton,70.13,,,,,Single-ply,SBD,M
Boys,82.1,1,Gaylon Sanders,Temple,77.56,190.51,115.67,215.46,521.63,Single-ply,SBD,M
Boys,82.1,2,Devin Patterson,Belton,81.28,176.9,120.2,215.46,512.56,Single-ply,SBD,M
Boys,82.1,3,Nathan Hengst,Waco Midway,81.74,199.58,127.01,156.49,483.08,Single-ply,SBD,M
Boys,82.1,4,Ryan Vincent,Belton,78.83,158.76,111.13,188.24,458.13,Single-ply,SBD,M
Boys,82.1,5,Mike Sumrall,Copperas Cove,77.56,170.1,97.52,188.24,455.86,Single-ply,SBD,M
Boys,82.1,6,Mario Perez,Copperas Cove,79.65,170.1,99.79,181.44,451.32,Single-ply,SBD,M
Boys,82.1,7,Trent Canion,Copperas Cove,75.39,147.42,70.31,158.76,376.48,Single-ply,SBD,M
Boys,82.1,8,Ryan Johnson,Belton,79.2,113.4,79.38,158.76,351.53,Single-ply,SBD,M
Boys,82.1,9,Justin Machado,Copperas Cove,78.56,124.74,81.65,136.08,342.46,Single-ply,SBD,M
Boys,82.1,DQ,Dalton Randolph,Temple,77.56,161.03,92.99,185.97,,Single-ply,SBD,M
Boys,82.1,DQ,Alante Sims,Temple,80.74,,,,,Single-ply,SBD,M
Boys,89.81,DQ,Michael Hicks,Temple,82.28,,,,,Single-ply,SBD,M
Boys,82.1,DQ,Ashton Jackson,Temple,82.1,,,,,Single-ply,SBD,M
Boys,82.1,DQ,Karim Sarhani,Copperas Cove,79.47,,,,,Single-ply,SBD,M
Boys,82.1,DQ,Hunter Yauch,Copperas Cove,77.11,,,,,Single-ply,SBD,M
Boys,89.81,1,Justin Richeter,Waco Midway,88.54,240.4,136.08,199.58,576.06,Single-ply,SBD,M
Boys,89.81,2,Donavan Williams,Belton,89.81,197.31,108.86,254.01,560.19,Single-ply,SBD,M
Boys,89.81,3,Jerikhoal Alvarez,Temple,88.45,201.85,133.81,219.99,555.65,Single-ply,SBD,M
Boys,99.79,4,Dominik Thompson,Temple,89.9,204.12,111.13,204.12,519.36,Single-ply,SBD,M
Boys,89.81,5,Nika Davis,Waco,84.73,190.51,113.4,192.78,496.68,Single-ply,SBD,M
Boys,89.81,6,John Ladner,Waco Midway,88.99,158.76,99.79,170.1,428.64,Single-ply,SBD,M
Boys,89.81,7,Roderrick Harris,Waco,85.46,170.1,92.99,154.22,417.3,Single-ply,SBD,M
Boys,89.81,8,Dallas Selby,Waco Midway,84.73,106.59,90.72,142.88,340.19,Single-ply,SBD,M
Boys,89.81,DQ,Deshaun Sellers,Temple,88.45,154.22,92.99,167.83,,Single-ply,SBD,M
Boys,89.81,DQ,Rayshun Jones,Belton,89.36,,,,,Single-ply,SBD,M
Boys,89.81,DQ,Chase McCosham,Belton,87.18,,,,,Single-ply,SBD,M
Boys,89.81,DQ,Enrique Orellena,Belton,88.18,172.37,122.47,,,Single-ply,SBD,M
Boys,89.81,DQ,Ryan Cox,Belton,88.99,,,,,Single-ply,SBD,M
Boys,99.79,DQ,Lazarus Flores,Waco,90.04,154.22,,,,Single-ply,SBD,M
Boys,89.81,DQ,Devin Mercer,Waco Midway,87.45,,,,,Single-ply,SBD,M
Boys,99.79,1,Demarkes Mathis,Temple,99.52,219.99,129.27,240.4,589.67,Single-ply,SBD,M
Boys,99.79,2,Josh Owens,Waco,91.35,210.92,127.01,210.92,548.85,Single-ply,SBD,M
Boys,109.77,3,Xavier Bryant,Temple,99.88,210.92,124.74,210.92,546.58,Single-ply,SBD,M
Boys,99.79,4,David Lopez,Temple,95.98,204.12,131.54,199.58,535.24,Single-ply,SBD,M
Boys,109.77,5,Quinton Manor,Belton,99.97,181.44,120.2,181.44,483.08,Single-ply,SBD,M
Boys,99.79,6,Derrick Moore,Waco,99.25,183.7,106.59,181.44,471.74,Single-ply,SBD,M
Boys,99.79,DQ,James Judie,Temple,95.25,,,,,Single-ply,SBD,M
Boys,99.79,DQ,Kyle Webster,Copperas Cove,91.9,131.54,,,,Single-ply,SBD,M
Boys,99.79,DQ,Dylan Cooper,Copperas Cove,97.79,151.95,,,,Single-ply,SBD,M
Boys,99.79,DQ,Carreon Julian,Waco Midway,98.7,,,,,Single-ply,SBD,M
Boys,109.77,DQ,Josh Lyons,Copperas Cove,105.32,,,,,Single-ply,SBD,M
Boys,109.77,2,Koby Williams,Belton,108.32,208.65,111.13,208.65,528.44,Single-ply,SBD,M
Boys,109.77,3,Brandon Sullivan,Belton,104.14,188.24,113.4,190.51,492.15,Single-ply,SBD,M
Boys,109.77,4,Rodarius Birks,Belton,106.96,195.04,111.13,181.44,487.61,Single-ply,SBD,M
Boys,109.77,5,Brandon McGibney,Belton,104.42,181.44,113.4,174.63,469.47,Single-ply,SBD,M
Boys,109.77,DQ,Brent Marona,Copperas Cove,102.51,226.8,117.93,,,Single-ply,SBD,M
Boys,109.77,DQ,Seth Culp,Temple,100.06,,,,,Single-ply,SBD,M
Boys,109.77,DQ,Ray Jones,Copperas Cove,106.14,219.99,145.15,,,Single-ply,SBD,M
Boys,109.77,DQ,Greg Garrett,Waco Midway,108.23,272.16,,,,Single-ply,SBD,M
Boys,109.77,DQ,Nick Ladner,Waco Midway,107.95,,,,,Single-ply,SBD,M
Boys,124.74,1,Anthony Carvajal,Waco,118.3,244.94,117.93,215.46,578.33,Single-ply,SBD,M
Boys,124.74,2,Donshay Johnson,Temple,118.84,226.8,131.54,204.12,562.45,Single-ply,SBD,M
Boys,124.74,3,Rey Hernandez,Temple,123.69,213.19,131.54,204.12,548.85,Single-ply,SBD,M
Boys,124.74,4,Mj Morris,Waco Midway,120.11,210.92,120.2,183.7,514.83,Single-ply,SBD,M
Boys,124.74,5,Tanner Morgan,Temple,115.85,192.78,113.4,204.12,510.29,Single-ply,SBD,M
Boys,124.74,6,Jaquill Harden,Waco,119.39,138.35,108.86,181.44,428.64,Single-ply,SBD,M
Boys,124.74,DQ,Darius Joiner,Temple,120.2,210.92,136.08,190.51,,Single-ply,SBD,M
Boys,124.74,DQ,Timothy Wright,Waco Midway,119.02,,,,,Single-ply,SBD,M
Boys,124.74+,1,Nick Sunday,Waco,176.54,312.98,176.9,229.06,718.94,Single-ply,SBD,M
Boys,124.74+,2,Freddie Johnson,Temple,137.98,242.67,131.54,249.48,623.69,Single-ply,SBD,M
Boys,124.74+,3,Les Sakaria,Copperas Cove,134.44,,145.15,213.19,358.34,Single-ply,BD,M
Boys,124.74+,4,Karl Sakaria,Copperas Cove,151.68,219.99,122.47,204.12,546.58,Single-ply,SBD,M
Boys,124.74+,5,Noah Russell,Waco,153.68,183.7,124.74,174.63,483.08,Single-ply,SBD,M
Boys,124.74+,DQ,Dalton Hays,Waco Midway,127.55,188.24,,,,Single-ply,SBD,M
Boys,124.74+,DQ,Devontae Moore,Temple,136.71,272.16,151.95,,,Single-ply,SBD,M
