Place,Name,Division,Sex,BirthDate,BodyweightKg,WeightClassKg,Squat1Kg,Squat2Kg,Squat3Kg,Best3SquatKg,Bench1Kg,Bench2Kg,Bench3Kg,Best3BenchKg,Deadlift1Kg,Deadlift2Kg,Deadlift3Kg,Best3DeadliftKg,TotalKg,Event,Equipment
1,Ana Geitner,Masters 1,F,1967-03-07,42.2,47,102.5,-112.5,112.5,112.5,40,45,-47.5,45,135,145,-146,145,302.5,SBD,Single-ply
1,Catrin Resch,Masters 1,F,1965-01-08,49,52,115,127.5,-135,127.5,75,80,-84,80,120,135,-138,135,342.5,SBD,Single-ply
G,Mareen Schmeelke,Juniors,F,1991-04-08,53.9,57,107.5,115,120,120,60,65,67.5,67.5,120,135,-142.5,135,322.5,SBD,Single-ply
1,Kerstin Heß,Masters 1,F,1968-06-29,56.3,57,85,95,105,105,42.5,-47.5,-47.5,42.5,95,105,-115,105,252.5,SBD,Single-ply
1,Ingvild Bayer,Masters 2,F,1954-09-18,60.8,63,110,120,-125,120,-65,-75,75,75,140,150,160,160,355,SBD,Single-ply
1,Ines Naarmann,Masters 1,F,1968-04-23,61.3,63,100,-110,110,110,65,70,-75,70,120,-125,,120,300,SBD,Single-ply
1,Anita Thimm,Masters 3,F,1950-01-11,61.9,63,100,110,-112.5,110,60,65,67.5,67.5,130,140,-145.5,140,317.5,SBD,Single-ply
G,Claudia Gallin,Open,F,1984-08-06,62.9,63,140,145,150,150,90,95,-102.5,95,135,140,145,145,390,SBD,Single-ply
1,Katrin Schwarz,Masters 2,F,1962-11-28,65.8,72,60,70,80,80,45,50,55,55,100,110,120,120,255,SBD,Single-ply
1,Andrea Lange,Masters 1,F,1965-04-06,68.7,72,140,145,-150,145,110,-112.5,115,115,140,150,160,160,420,SBD,Single-ply
2,Sybille Hampel,Masters 1,F,1967-08-26,71.3,72,140,150,-160,150,77.5,80,-82.5,80,140,150,-155,150,380,SBD,Single-ply
1,Susanne Steidle,Masters 1,F,1964-05-30,76,84,155,165,-172.5,165,90,95,100,100,160,170,175,175,440,SBD,Single-ply
2,Maria Walter,Masters 1,F,1964-03-09,80.8,84,105,112.5,120,120,70,75,-80,75,115,125,-132.5,125,320,SBD,Single-ply
1,Sylvia Wunderlich,Masters 1,F,1965-09-10,85.4,84+,125,135,140,140,85,90,95,95,145,155,-160,155,390,SBD,Single-ply
2,Carola Graul,Masters 1,F,1969-09-10,85.9,84+,70,77.5,82.5,82.5,95,102.5,107.5,107.5,105,115,-122.5,115,305,SBD,Single-ply
1,Ludwig Werner,Masters 4,M,,58.6,59,-100,100,-105,100,75,-80,-80,75,110,120,130,130,305,SBD,Single-ply
DQ,Joachim Lietzau,Masters 3,M,,63.1,66,137.5,-145,-150,137.5,-137.5,-140.5,-140.5,,130,140,,140,,SBD,Single-ply
1,Henrik Rilke,Masters 1,M,1970-07-06,65.6,66,225,-232.5,-232.5,225,140,-145,145,145,215,222.5,-230,222.5,592.5,SBD,Single-ply
1,Deszö Szloboda,Masters 4,M,1937-03-12,65.6,66,160,-170,-175,160,-50,50,,50,170,180,-185,180,390,SBD,Single-ply
1,Karsten Gelhar,Masters 2,M,1957-11-26,65.8,66,175,185,190,190,137.5,147.5,-150,147.5,170,180,,180,517.5,SBD,Single-ply
2,Alexander Diepold,Masters 4,M,1937-10-07,66.3,74,130,140,145,145,105,110,-112.5,110,135,145,152.5,152.5,407.5,SBD,Single-ply
1,Jörg Panitzsch,Masters 2,M,1954-02-02,71.7,74,-180,180,-185,180,105,-110,112.5,112.5,182.5,190,-195,190,482.5,SBD,Single-ply
1,Horst Echtner,Masters 3,M,1952-02-05,73,74,160,-165,170,170,110,120,130,130,200,-210,-210,200,500,SBD,Single-ply
2,Frank Schönnerstedt,Masters 1,M,1966-09-19,73.2,74,205,-212.5,-212.5,205,-97.5,-97.5,97.5,97.5,190,202.5,212.5,212.5,515,SBD,Single-ply
2,Burkhard Steffen,Masters 3,M,1950-05-29,73.2,74,180,190,200,200,110,115,-120,115,150,155,-160,155,470,SBD,Single-ply
DQ,Wolfgang Köster,Masters 3,M,1950-07-27,73.3,74,-150,-160,-162.5,,,,,,,,,,,SBD,Single-ply
1,Jörg Müller,Masters 1,M,1966-11-17,73.6,74,200,215,-230,215,120,-125,-125,120,230,240,250,250,585,SBD,Single-ply
1,Wilfried Häusler,Masters 4,M,1942-07-03,73.9,74,160,170,-180,170,95,105,-107.5,105,170,180,-185,180,455,SBD,Single-ply
1,Ulrich Mielich,Masters 4,M,1939-11-25,74.2,83,70,82.5,90,90,-60,65,-67.5,65,-110,115,125,125,280,SBD,Single-ply
1,Thomas Möller,Masters 2,M,,75,83,200,-210,-210,200,120,125,127.5,127.5,220,225,-227.5,225,552.5,SBD,Single-ply
3,János Geerhardt,Masters 1,M,1967-08-15,75.4,83,175,-185,195,195,-115,115,,115,220,235,-240,235,545,SBD,Single-ply
2,Gerd Meyerhofer,Masters 4,M,1938-03-29,75.6,83,65,70,75,75,60,65,-67.5,65,105,115,120,120,260,SBD,Single-ply
1,Rainer Schötz,Masters 3,M,1943-03-30,80.7,83,205,-220,-220,205,130,145,148,148,210,-220,225,225,578,SBD,Single-ply
3,Detlef Krüger,Masters 2,M,1953-12-29,81.3,83,-145,-145,145,145,-120,-125,125,125,155,160,-162.5,160,430,SBD,Single-ply
2,Norbert Bösch,Masters 2,M,1957-08-10,81.6,83,170,182.5,192.5,192.5,110,122.5,132.5,132.5,180,200,-230,200,525,SBD,Single-ply
2,Ingo Woschny,Masters 1,M,1965-05-26,82.1,83,190,200,210,210,165,170,175,175,180,195,205,205,590,SBD,Single-ply
G,Francesco Virzi,Open,M,1983-07-25,82.2,83,225,237.5,245,245,-150,157.5,-162.5,157.5,-242.5,242.5,,242.5,645,SBD,Single-ply
2,Günter Lüdecke,Masters 3,M,1949-06-21,82.2,83,-200,205,-215,205,140,-145,-145,140,200,215,-230.5,215,560,SBD,Single-ply
1,Matthias Siegle,Masters 1,M,1963-07-11,82.5,83,235,255,265,265,-147.5,150,-160,150,230,-250,,230,645,SBD,Single-ply
1,Lutz Schuricht,Masters 3,M,1951-09-01,83.7,93,195,205,215,215,-150,150,-160,150,200,210,217.5,217.5,582.5,SBD,Single-ply
2,Wolf-Peter Springstein,Masters 3,M,1951-05-20,85.5,93,185,200,-210,200,-155,155,-162.5,155,200,210,-230,210,565,SBD,Single-ply
2,Henryk Sulik,Masters 2,M,1959-05-08,89.8,93,-240,250,,250,160,-165,165,165,230,240,,240,655,SBD,Single-ply
3,Thomas Ranft,Masters 1,M,1968-02-22,90.8,93,220,240,260,260,177.5,185,-190,185,225,235,-242.5,235,680,SBD,Single-ply
6,Michael Kürbis,Masters 2,M,1958-05-23,90.9,93,-190,190,-215,190,135,-142.5,145,145,185,202.5,207.5,207.5,542.5,SBD,Single-ply
4,Wolfgang Weidemeier,Masters 2,M,1953-11-30,91.2,93,-215,215,230,230,120,130,-132.5,130,225,240,-247.5,240,600,SBD,Single-ply
3,Klaus-Dieter Jacob,Masters 2,M,1961-10-21,91.3,93,-230,240,-290,240,-210,210,-220,210,180,-200,,180,630,SBD,Single-ply
7,Hennry Trost,Masters 2,M,1954-08-20,91.3,93,-180,180,190,190,125,-130,-130,125,200,210,-230,210,525,SBD,Single-ply
5,Diethard Lang,Masters 2,M,1961-04-09,92.3,93,200,220,225,225,-160,165,170,170,190,205,-215,205,600,SBD,Single-ply
1,Peer Hänsicke,Masters 2,M,1961-10-02,92.8,93,275,290,,290,-220,220,-225,220,220,240,-245,240,750,SBD,Single-ply
1,Mario Schnurr,Masters 1,M,1966-07-28,92.9,93,300,315,,315,185,192.5,-200,192.5,280,295,-310,295,802.5,SBD,Single-ply
2,Uwe Hering,Masters 1,M,1963-12-18,93,93,230,235,-240,235,207.5,-212.5,220,220,240,250,260,260,715,SBD,Single-ply
1,Lothar Bohrisch,Masters 3,M,1944-06-07,95.7,105,-160,-170,170,170,125,-132.5,-132.5,125,190,205,-212.5,205,500,SBD,Single-ply
3,Frank Schulze,Masters 2,M,1961-10-01,97.7,105,210,220,-225,220,-185,185,-200,185,225,235,-242.5,235,640,SBD,Single-ply
5,Pierre Wurch,Masters 1,M,1969-06-17,100.3,105,250,-265,-265,250,185,-195,-205,185,260,-285,-285,260,695,SBD,Single-ply
6,Thomas Lange,Masters 1,M,1967-08-19,100.6,105,160,167.5,172.5,172.5,137.5,145,150,150,150,165,172.5,172.5,495,SBD,Single-ply
3,Matthias Simpig,Masters 1,M,1972-03-14,102.1,105,290,310,325.5,325.5,175,185,-190,185,250,270,-285,270,780.5,SBD,Single-ply
1,Klaus Feldmann,Masters 4,M,1936-12-16,103,105,105,-110,110,110,117.5,122.5,125,125,150,-160,,150,385,SBD,Single-ply
4,Thomas Ziegler,Masters 1,M,1967-08-01,103.3,105,250,-262.5,-265,250,-190,-190,190,190,245,252.5,257.5,257.5,697.5,SBD,Single-ply
2,Reiner Heinrich,Masters 1,M,1971-02-26,103.4,105,260,285,295,295,140,-190,190,190,280,297.5,-307.5,297.5,782.5,SBD,Single-ply
1,Reinhard Melzig,Masters 2,M,1955-11-09,103.4,105,-260,-260,275,275,145,175,-185,175,280,300,,300,750,SBD,Single-ply
2,Volker Dell,Masters 2,M,1957-03-07,104.1,105,270,300,310,310,150,157.5,160,160,230,250,-255,250,720,SBD,Single-ply
1,Sven Schäfer,Masters 1,M,1970-03-27,104.9,105,280,295,305,305,220,230,235.5,235.5,245,260,270,270,810.5,SBD,Single-ply
2,Klaus Cech,Masters 2,M,1960-09-27,105.1,120,150,160,170,170,70,75,80,80,150,160,170,170,420,SBD,Single-ply
DQ,Jens Christalle,Masters 1,M,1970-05-22,108.3,120,280,290,300,300,-270,-270,-270,,,,,,,SBD,Single-ply
2,Xaver Kennerknecht,Masters 3,M,1946-11-19,109.2,120,190,-200,200,200,95,102.5,107.5,107.5,210,230,-245,230,537.5,SBD,Single-ply
1,Hans-Peter Falk,Masters 3,M,1951-12-10,111.3,120,220,230,-245,230,210,215.5,218,218,210,225,-230,225,673,SBD,Single-ply
2,Carsten Stornfels,Masters 1,M,1970-07-04,113.3,120,280,300,310,310,-175,175,-180,175,240,270,280,280,765,SBD,Single-ply
DQ,Krystian Slosarek,Masters 2,M,1958-09-16,115.6,120,245,-260,-265,245,-190,-190,-190,,,,,,,SBD,Single-ply
1,Bernd Helfenbein,Masters 2,M,1955-01-27,116,120,220,-235,,220,180,-187.5,-187.5,180,180,200,210,210,610,SBD,Single-ply
1,Eberhard Kliesch,Masters 4,M,1940-12-15,117.5,120,110,130,140,140,90,100,110,110,150,170,180,180,430,SBD,Single-ply
1,Reiko Kruse,Masters 1,M,1972-09-25,118.7,120,300,320,335,335,210,-222.5,225,225,240,255,,255,815,SBD,Single-ply
1,Lutz Stoppa,Masters 2,M,1961-03-04,124.9,120+,180,190,200,200,182.5,192.5,200,200,180,190,200,200,600,SBD,Single-ply
G,Stefan Pielorz,Open,M,1974-07-11,132.7,120+,280,295,305,305,190,200,210,210,280,295,-307.5,295,810,SBD,Single-ply
1,Kay Haasler,Masters 1,M,1971-06-04,143.3,120+,-320,-320,335,335,220,227.5,235,235,280,295,-307.5,295,865,SBD,Single-ply
G,Jewgenij Kondraschow,Open,M,1983-02-23,143.4,120+,335,350,,350,235,245,,245,275,305,,305,900,SBD,Single-ply
2,Andreas Blank,Masters 1,M,1972-08-06,147.3,120+,300,327.5,-340,327.5,210,222.5,-227.5,222.5,270,295,-310,295,845,SBD,Single-ply
