Name,Age,Sex,State,BodyweightKg,WeightClassKg,Division,Event,Equipment,Squat1Kg,Squat2Kg,Squat3Kg,Squat4Kg,Best3SquatKg,Bench1Kg,Bench2Kg,Bench3Kg,Bench4Kg,Best3BenchKg,Deadlift1Kg,Deadlift2Kg,Deadlift3Kg,Deadlift4Kg,Best3DeadliftKg,TotalKg,Place
Alex Dincau,26,M,AR,74.93,75,Open,SBD,Raw,156.49,-170.1,170.1,,170.1,99.79,104.33,108.86,,108.86,222.26,235.87,-240.4,,235.87,514.83,1
Alley Key,15,F,OK,60.96,67.5,Teenage 13-15,SBD,Wraps,74.84,106.59,113.4,,113.4,43.09,54.43,56.7,61.23,56.7,102.06,122.47,-124.74,,122.47,292.57,1
Bethany Christensen,30,F,MO,79.74,82.5,Open,SBD,Wraps,122.47,129.27,-136.08,,129.27,74.84,-79.38,79.38,,79.38,124.74,142.88,-154.22,,142.88,351.53,1
Chris Christensen,33,M,MO,109.59,110,Open,SBD,Wraps,254.01,-274.42,-274.42,,254.01,165.56,176.9,183.7,,183.7,254.01,274.42,281.23,,281.23,718.94,3
Christine Caswell,24,F,AR,69.76,75,Open,SBD,Wraps,124.74,129.27,136.08,,136.08,81.65,88.45,92.99,,92.99,124.74,136.08,145.15,,145.15,374.21,1
Cristian Valdez,23,M,AR,80.47,82.5,Juniors,SBD,Raw,147.42,163.29,-174.63,,163.29,115.67,124.74,-131.54,,124.74,195.04,-204.12,-204.12,,195.04,483.08,1
Dany Garcia,22,F,AR,52.8,56,Juniors,SBD,Raw,79.38,88.45,-92.99,,88.45,56.7,61.23,-65.77,,61.23,113.4,122.47,129.27,,129.27,278.96,1
Emsy Clark,37,M,OK,122.56,125,Submasters,SBD,Multi-ply,-362.87,-396.89,410.5,,410.5,-226.8,-238.14,238.14,,238.14,310.71,328.85,340.19,,340.19,988.83,1
Gavin James,14,M,OK,109.41,110,Teenage 13-15,SBD,Wraps,99.79,104.33,108.86,,108.86,79.38,88.45,92.99,-97.52,92.99,117.93,136.08,-140.61,,136.08,337.93,1
James Blankenship,57,M,AR,93.98,100,Masters 55-59,SBD,Raw,-124.74,124.74,-142.88,,124.74,102.06,115.67,-124.74,,115.67,165.56,183.7,-190.51,,183.7,424.11,1
Jaydynn Walden,16,F,OK,67.22,67.5,Teenage 16-17,SBD,Wraps,-111.13,120.2,138.35,142.88,138.35,43.09,54.43,-58.97,,54.43,106.59,-127.01,138.35,-140.61,138.35,331.12,1
Jimmy Joice,41,M,OK,104.42,110,Masters 40-44,SBD,Single-ply,278.96,290.3,-301.64,,290.3,213.19,222.26,229.06,,229.06,265.35,278.96,292.57,,292.57,811.93,1
Kai Caswell,27,M,AR,106.41,110,Open,SBD,Wraps,294.84,301.64,306.17,,306.17,204.12,213.19,217.72,,217.72,306.17,319.78,-324.32,,319.78,843.68,2
Kalen Thorn,31,M,AR,109.77,110,Open,SBD,Wraps,215.46,226.8,-235.87,,226.8,142.88,151.95,154.22,,154.22,226.8,249.48,258.55,,258.55,639.57,4
Laura Hartley,32,F,AR,52.8,56,Open,SBD,Raw,106.59,-113.4,-113.4,,106.59,63.5,68.04,-70.31,,68.04,147.42,154.22,161.03,,161.03,335.66,1
Logan Chapman,23,M,AR,149.87,140+,Juniors,SBD,Wraps,390.09,417.3,428.64,,428.64,213.19,233.6,242.67,,242.67,340.19,365.14,-371.95,,365.14,1036.46,1
Matt Harper,34,M,AR,103.69,110,Open,SBD,Raw,179.17,204.12,215.46,,215.46,122.47,131.54,-136.08,,131.54,231.33,244.94,-258.55,,244.94,591.94,1
Mike Saravane,34,M,AR,149.78,140+,Open,SBD,Wraps,276.69,-285.76,285.76,,285.76,183.7,-192.78,-192.78,,183.7,251.74,-260.82,-260.82,,251.74,721.21,1
Nicholas Brooks,21,M,AR,81.47,82.5,Juniors,SBD,Wraps,240.4,256.28,272.16,,272.16,138.35,149.69,154.22,,154.22,249.48,-276.69,-276.69,,249.48,675.85,1
Oscar Bell,18,M,OK,58.51,60,Teenage 18-19,SBD,Wraps,70.31,-77.11,79.38,,79.38,61.23,63.5,65.77,,65.77,92.99,104.33,117.93,,117.93,263.08,1
Paul Silva,47,M,AR,81.56,82.5,Masters 45-49,B,Raw,,,,,,-170.1,181.44,192.78,,192.78,,,,,,192.78,1
Rowan Mason,23,M,AR,131.72,140,Juniors,SBD,Wraps,-326.59,-326.59,-326.59,,,183.7,190.51,-197.31,,190.51,285.76,-294.84,-294.84,,285.76,,DQ
Sean Baker,48,M,AR,86.64,90,Masters 45-49,SBD,Multi-ply,290.3,308.44,317.51,,317.51,181.44,190.51,195.04,,195.04,-249.48,249.48,260.82,,260.82,773.37,1
Shaun Graza,17,M,OK,70.58,75,Teenage 16-17,SBD,Wraps,86.18,88.45,92.99,,92.99,63.5,70.31,-72.57,,70.31,104.33,120.2,131.54,138.35,131.54,294.84,1
Shawn Hendrix,38,M,AR,107.95,110,Submasters,SBD,Raw,219.99,-235.87,-235.87,,219.99,145.15,158.76,-165.56,,158.76,235.87,254.01,-263.08,,254.01,632.76,1
Shawn Vanderploeg,46,M,AR,116.39,118,Masters 45-49,SBD,Wraps,249.48,265.35,274.42,278.96,274.42,136.08,-145.15,149.69,,149.69,208.65,215.46,222.26,229.06,222.26,646.37,1
Thomas Blackwell,25,M,AR,120.56,125,Open,SBD,Wraps,281.23,-301.64,-301.64,,281.23,165.56,170.1,-174.63,,170.1,272.16,288.03,-301.64,,288.03,739.36,1
Vlad Dimitrov,27,M,AR,116.98,118,Open,SBD,Raw,-138.35,138.35,149.69,,149.69,92.99,99.79,-104.33,,99.79,183.7,195.04,204.12,,204.12,453.59,1
Zackery Shoebottom,26,M,AR,106.14,110,Open,SBD,Wraps,-290.3,308.44,-335.66,,308.44,199.58,217.72,-226.8,,217.72,294.84,328.85,-337.93,,328.85,855.02,1
Zachery Roberts,20,M,AR,92.08,100,Juniors,SBD,Wraps,210.92,222.26,-233.6,,222.26,115.67,-122.47,122.47,,122.47,251.74,265.35,-278.96,,265.35,610.08,1
Kyle Hennington,32,M,AR,96.62,100,Open,SBD,Wraps,206.38,215.46,-231.33,,215.46,129.27,136.08,-140.61,,136.08,226.8,249.48,260.82,,260.82,612.35,1
Will Holdcraft,37,M,AR,116.75,118,Submasters,SBD,Raw,204.12,215.46,219.99,,219.99,158.76,170.1,181.44,,181.44,226.8,249.48,263.08,,263.08,664.51,1
Debra Hofer,36,F,OK,64.14,67.5,Open,B,Multi-ply,,,,,,111.13,122.47,-129.27,,122.47,,,,,,122.47,1
Debra Hofer,36,F,OK,64.14,67.5,Submasters,B,Multi-ply,,,,,,111.13,122.47,-129.27,,122.47,,,,,,122.47,1
