Division,WeightClassKg,Place,Name,Team,BodyweightKg,Best3SquatKg,Best3BenchKg,Best3DeadliftKg,TotalKg,Equipment,Event,Sex
Boys,51.71,1,Zack Miller,Ponder,50.89,106.59,52.16,117.93,276.69,Single-ply,SBD,M
Boys,55.79,2,Andrew Hernandez,Electra,51.94,102.06,52.16,111.13,265.35,Single-ply,SBD,M
Boys,55.79,3,Matt Nix,Wichita Falls Rider,51.94,92.99,54.43,111.13,258.55,Single-ply,SBD,M
Boys,55.79,1,Jd Franke,Henrietta,55.52,158.76,86.18,149.69,394.63,Single-ply,SBD,M
Boys,55.79,2,Emilio Carrizales,Iowa Park,53.25,127.01,81.65,154.22,362.87,Single-ply,SBD,M
Boys,55.79,3,Coleman Chance,Ponder,55.25,117.93,63.5,124.74,306.17,Single-ply,SBD,M
Boys,55.79,4,Perrin Hughes,Ponder,53.43,102.06,65.77,108.86,276.69,Single-ply,SBD,M
Boys,59.87,1,Alex Greene,Henrietta,58.97,165.56,92.99,156.49,415.04,Single-ply,SBD,M
Boys,59.87,2,Josh Wood,Iowa Park,58.24,147.42,90.72,154.22,392.36,Single-ply,SBD,M
Boys,59.87,3,Adam Byrd,Wichita Falls Rider,58.88,129.27,83.91,165.56,378.75,Single-ply,SBD,M
Boys,59.87,4,Brandon Gee,Ponder,58.97,142.88,83.91,151.95,378.75,Single-ply,SBD,M
Boys,67.13,5,David Burton,Wichita Falls Hirschi,60.06,133.81,74.84,161.03,369.68,Single-ply,SBD,M
Boys,59.87,6,Greg Mayo,Electra,58.6,120.2,61.23,170.1,351.53,Single-ply,SBD,M
Boys,59.87,7,Roque Rivas,Bowie,58.79,131.54,68.04,131.54,331.12,Single-ply,SBD,M
Boys,59.87,8,Kyle Carpenter,Wichita Falls Rider,58.6,120.2,74.84,129.27,324.32,Single-ply,SBD,M
Boys,59.87,9,Adam Kennedy,Ponder,59.87,86.18,49.9,117.93,254.01,Single-ply,SBD,M
Boys,67.13,1,Dalton Day,Henrietta,66.86,188.24,111.13,192.78,492.15,Single-ply,SBD,M
Boys,67.13,2,Brandon Sheppard,Wichita Falls Hirschi,66.04,195.04,92.99,195.04,483.08,Single-ply,SBD,M
Boys,67.13,3,Zach Remily,Bowie,62.14,195.04,111.13,170.1,476.27,Single-ply,SBD,M
Boys,67.13,4,Luke Hartman,Iowa Park,65.95,165.56,113.4,170.1,449.06,Single-ply,SBD,M
Boys,74.84,5,Domanic Thrasher,Wichita Falls Rider,67.36,161.03,106.59,156.49,424.11,Single-ply,SBD,M
Boys,67.13,6,Blaze Lynn,Electra,66.04,163.29,79.38,163.29,405.97,Single-ply,SBD,M
Boys,67.13,7,Jayson Alexander,Ponder,63.78,170.1,79.38,154.22,403.7,Single-ply,SBD,M
Boys,67.13,8,Jaeden Foxe,Wichita Falls,65.05,147.42,72.57,174.63,394.63,Single-ply,SBD,M
Boys,67.13,9,Tyral Colbert,Wichita Falls Hirschi,64.5,142.88,88.45,142.88,374.21,Single-ply,SBD,M
Boys,67.13,10,Ryan Hughes,Ponder,64.86,136.08,68.04,156.49,360.61,Single-ply,SBD,M
Boys,67.13,11,Lance Easter,Wichita Falls Hirschi,66.59,122.47,74.84,147.42,344.73,Single-ply,SBD,M
Boys,67.13,12,Adrian Sias,Wichita Falls Hirschi,64.05,106.59,65.77,117.93,290.3,Single-ply,SBD,M
Boys,67.13,DQ,Raymond Dizon,Wichita Falls Rider,63.14,,,,,Single-ply,SBD,M
Boys,67.13,DQ,Eli Hatfield,Electra,62.6,,,,,Single-ply,SBD,M
Boys,74.84,1,Colbey Watson,Iowa Park,74.39,208.65,113.4,204.12,526.17,Single-ply,SBD,M
Boys,74.84,2,Jamal Lewis,Wichita Falls Hirschi,68.31,210.92,99.79,206.38,517.1,Single-ply,SBD,M
Boys,74.84,3,Bobby Tatum,Wichita Falls,74.66,183.7,113.4,181.44,478.54,Single-ply,SBD,M
Boys,74.84,4,Taylor Littleton,Ponder,72.17,163.29,111.13,151.95,426.38,Single-ply,SBD,M
Boys,74.84,5,Larry Ash,Wichita Falls,73.48,151.95,102.06,151.95,405.97,Single-ply,SBD,M
Boys,74.84,6,Jeff Williams,Wichita Falls Rider,72.57,151.95,90.72,151.95,394.63,Single-ply,SBD,M
Boys,74.84,7,Nathan Whittington,Wichita Falls,73.84,147.42,83.91,149.69,381.02,Single-ply,SBD,M
Boys,74.84,8,Tj Ferryman,Ponder,69.67,149.69,77.11,149.69,376.48,Single-ply,SBD,M
Boys,74.84,9,Willie Haymon,Vernon,71.03,145.15,86.18,145.15,376.48,Single-ply,SBD,M
Boys,74.84,10,Dillon Welch,Ponder,72.48,136.08,83.91,140.61,360.61,Single-ply,SBD,M
Boys,74.84,11,Zac Peters,Wichita Falls,69.4,124.74,83.91,140.61,349.27,Single-ply,SBD,M
Boys,74.84,12,Eathen Horton,Wichita Falls Rider,74.84,124.74,74.84,149.69,349.27,Single-ply,SBD,M
Boys,82.1,13,Collin Joyce,Wichita Falls Hirschi,75.02,113.4,81.65,140.61,335.66,Single-ply,SBD,M
Boys,74.84,DQ,Logan Marchman,Ponder,69.58,192.78,,,,Single-ply,SBD,M
Boys,82.1,DQ,Sean Swarthout,Wichita Falls,75.07,151.95,,,,Single-ply,SBD,M
Boys,74.84,DQ,Dillon Stovall,Archer City,71.12,165.56,,,,Single-ply,SBD,M
Boys,82.1,1,Joaquin Alvarado,Fort Worth Trimble Tech,81.37,201.85,127.01,183.7,512.56,Single-ply,SBD,M
Boys,82.1,2,Cody Jones,Ponder,75.84,183.7,102.06,192.78,478.54,Single-ply,SBD,M
Boys,82.1,3,Wes Hastings,Archer City,78.02,165.56,108.86,181.44,455.86,Single-ply,SBD,M
Boys,82.1,4,Tyler Alaniz,Wichita Falls Rider,81.65,165.56,104.33,174.63,444.52,Single-ply,SBD,M
Boys,82.1,5,Kyle Patterson,Ponder,82.1,181.44,108.86,149.69,439.98,Single-ply,SBD,M
Boys,89.81,6,Colton Carnes,Archer City,82.28,179.17,102.06,149.69,430.91,Single-ply,SBD,M
Boys,89.81,7,Luke McCarthy,Wichita Falls,82.19,161.03,104.33,151.95,417.3,Single-ply,SBD,M
Boys,82.1,8,Antonio Nunez,Fort Worth Trimble Tech,76.84,145.15,97.52,158.76,401.43,Single-ply,SBD,M
Boys,82.1,DQ,Alex Davison,Wichita Falls Rider,82.01,163.29,,,,Single-ply,SBD,M
Boys,82.1,DQ,Stoney Newberry,Henrietta,80.01,43.09,127.01,,,Single-ply,SBD,M
Boys,82.1,DQ,Luis Torres,Fort Worth Trimble Tech,79.02,158.76,,,,Single-ply,SBD,M
Boys,89.81,1,Hunter Wood,Wichita Falls,86.73,249.48,151.95,215.46,616.89,Single-ply,SBD,M
Boys,89.81,2,Devin Edwards,Iowa Park,86.27,258.55,127.01,199.58,585.13,Single-ply,SBD,M
Boys,89.81,3,Eddie Speight,Wichita Falls Rider,84.32,188.24,108.86,199.58,496.68,Single-ply,SBD,M
Boys,89.81,4,Devon Rhodes,Fort Worth Trimble Tech,84.91,188.24,117.93,190.51,496.68,Single-ply,SBD,M
Boys,89.81,5,Beau Hudson,Vernon,83.23,158.76,138.35,188.24,485.34,Single-ply,SBD,M
Boys,89.81,6,Korey Wilburn,Wichita Falls Rider,83.01,170.1,102.06,181.44,453.59,Single-ply,SBD,M
Boys,89.81,7,Tim Brown,Wichita Falls Hirschi,84.82,158.76,79.38,158.76,396.89,Single-ply,SBD,M
Boys,89.81,8,Tanner Anderson,Vernon,85.37,142.88,81.65,142.88,367.41,Single-ply,SBD,M
Boys,99.79,9,Tyler Parrish,Electra,89.99,136.08,79.38,142.88,358.34,Single-ply,SBD,M
Boys,99.79,1,Kyler Koch,Iowa Park,93.08,226.8,129.27,204.12,560.19,Single-ply,SBD,M
Boys,109.77,2,Michael Harris,Fort Worth Trimble Tech,99.97,199.58,138.35,219.99,557.92,Single-ply,SBD,M
Boys,99.79,3,Joseph Costa,Henrietta,96.25,226.8,147.42,181.44,555.65,Single-ply,SBD,M
Boys,99.79,4,Tory Ferryman,Ponder,91.17,215.46,117.93,192.78,526.17,Single-ply,SBD,M
Boys,99.79,5,Garrett Moening,Electra,93.71,183.7,102.06,233.6,519.36,Single-ply,SBD,M
Boys,99.79,6,Braxton Watts,Wichita Falls,93.71,181.44,108.86,185.97,476.27,Single-ply,SBD,M
Boys,99.79,7,Keigan Hart,Wichita Falls Rider,99.79,161.03,83.91,176.9,421.84,Single-ply,SBD,M
Boys,99.79,DQ,Blake Campbell,Wichita Falls Rider,94.35,151.95,,,,Single-ply,SBD,M
Boys,99.79,NS,Tj May,Bowie,,,,,,Single-ply,SBD,M
Boys,109.77,1,Todd Jackson,Bowie,101.42,204.12,111.13,181.44,496.68,Single-ply,SBD,M
Boys,109.77,2,Kyron Christopher,Fort Worth Trimble Tech,105.69,183.7,106.59,170.1,460.4,Single-ply,SBD,M
Boys,109.77,3,Kye Esteves,Wichita Falls Rider,100.52,149.69,83.91,165.56,399.16,Single-ply,SBD,M
Boys,109.77,DQ,James Navarro,Wichita Falls Rider,102.33,188.24,,,,Single-ply,SBD,M
Boys,124.74,1,Tyler Ashman,Ponder,115.58,238.14,133.81,197.31,569.26,Single-ply,SBD,M
Boys,124.74,2,Kaleb Battista,Wichita Falls Rider,121.56,231.33,142.88,192.78,566.99,Single-ply,SBD,M
Boys,124.74,3,Quinten Phillips,Wichita Falls Rider,112.67,138.35,88.45,158.76,385.55,Single-ply,SBD,M
Boys,124.74,DQ,Aron Law,Fort Worth Trimble Tech,117.12,,,,,Single-ply,SBD,M
Boys,124.74,DQ,Hunter York,Archer City,114.94,140.61,,,,Single-ply,SBD,M
Boys,124.74+,1,Tyler Seale,Wichita Falls Rider,130.18,238.14,145.15,226.8,610.08,Single-ply,SBD,M
Boys,124.74+,2,Bradley Bendure,Bowie,128.37,254.01,129.27,197.31,580.6,Single-ply,SBD,M
Boys,124.74+,3,Steve Rivera,Fort Worth Trimble Tech,129.18,195.04,120.2,219.99,535.24,Single-ply,SBD,M
Boys,124.74+,4,Nick Ward,Iowa Park,148.42,215.46,124.74,183.7,523.9,Single-ply,SBD,M
Boys,124.74+,5,Clint High,Wichita Falls Rider,128.91,213.19,120.2,183.7,517.1,Single-ply,SBD,M
