Division,WeightClassKg,Place,Name,Team,BodyweightKg,Best3SquatKg,Best3BenchKg,Best3DeadliftKg,TotalKg,Equipment,Event,Sex
Boys,51.71,1,Rodney Barnes,Everman,51.03,172.37,79.38,172.37,424.11,Single-ply,SBD,M
Boys,51.71,2,Jason Nguyen,Oakridge School,49.9,140.61,72.57,145.15,358.34,Single-ply,SBD,M
Boys,51.71,3,Martin Lopez,Maypearl,51.26,136.08,68.04,136.08,340.19,Single-ply,SBD,M
Boys,51.71,4,Justin Lindsey,Kennedale,49.44,136.08,70.31,113.4,319.78,Single-ply,SBD,M
Boys,51.71,5,Javier Garcia,Lancaster,51.3,111.13,70.31,129.27,310.71,Single-ply,SBD,M
Boys,51.71,6,JaMarcus Davis,Kennedale,47.17,108.86,61.23,113.4,283.5,Single-ply,SBD,M
Boys,55.79,7,Gavin Sanchez,Hurst Bell,51.89,113.4,58.97,104.33,276.69,Single-ply,SBD,M
Boys,51.71,8,Ethan Ford,Burleson Centennial,50.67,99.79,52.16,120.2,272.16,Single-ply,SBD,M
Boys,51.71,9,Nick De Leon,Lake Worth,49.9,95.25,63.5,111.13,269.89,Single-ply,SBD,M
Boys,51.71,10,Arrington Holiday,Crowley,51.71,95.25,58.97,102.06,256.28,Single-ply,SBD,M
Boys,55.79,11,Cj Pinedo,Lake Worth,51.85,81.65,49.9,120.2,251.74,Single-ply,SBD,M
Boys,51.71,12,Sahir Alibhai,Oakridge School,47.17,86.18,56.7,104.33,247.21,Single-ply,SBD,M
Boys,55.79,13,Jeremy Hibler,Justin Northwest,51.8,81.65,49.9,97.52,229.06,Single-ply,SBD,M
Boys,51.71,14,Garrett McGuire,Cedar Hill,50.03,70.31,43.09,92.99,206.38,Single-ply,SBD,M
Boys,51.71,15,Kolton Ware,Gainesville,50.8,65.77,38.56,81.65,185.97,Single-ply,SBD,M
Boys,55.79,1,Armando Salinas,Chico,54.3,113.4,70.31,138.35,322.05,Single-ply,SBD,M
Boys,55.79,2,Daniel Salinas,Chico,53.07,117.93,65.77,136.08,319.78,Single-ply,SBD,M
Boys,55.79,3,Alejandro Cosio,Fort Worth North Side,52.21,113.4,63.5,127.01,303.91,Single-ply,SBD,M
Boys,55.79,4,Jacob Ochoa,Decatur,54.02,106.59,65.77,124.74,297.1,Single-ply,SBD,M
Boys,55.79,5,Dawson Thompson,Decatur,53.16,79.38,56.7,95.25,231.33,Single-ply,SBD,M
Boys,59.87,1,Ashton Williams,Everman,58.51,185.97,99.79,204.12,489.88,Single-ply,SBD,M
Boys,67.13,2,Shaifq Asmaty,Kennedale,60.06,204.12,108.86,174.63,487.61,Single-ply,SBD,M
Boys,59.87,3,Margarito Lozano,Everman,59.24,163.29,108.86,167.83,439.98,Single-ply,SBD,M
Boys,59.87,4,Christian Nedd,Cedar Hill,59.65,158.76,83.91,176.9,419.57,Single-ply,SBD,M
Boys,59.87,5,Austin Blalock,Burleson Centennial,58.74,147.42,95.25,174.63,417.3,Single-ply,SBD,M
Boys,59.87,6,Chris Hairston,Cedar Hill,59.6,142.88,83.91,172.37,399.16,Single-ply,SBD,M
Boys,59.87,7,Malik Barenes,Arlington Seguin,58.47,147.42,74.84,161.03,383.29,Single-ply,SBD,M
Boys,59.87,8,Alex Samano,Decatur,56.7,138.35,65.77,163.29,367.41,Single-ply,SBD,M
Boys,59.87,9,Zamir Upsher,Keller Timber Creek,59.15,138.35,74.84,149.69,362.87,Single-ply,SBD,M
Boys,59.87,10,Issiah Meening,Chico,59.65,136.08,83.91,124.74,344.73,Single-ply,SBD,M
Boys,59.87,11,Brady North,Chico,59.69,124.74,72.57,138.35,335.66,Single-ply,SBD,M
Boys,59.87,12,Daniel Rodriguez,Fort Worth Paschal,58.97,124.74,68.04,129.27,322.05,Single-ply,SBD,M
Boys,59.87,13,Michael Brown,Lancaster,57.74,122.47,68.04,124.74,315.25,Single-ply,SBD,M
Boys,59.87,14,Jesus Gam,Decatur,56.65,111.13,70.31,124.74,306.17,Single-ply,SBD,M
Boys,59.87,15,Cesar Saucedo,Gainesville,58.51,120.2,52.16,106.59,278.96,Single-ply,SBD,M
Boys,59.87,16,Talon Sanders,Lake Worth,59.87,92.99,58.97,113.4,265.35,Single-ply,SBD,M
Boys,59.87,17,Alex Gutieerez,Keller Fossil Ridge,58.15,102.06,56.7,90.72,249.48,Single-ply,SBD,M
Boys,59.87,18,Kyle Parks,Fort Worth Western Hills,57.15,86.18,47.63,99.79,233.6,Single-ply,SBD,M
Boys,59.87,DQ,Shang Bou,Fort Worth Paschal,58.06,161.03,,,,Single-ply,SBD,M
Boys,67.13,DQ,Cristian Martinez,Bowie,59.96,142.88,,,,Single-ply,SBD,M
Boys,74.84,1,Kenny Stafford,Everman,67.31,235.87,122.47,217.72,576.06,Single-ply,SBD,M
Boys,67.13,2,Chandler Scott,Everman,60.78,183.7,83.91,188.24,455.86,Single-ply,SBD,M
Boys,67.13,3,Jeffrey Gage,Keller Timber Creek,65.05,158.76,106.59,190.51,455.86,Single-ply,SBD,M
Boys,67.13,4,Marcos Morales,Decatur,66.5,158.76,111.13,181.44,451.32,Single-ply,SBD,M
Boys,67.13,5,Darnell Smith,Hurst Bell,66.72,181.44,97.52,170.1,449.06,Single-ply,SBD,M
Boys,67.13,6,Jayvier Rigmaiden,Burleson Centennial,62.51,172.37,92.99,174.63,439.98,Single-ply,SBD,M
Boys,67.13,7,Alwin Crawford,Northwest Nelson,65.73,167.83,99.79,170.1,437.72,Single-ply,SBD,M
Boys,67.13,8,Casin Santillo,Hurst Bell,66.22,154.22,99.79,181.44,435.45,Single-ply,SBD,M
Boys,67.13,9,Blake Echols,Oakridge School,65.91,151.95,90.72,174.63,417.3,Single-ply,SBD,M
Boys,74.84,10,Creese Redman,Chico,67.27,181.44,81.65,147.42,410.5,Single-ply,SBD,M
Boys,67.13,11,Joseph Musgrove,Justin Northwest,62.6,131.54,106.59,165.56,403.7,Single-ply,SBD,M
Boys,74.84,12,Berrick McBath,Everman,67.22,145.15,83.91,174.63,403.7,Single-ply,SBD,M
Boys,67.13,13,Kamion Bell,Fort Worth Western Hills,67.13,142.88,81.65,170.1,394.63,Single-ply,SBD,M
Boys,67.13,14,Brandon Garza,Decatur,64.91,140.61,88.45,161.03,390.09,Single-ply,SBD,M
Boys,67.13,15,Devon Wilkerson,Fort Worth Western Hills,64.86,136.08,70.31,179.17,385.55,Single-ply,SBD,M
Boys,74.84,16,Trey Sowell,Oakridge School,67.27,145.15,83.91,151.95,381.02,Single-ply,SBD,M
Boys,67.13,17,Andrew Fails,Bowie,64.18,142.88,88.45,142.88,374.21,Single-ply,SBD,M
Boys,67.13,18,Daniel Owoyle,Arlington Seguin,62.01,145.15,77.11,147.42,369.68,Single-ply,SBD,M
Boys,67.13,19,AJ Garcia,Kennedale,63.5,131.54,81.65,154.22,367.41,Single-ply,SBD,M
Boys,67.13,20,Kalen Johnson,Chico,65.5,124.74,83.91,145.15,353.8,Single-ply,SBD,M
Boys,67.13,21,Yadiel Rios,Crowley,64.41,95.25,70.31,124.74,290.3,Single-ply,SBD,M
Boys,67.13,22,Frank Williams,Chico,60.28,102.06,56.7,122.47,281.23,Single-ply,SBD,M
Boys,67.13,23,Sam Mitchell,Oakridge School,63,90.72,58.97,104.33,254.01,Single-ply,SBD,M
Boys,74.84,DQ,Sebastian Revilla,Everman,67.31,,,,,Single-ply,SBD,M
Boys,67.13,DQ,Bryce Merriman,Lake Worth,66.13,136.08,,,,Single-ply,SBD,M
Boys,74.84,1,Jarod Hill,Everman,72.12,235.87,136.08,238.14,610.08,Single-ply,SBD,M
Boys,74.84,2,Chris Vega,Fort Worth North Side,72.71,201.85,142.88,226.8,571.53,Single-ply,SBD,M
Boys,74.84,3,Kyle Goss,Cedar Hill,70.9,215.46,117.93,226.8,560.19,Single-ply,SBD,M
Boys,74.84,4,Abraham Landaverde,Bowie,68.58,199.58,117.93,176.9,494.42,Single-ply,SBD,M
Boys,74.84,5,Joey Rasor,Keller Fossil Ridge,74.84,170.1,127.01,181.44,478.54,Single-ply,SBD,M
Boys,74.84,6,Chad Layton,Decatur,71.4,163.29,111.13,179.17,453.59,Single-ply,SBD,M
Boys,74.84,7,Tres Cox,Northwest Nelson,68.54,174.63,113.4,163.29,451.32,Single-ply,SBD,M
Boys,74.84,8,Bryan Latigo,Fort Worth Western Hills,69.85,158.76,92.99,197.31,449.06,Single-ply,SBD,M
Boys,74.84,9,Logan Jordan,Fort Worth Western Hills,72.12,151.95,122.47,167.83,442.25,Single-ply,SBD,M
Boys,74.84,10,Hearrell Zack,Keller,71.71,158.76,90.72,183.7,433.18,Single-ply,SBD,M
Boys,74.84,11,Dennis Ralon,Lake Worth,72.3,156.49,102.06,172.37,430.91,Single-ply,SBD,M
Boys,74.84,12,Preston Johnson,Hurst Bell,74.53,151.95,88.45,188.24,428.64,Single-ply,SBD,M
Boys,74.84,13,Jonathan Carrillo,Fort Worth Paschal,71.49,142.88,111.13,161.03,415.04,Single-ply,SBD,M
Boys,74.84,14,Hutchin Land,Keller,73.44,147.42,113.4,151.95,412.77,Single-ply,SBD,M
Boys,74.84,15,Richie Dubose,Maypearl,73.03,122.47,97.52,181.44,401.43,Single-ply,SBD,M
Boys,74.84,16,Issac Fuentes,Everman,73.07,142.88,70.31,167.83,381.02,Single-ply,SBD,M
Boys,74.84,17,Kaden Anderson,Keller Fossil Ridge,73.44,127.01,88.45,161.03,376.48,Single-ply,SBD,M
Boys,82.1,18,Cameron Jennings,Keller Fossil Ridge,75.02,142.88,90.72,142.88,376.48,Single-ply,SBD,M
Boys,74.84,19,Frank Varela,Lake Worth,71.67,133.81,99.79,136.08,369.68,Single-ply,SBD,M
Boys,74.84,20,Justice Hudley,Arlington Seguin,68.04,142.88,77.11,145.15,365.14,Single-ply,SBD,M
Boys,74.84,21,Alex Diaz #3,Oakridge School,73.94,136.08,72.57,140.61,349.27,Single-ply,SBD,M
Boys,74.84,22,Cade Wooten,Oakridge School,70.17,115.67,68.04,149.69,333.39,Single-ply,SBD,M
Boys,74.84,23,Didier Chavez,Fort Worth North Side,68.81,113.4,81.65,117.93,312.98,Single-ply,SBD,M
Boys,74.84,24,Lee Gaines,Oakridge School,71.21,106.59,47.63,136.08,290.3,Single-ply,SBD,M
Boys,74.84,DQ,Ty Stewart,Lake Worth,73.48,149.69,,,,Single-ply,SBD,M
Boys,82.1,1,Leo Brooks,Kennedale,82.1,226.8,156.49,222.26,605.55,Single-ply,SBD,M
Boys,82.1,2,Jesus Padilla,Fort Worth North Side,80.47,215.46,149.69,226.8,591.94,Single-ply,SBD,M
Boys,82.1,3,Chanse Alexander,Oakridge School,78.38,229.06,115.67,244.94,589.67,Single-ply,SBD,M
Boys,82.1,4,Michael Tsapos,Northwest Nelson,80.74,235.87,136.08,201.85,573.79,Single-ply,SBD,M
Boys,82.1,5,Jacob Parker,Justin Northwest,81.24,206.38,115.67,217.72,539.77,Single-ply,SBD,M
Boys,82.1,6,Nathan Ferguson,Burleson Centennial,79.92,190.51,113.4,208.65,512.56,Single-ply,SBD,M
Boys,82.1,7,Cardea Cauley,Everman,81.15,192.78,113.4,204.12,510.29,Single-ply,SBD,M
Boys,82.1,8,Darryl Pinkston,Everman,76.7,197.31,108.86,192.78,498.95,Single-ply,SBD,M
Boys,82.1,9,Jaylon Parmes,Everman,80.56,195.04,95.25,195.04,485.34,Single-ply,SBD,M
Boys,82.1,10,Joe Narmah,Hurst Bell,81.78,181.44,99.79,201.85,483.08,Single-ply,SBD,M
Boys,82.1,11,Bailey Gregory,Hurst Bell,80.33,165.56,122.47,176.9,464.93,Single-ply,SBD,M
Boys,89.81,12,Moses Folerac,Arlington Seguin,82.33,158.76,95.25,208.65,462.66,Single-ply,SBD,M
Boys,82.1,13,Kameron Milton,Lake Worth,76.2,163.29,104.33,172.37,439.98,Single-ply,SBD,M
Boys,82.1,14,Williams Cameron,Keller,77.43,158.76,97.52,176.9,433.18,Single-ply,SBD,M
Boys,82.1,15,Andrew Alegria,Lake Worth,78.02,158.76,99.79,167.83,426.38,Single-ply,SBD,M
Boys,82.1,16,Khaemon Edwards,Everman,78.02,158.76,102.06,165.56,426.38,Single-ply,SBD,M
Boys,82.1,17,Taylor Hood,Chico,80.88,181.44,104.33,136.08,421.84,Single-ply,SBD,M
Boys,82.1,18,Edgar Ramirez,Gainesville,79.38,183.7,83.91,151.95,419.57,Single-ply,SBD,M
Boys,82.1,19,Tanner Oliver,Keller Timber Creek,80.29,131.54,90.72,181.44,403.7,Single-ply,SBD,M
Boys,82.1,20,Nelson Nguyen,Hurst Bell,76.48,140.61,83.91,174.63,399.16,Single-ply,SBD,M
Boys,82.1,21,Daulton Riley,Maypearl,75.3,131.54,77.11,185.97,394.63,Single-ply,SBD,M
Boys,82.1,22,Adams Matthew,Keller,78.47,131.54,95.25,165.56,392.36,Single-ply,SBD,M
Boys,82.1,23,Eloi Bigirimana,Keller Timber Creek,79.29,138.35,92.99,151.95,383.29,Single-ply,SBD,M
Boys,82.1,24,Devonta Findley,Crowley,77.56,124.74,104.33,142.88,371.95,Single-ply,SBD,M
Boys,82.1,25,Austin Schaffer,Oakridge School,82.1,127.01,74.84,170.1,371.95,Single-ply,SBD,M
Boys,82.1,26,Kyle Turley,Crowley,81.65,124.74,92.99,142.88,360.61,Single-ply,SBD,M
Boys,89.81,27,Cody Armstrong,Chico,82.28,147.42,74.84,136.08,358.34,Single-ply,SBD,M
Boys,82.1,28,Colton Boyd,Justin Northwest,75.3,129.27,72.57,145.15,347,Single-ply,SBD,M
Boys,82.1,29,Dusavion McGowan,Fort Worth Western Hills,75.75,138.35,83.91,120.2,342.46,Single-ply,SBD,M
Boys,82.1,30,Andrew White,Oakridge School,79.79,117.93,70.31,140.61,328.85,Single-ply,SBD,M
Boys,82.1,31,Hunter Tole,Keller Timber Creek,78.93,131.54,70.31,120.2,322.05,Single-ply,SBD,M
Boys,82.1,32,Robert Rhodes,Gainesville,77.75,90.72,43.09,90.72,224.53,Single-ply,SBD,M
Boys,82.1,DQ,Tyler Thomison,Maypearl,82.1,,,,,Single-ply,SBD,M
Boys,82.1,DQ,Sir Charles Miles-Frost,Lancaster,78.02,,,,,Single-ply,SBD,M
Boys,82.1,DQ,Ahndre Hughes,Lancaster,77.56,,,,,Single-ply,SBD,M
Boys,82.1,DQ,Elton Anders,Maypearl,75.93,68.04,,,,Single-ply,SBD,M
Boys,82.1,DQ,Ryan Sterzenbach,Keller Timber Creek,81.19,,,,,Single-ply,SBD,M
Boys,82.1,DQ,Austin Penny,Justin Northwest,81.19,163.29,,,,Single-ply,SBD,M
Boys,82.1,DQ,Carlos Lopez,Fort Worth Paschal,76.2,,,,,Single-ply,SBD,M
Boys,82.1,DQ,Toryon Evans,Arlington Seguin,77.11,188.24,83.91,,,Single-ply,SBD,M
Boys,89.81,1,Doveon Dillard,Cedar Hill,88.45,263.08,154.22,226.8,644.1,Single-ply,SBD,M
Boys,89.81,2,Mason Ruzicka,Cedar Hill,88.9,217.72,115.67,217.72,551.11,Single-ply,SBD,M
Boys,89.81,3,Sal Lopez,Fort Worth Paschal,85.73,206.38,115.67,226.8,548.85,Single-ply,SBD,M
Boys,89.81,4,Duke Kicinski,Justin Northwest,87.32,192.78,111.13,229.06,532.97,Single-ply,SBD,M
Boys,89.81,5,Joel Kabongo,Northwest Nelson,82.55,188.24,115.67,226.8,530.7,Single-ply,SBD,M
Boys,89.81,6,Daniel Ambriz,Everman,88,215.46,127.01,181.44,523.9,Single-ply,SBD,M
Boys,89.81,7,Asher Gillaspie,Burleson Centennial,87.86,183.7,120.2,181.44,485.34,Single-ply,SBD,M
Boys,89.81,8,Austin Gibson,Northwest Nelson,85.28,192.78,117.93,172.37,483.08,Single-ply,SBD,M
Boys,89.81,9,Jeff Hill,Arlington Seguin,87.54,188.24,88.45,195.04,471.74,Single-ply,SBD,M
Boys,89.81,10,Ruben Hernandez,Gainesville,89.27,179.17,102.06,185.97,467.2,Single-ply,SBD,M
Boys,89.81,11,Christian Garcia,Fort Worth Western Hills,88,183.7,102.06,174.63,460.4,Single-ply,SBD,M
Boys,89.81,12,Shonne Smith,Arlington Seguin,85.28,197.31,90.72,170.1,458.13,Single-ply,SBD,M
Boys,89.81,13,Ross Penny,Justin Northwest,86.64,181.44,106.59,170.1,458.13,Single-ply,SBD,M
Boys,89.81,14,Jordon McClellan,Everman,88.63,163.29,102.06,176.9,442.25,Single-ply,SBD,M
Boys,89.81,15,Hunter Powell,Keller Timber Creek,83.91,172.37,102.06,165.56,439.98,Single-ply,SBD,M
Boys,89.81,16,Blake Smith,Justin Northwest,85.73,163.29,111.13,161.03,435.45,Single-ply,SBD,M
Boys,89.81,17,Davion Smith,Lancaster,83.51,138.35,113.4,170.1,421.84,Single-ply,SBD,M
Boys,89.81,18,Rehmet Ian,Keller,85.73,156.49,106.59,151.95,415.04,Single-ply,SBD,M
Boys,89.81,19,Anthony White,Gainesville,88,158.76,88.45,158.76,405.97,Single-ply,SBD,M
Boys,89.81,20,Robin Agir,Oakridge School,87.95,167.83,79.38,154.22,401.43,Single-ply,SBD,M
Boys,89.81,21,Tyler Alexander,Chico,88.31,165.56,74.84,156.49,396.89,Single-ply,SBD,M
Boys,89.81,22,Davion Jones,Keller Timber Creek,83.91,149.69,92.99,142.88,385.55,Single-ply,SBD,M
Boys,89.81,23,Matt Robertson,Maypearl,86.45,136.08,81.65,151.95,369.68,Single-ply,SBD,M
Boys,89.81,24,Gilberto Rivera,Gainesville,85.73,124.74,61.23,147.42,333.39,Single-ply,SBD,M
Boys,89.81,25,Nick Tran,Oakridge School,85.73,127.01,56.7,140.61,324.32,Single-ply,SBD,M
Boys,89.81,DQ,Shannon Simpson,Lancaster,83.91,,,,,Single-ply,SBD,M
Boys,89.81,DQ,Carlton Dirickson,Maypearl,85.68,,,,,Single-ply,SBD,M
Boys,99.79,1,Elliott Souter,Hurst Bell,90.49,235.87,145.15,251.74,632.76,Single-ply,SBD,M
Boys,99.79,2,Christian Hernandez,Everman,98.47,231.33,145.15,226.8,603.28,Single-ply,SBD,M
Boys,99.79,3,Chris Sandjo,Keller Timber Creek,92.53,210.92,133.81,229.06,573.79,Single-ply,SBD,M
Boys,99.79,4,Sid Irwin,Burleson Centennial,93.58,192.78,140.61,222.26,555.65,Single-ply,SBD,M
Boys,99.79,5,Tim Hutchins,Cedar Hill,91.63,219.99,117.93,215.46,553.38,Single-ply,SBD,M
Boys,99.79,6,Ian Masakini,Keller Timber Creek,92.08,215.46,127.01,192.78,535.24,Single-ply,SBD,M
Boys,99.79,7,Andrew Coon,Hurst Bell,98.66,204.12,131.54,185.97,521.63,Single-ply,SBD,M
Boys,99.79,8,Hampton Blake,Keller,95.48,183.7,120.2,204.12,508.02,Single-ply,SBD,M
Boys,99.79,9,Kyle Griffith,Northwest Nelson,96.62,183.7,111.13,204.12,498.95,Single-ply,SBD,M
Boys,99.79,10,Trevor Goree,Keller Timber Creek,91.58,174.63,113.4,208.65,496.68,Single-ply,SBD,M
Boys,99.79,11,Darrian Hammonds,Arlington Seguin,94.35,190.51,117.93,188.24,496.68,Single-ply,SBD,M
Boys,99.79,12,Noor Wafayee,Oakridge School,94.21,161.03,108.86,195.04,464.93,Single-ply,SBD,M
Boys,99.79,13,Rogelio Medina,Maypearl,97.16,190.51,95.25,163.29,449.06,Single-ply,SBD,M
Boys,99.79,14,Jonathan Casillas,Keller Timber Creek,90.54,167.83,106.59,170.1,444.52,Single-ply,SBD,M
Boys,99.79,15,Mike Galindo,Chico,96.66,170.1,102.06,170.1,442.25,Single-ply,SBD,M
Boys,99.79,16,Joseph Romans,Gainesville,99.79,156.49,106.59,165.56,428.64,Single-ply,SBD,M
Boys,99.79,17,Felipe Rodriguez,Arlington Seguin,90.72,170.1,72.57,170.1,412.77,Single-ply,SBD,M
Boys,99.79,18,Joseph Evans,Chico,91.63,145.15,95.25,158.76,399.16,Single-ply,SBD,M
Boys,99.79,19,Colby Richardson,Gainesville,95.25,149.69,90.72,158.76,399.16,Single-ply,SBD,M
Boys,99.79,20,Jake Leatherman,Fort Worth Western Hills,95.25,165.56,72.57,142.88,381.02,Single-ply,SBD,M
Boys,99.79,21,Carlos Zomoro,Fort Worth Western Hills,96.16,136.08,86.18,142.88,365.14,Single-ply,SBD,M
Boys,99.79,22,Ezekiel Veal,Everman,99.34,111.13,68.04,147.42,326.59,Single-ply,SBD,M
Boys,99.79,23,DeMonte Washington,Crowley,92.53,113.4,79.38,124.74,317.51,Single-ply,SBD,M
Boys,99.79,DQ,Berry Moore,Lancaster,92.99,,,,,Single-ply,SBD,M
Boys,99.79,DQ,Brian Monroy,Gainesville,91.17,156.49,,,,Single-ply,SBD,M
Boys,99.79,DQ,Miller Houston,Keller,95.71,183.7,,,,Single-ply,SBD,M
Boys,109.77,1,Pj Caparelli,Bowie,108.73,272.16,145.15,247.21,664.51,Single-ply,SBD,M
Boys,109.77,2,Chase Dennis,Keller Timber Creek,101.88,249.48,129.27,201.85,580.6,Single-ply,SBD,M
Boys,109.77,3,Dylan Hebert,Keller,101.33,197.31,147.42,226.8,571.53,Single-ply,SBD,M
Boys,109.77,4,Tc Quintana,Burleson Centennial,106.96,217.72,129.27,224.53,571.53,Single-ply,SBD,M
Boys,109.77,5,Alex Canales,Hurst Bell,109.09,208.65,154.22,201.85,564.72,Single-ply,SBD,M
Boys,109.77,6,Mathew-Sean Partridge,Fort Worth Western Hills,108.41,199.58,115.67,206.38,521.63,Single-ply,SBD,M
Boys,109.77,7,Graham Cowdrey,Decatur,107.86,204.12,131.54,181.44,517.1,Single-ply,SBD,M
Boys,109.77,8,Matthew Naugle,Kennedale,104.33,204.12,117.93,190.51,512.56,Single-ply,SBD,M
Boys,109.77,9,Javier Alva,Fort Worth North Side,105.78,204.12,102.06,192.78,498.95,Single-ply,SBD,M
Boys,109.77,10,Lawrence Bryce,Keller,100.47,188.24,129.27,176.9,494.42,Single-ply,SBD,M
Boys,109.77,11,Andres Garcia,Fort Worth Paschal,107.05,179.17,115.67,192.78,487.61,Single-ply,SBD,M
Boys,109.77,12,Malik Jamison,Kennedale,100.7,181.44,102.06,192.78,476.27,Single-ply,SBD,M
Boys,109.77,13,Tyler Scarborough,Burleson Centennial,109.09,170.1,102.06,190.51,462.66,Single-ply,SBD,M
Boys,109.77,14,Detayvin Love,Everman,104.37,165.56,124.74,165.56,455.86,Single-ply,SBD,M
Boys,109.77,15,Dayne Maclin,Justin Northwest,109.45,165.56,111.13,167.83,444.52,Single-ply,SBD,M
Boys,109.77,16,Trevor Brooks,Lancaster,103.92,142.88,120.2,167.83,430.91,Single-ply,SBD,M
Boys,109.77,17,Logan Sloniger,Northwest Nelson,101.42,147.42,102.06,154.22,403.7,Single-ply,SBD,M
Boys,109.77,18,Keshawn Griffen,Crowley,108.86,142.88,83.91,172.37,399.16,Single-ply,SBD,M
Boys,109.77,19,Luis Cortez,Crowley,100.7,147.42,117.93,115.67,381.02,Single-ply,SBD,M
Boys,109.77,20,Carlos Farias,Lake Worth,103.87,120.2,83.91,124.74,328.85,Single-ply,SBD,M
Boys,109.77,DQ,Rickey Roberts,Decatur,107.5,219.99,,,,Single-ply,SBD,M
Boys,124.74,1,Joe Gonzales,Justin Northwest,116.12,283.5,147.42,249.48,680.39,Single-ply,SBD,M
Boys,124.74,2,Colton Hostetler,Burleson Centennial,119.29,249.48,158.76,247.21,655.44,Single-ply,SBD,M
Boys,124.74,3,Nate Ward,Kennedale,122.47,267.62,161.03,226.8,655.44,Single-ply,SBD,M
Boys,124.74,4,Korlis Johnson,Cedar Hill,116.17,272.16,122.47,249.48,644.1,Single-ply,SBD,M
Boys,124.74,5,Ivan Garciduenas,Burleson Centennial,118.84,226.8,158.76,226.8,612.35,Single-ply,SBD,M
Boys,124.74,6,Isaiah Suazo,Burleson Centennial,112.49,222.26,124.74,226.8,573.79,Single-ply,SBD,M
Boys,124.74,7,Justin Self,Northwest Nelson,113.85,215.46,149.69,206.38,571.53,Single-ply,SBD,M
Boys,124.74,8,Randy Christian,Cedar Hill,113.4,208.65,133.81,226.8,569.26,Single-ply,SBD,M
Boys,124.74,9,Tj May,Bowie,114.94,215.46,140.61,195.04,551.11,Single-ply,SBD,M
Boys,124.74,10,Dakota Williams,Decatur,114.44,222.26,129.27,197.31,548.85,Single-ply,SBD,M
Boys,124.74,11,Tony Davila,Everman,111.81,206.38,129.27,190.51,526.17,Single-ply,SBD,M
Boys,124.74,12,Wesly Willis,Cedar Hill,115.21,210.92,117.93,188.24,517.1,Single-ply,SBD,M
Boys,124.74,13,Rodriquez Skylar,Keller,119.39,197.31,129.27,190.51,517.1,Single-ply,SBD,M
Boys,124.74,14,Eric Booker,Everman,122.97,204.12,120.2,181.44,505.76,Single-ply,SBD,M
Boys,124.74,15,Ben Anderson,Fort Worth Paschal,111.58,183.7,127.01,167.83,478.54,Single-ply,SBD,M
Boys,124.74,16,Asante Slater,Everman,123.06,170.1,106.59,192.78,469.47,Single-ply,SBD,M
Boys,124.74,17,Josh Gnat,Arlington Seguin,116.57,181.44,99.79,185.97,467.2,Single-ply,SBD,M
Boys,124.74,18,Drake Hendryx,Maypearl,119.66,158.76,113.4,195.04,467.2,Single-ply,SBD,M
Boys,124.74,19,Dylan Burns,Everman,112.72,170.1,111.13,158.76,439.98,Single-ply,SBD,M
Boys,124.74,20,George Roam,Everman,113.44,154.22,92.99,181.44,428.64,Single-ply,SBD,M
Boys,124.74,21,Tim Runnells,Fort Worth Western Hills,124.74,102.06,61.23,156.49,319.78,Single-ply,SBD,M
Boys,124.74,DQ,Xavier Washington,Cedar Hill,124.74,,,,,Single-ply,SBD,M
Boys,124.74,DQ,Justin Cook,Lancaster,113.4,,,,,Single-ply,SBD,M
Boys,124.74+,1,Nate Brown,Kennedale,156.94,308.44,165.56,274.42,748.43,Single-ply,SBD,M
Boys,124.74+,2,Samir Zeqiraj,North Richland Hills Richland,165.11,249.48,206.38,240.4,696.26,Single-ply,SBD,M
Boys,124.74+,3,Maea Teuhema,Keller,152.04,238.14,190.51,249.48,678.12,Single-ply,SBD,M
Boys,124.74+,4,Brent Reed,Kennedale,126.1,265.35,136.08,247.21,648.64,Single-ply,SBD,M
Boys,124.74+,5,Joey Stephens,Everman,142.75,254.01,149.69,231.33,635.03,Single-ply,SBD,M
Boys,124.74+,6,Terik Rabb,Kennedale,129.73,226.8,140.61,215.46,582.87,Single-ply,SBD,M
Boys,124.74+,7,Rowdy Witt,Everman,135.26,226.8,124.74,226.8,578.33,Single-ply,SBD,M
Boys,124.74+,8,Tyler Melton,Chico,126.19,226.8,122.47,226.8,576.06,Single-ply,SBD,M
Boys,124.74+,9,Marcos Garcia,Gainesville,168.6,242.67,131.54,197.31,571.53,Single-ply,SBD,M
Boys,124.74+,10,Abe Rodriquez,Oakridge School,129.27,242.67,99.79,226.8,569.26,Single-ply,SBD,M
Boys,124.74+,11,Jacob Carter,Chico,131.31,204.12,147.42,188.24,539.77,Single-ply,SBD,M
Boys,124.74+,12,Raiquan Bennett,Lancaster,142.43,210.92,138.35,142.88,492.15,Single-ply,SBD,M
Boys,124.74+,13,Joe Cruz,Lake Worth,128.82,163.29,124.74,165.56,453.59,Single-ply,SBD,M
Boys,124.74+,14,Markiest Scott,Lancaster,128.37,158.76,111.13,174.63,444.52,Single-ply,SBD,M
Boys,124.74+,15,Trouper Arnold,Northwest Nelson,131.54,142.88,113.4,183.7,439.98,Single-ply,SBD,M
Boys,124.74+,16,Matt Briggs,Justin Northwest,129.18,156.49,122.47,158.76,437.72,Single-ply,SBD,M
Boys,124.74+,DQ,Duke Smith,Northwest Nelson,139.39,215.46,129.27,,,Single-ply,SBD,M
