Division,WeightClassKg,Place,Name,Team,BodyweightKg,Best3SquatKg,Best3BenchKg,Best3DeadliftKg,TotalKg,Equipment,Event,Sex
Boys,51.71,1,Rafael Morales,Laredo Cigarroa,51.35,149.69,90.72,161.03,401.43,Single-ply,SBD,M
Boys,51.71,2,Diego Pena,Roma,51.71,156.49,79.38,161.03,396.89,Single-ply,SBD,M
Boys,55.79,3,Martin Villarreal,Laredo United South,51.8,136.08,72.57,170.1,378.75,Single-ply,SBD,M
Boys,51.71,4,Francisco Fuentes,Zapata,46.72,113.4,56.7,122.47,292.57,Single-ply,SBD,M
Boys,55.79,1,Enrique Alvarez,Laredo Cigarroa,55.7,195.04,102.06,176.9,474,Single-ply,SBD,M
Boys,59.87,2,Amado De La Fuente,Laredo United South,56.02,156.49,97.52,176.9,430.91,Single-ply,SBD,M
Boys,59.87,3,Alexis Flores,Laredo Alexander,55.97,165.56,90.72,149.69,405.97,Single-ply,SBD,M
Boys,55.79,4,Jerry Alaniz,Laredo Alexander,54.43,142.88,88.45,156.49,387.82,Single-ply,SBD,M
Boys,59.87,5,Rudy Davila,Laredo United,55.97,124.74,79.38,145.15,349.27,Single-ply,SBD,M
Boys,59.87,6,Brandon Evans,Laredo United,55.97,115.67,86.18,142.88,344.73,Single-ply,SBD,M
Boys,55.79,DQ,Benito Salazar,Carrizo Springs,55.79,,,,,Single-ply,SBD,M
Boys,55.79,DQ,Leo Ibarra,Laredo Johnson,55.79,,,,,Single-ply,SBD,M
Boys,59.87,DQ,Michael Sauceda,Laredo United,55.97,165.56,,,,Single-ply,SBD,M
Boys,55.79,DQ,Michael Cantu,Roma,55.79,133.81,,,,Single-ply,SBD,M
Boys,59.87,1,John Bojanski,Laredo Alexander,58.51,204.12,92.99,192.78,489.88,Single-ply,SBD,M
Boys,59.87,2,Felipe Medina,Zapata,59.87,192.78,104.33,192.78,489.88,Single-ply,SBD,M
Boys,59.87,3,Cesar Alfaro,Laredo United South,59.42,158.76,111.13,181.44,451.32,Single-ply,SBD,M
Boys,59.87,4,Joel Garcia,Cotulla,59.15,167.83,86.18,174.63,428.64,Single-ply,SBD,M
Boys,67.13,5,Carlos Vedarte,Laredo United South,60.1,151.95,88.45,158.76,399.16,Single-ply,SBD,M
Boys,59.87,6,Juan Delgado,Roma,58.97,142.88,88.45,165.56,396.89,Single-ply,SBD,M
Boys,59.87,7,Cristian Sanchez,Cotulla,56.25,136.08,86.18,167.83,390.09,Single-ply,SBD,M
Boys,67.13,8,Jairo Morales,Laredo Cigarroa,59.96,147.42,72.57,158.76,378.75,Single-ply,SBD,M
Boys,59.87,9,Xavier Delgado,Zapata,57.15,129.27,81.65,161.03,371.95,Single-ply,SBD,M
Boys,59.87,10,Raul Martinez,Laredo Johnson,59.87,113.4,86.18,147.42,347,Single-ply,SBD,M
Boys,59.87,11,Yoni Portillo,Laredo Nixon,59.87,127.01,65.77,142.88,335.66,Single-ply,SBD,M
Boys,59.87,12,Israel Granados,Laredo Nixon,56.25,106.59,63.5,136.08,306.17,Single-ply,SBD,M
Boys,59.87,13,Lorenzo Cruz,Carrizo Springs,58.6,79.38,79.38,129.27,288.03,Single-ply,SBD,M
Boys,59.87,14,Luis Guevara,Laredo Nixon,56.7,92.99,61.23,120.2,274.42,Single-ply,SBD,M
Boys,67.13,1,Ruben Salinas,Roma,66.22,229.06,133.81,208.65,571.53,Single-ply,SBD,M
Boys,67.13,2,Marcos Ortiz,Laredo Alexander,64.41,226.8,124.74,190.51,542.04,Single-ply,SBD,M
Boys,74.84,3,Mike Benavides,Laredo Cigarroa,67.31,199.58,108.86,199.58,508.02,Single-ply,SBD,M
Boys,67.13,4,Vicente Flores,Zapata,65.77,167.83,127.01,199.58,494.42,Single-ply,SBD,M
Boys,67.13,5,Benny Ray Castor,Cotulla,65.77,183.7,99.79,185.97,469.47,Single-ply,SBD,M
Boys,67.13,6,Luis Castillo,Laredo United South,61.14,183.7,115.67,161.03,460.4,Single-ply,SBD,M
Boys,74.84,7,David Trinidad,Laredo United South,67.36,176.9,97.52,161.03,435.45,Single-ply,SBD,M
Boys,67.13,8,Mario Cantu,Laredo Cigarroa,60.78,156.49,83.91,158.76,399.16,Single-ply,SBD,M
Boys,74.84,9,John Beltran,Laredo United,67.22,142.88,86.18,154.22,383.29,Single-ply,SBD,M
Boys,67.13,10,Jose Carillo,Laredo Johnson,66.22,133.81,81.65,147.42,362.87,Single-ply,SBD,M
Boys,67.13,11,Jesus Contreras,Laredo Johnson,66.22,142.88,77.11,136.08,356.07,Single-ply,SBD,M
Boys,67.13,DQ,Mark Ruiz,Cotulla,67.13,,,,,Single-ply,SBD,M
Boys,67.13,DQ,Ricky Gongora,Laredo Alexander,67.13,,,,,Single-ply,SBD,M
Boys,67.13,DQ,Jorge Silva,Laredo Nixon,67.13,,,,,Single-ply,SBD,M
Boys,67.13,DQ,Josue Valdez,Zapata,65.77,163.29,99.79,,,Single-ply,SBD,M
Boys,67.13,DQ,Frank Rubalcava,Laredo Cigarroa,66.22,170.1,,,,Single-ply,SBD,M
Boys,74.84,1,Danny Flores,Zapata,73.94,217.72,136.08,226.8,580.6,Single-ply,SBD,M
Boys,74.84,2,Daniel Mercado,Zapata,73.94,156.49,133.81,190.51,480.81,Single-ply,SBD,M
Boys,74.84,3,Manuel Garcia,Laredo Cigarroa,73.12,165.56,95.25,183.7,444.52,Single-ply,SBD,M
Boys,74.84,4,Ricky Zavala,Laredo Martin,67.59,149.69,79.38,145.15,374.21,Single-ply,SBD,M
Boys,82.1,5,Daniel Briones,Laredo United South,74.93,142.88,72.57,154.22,369.68,Single-ply,SBD,M
Boys,74.84,6,Jon Ramos,Laredo Johnson,73.94,133.81,88.45,142.88,365.14,Single-ply,SBD,M
Boys,74.84,7,Edgar Trejo,Laredo United South,74.12,127.01,74.84,161.03,362.87,Single-ply,SBD,M
Boys,74.84,8,Ramiro Castillo,Laredo Johnson,71.49,136.08,81.65,140.61,358.34,Single-ply,SBD,M
Boys,74.84,9,Chris Camarillo,Laredo Nixon,68.58,122.47,74.84,136.08,333.39,Single-ply,SBD,M
Boys,74.84,10,Emilio Arce,Carrizo Springs,68.95,97.52,95.25,122.47,315.25,Single-ply,SBD,M
Boys,74.84,DQ,Eliud Renteria,Cotulla,74.84,,,,,Single-ply,SBD,M
Boys,74.84,DQ,Woodrow Garcia,Cotulla,74.84,,,,,Single-ply,SBD,M
Boys,74.84,DQ,Edipo Escobedo,Laredo Cigarroa,74.84,,,,,Single-ply,SBD,M
Boys,74.84,DQ,Carlos Ramirez,Laredo Alexander,74.84,,,,,Single-ply,SBD,M
Boys,74.84,DQ,Jesus Lopez,Zapata,74.84,,,,,Single-ply,SBD,M
Boys,74.84,DQ,Edgar Mendiola,Laredo Nixon,74.84,,,,,Single-ply,SBD,M
Boys,82.1,1,Jose de la Rosa,Roma,81.37,222.26,124.74,222.26,569.26,Single-ply,SBD,M
Boys,82.1,2,David Garza,Cotulla,81.19,192.78,129.27,238.14,560.19,Single-ply,SBD,M
Boys,82.1,3,Edgar Gonzalez,Roma,81.19,195.04,108.86,215.46,519.36,Single-ply,SBD,M
Boys,89.81,4,Jose Herrera,Laredo United,82.28,199.58,92.99,204.12,496.68,Single-ply,SBD,M
Boys,89.81,5,Ivan Paredes,Laredo United South,82.33,165.56,102.06,188.24,455.86,Single-ply,SBD,M
Boys,82.1,6,Arturo Delgado,Laredo United,76.2,154.22,90.72,170.1,415.04,Single-ply,SBD,M
Boys,82.1,7,Octavio Solorio,Laredo United,75.48,156.49,86.18,156.49,399.16,Single-ply,SBD,M
Boys,82.1,8,David Garza,Laredo Johnson,76.93,149.69,88.45,161.03,399.16,Single-ply,SBD,M
Boys,82.1,9,JC Gutierrez,Laredo Johnson,75.93,142.88,83.91,154.22,381.02,Single-ply,SBD,M
Boys,82.1,10,Cesar Segueda,Laredo Johnson,75.3,127.01,90.72,161.03,378.75,Single-ply,SBD,M
Boys,82.1,11,Guillermo Paredes,Laredo Johnson,79.38,129.27,88.45,161.03,378.75,Single-ply,SBD,M
Boys,82.1,12,Trey Muriel,Cotulla,79.83,181.44,,,181.44,Single-ply,S,M
Boys,82.1,DQ,Jordan Garcia,Cotulla,82.1,,,,,Single-ply,S,M
Boys,82.1,DQ,Nicolas Madrigal,Laredo Johnson,82.1,,,,,Single-ply,S,M
Boys,82.1,DQ,Cristan Vasquez,Laredo Johnson,75.3,127.01,,,,Single-ply,S,M
Boys,99.79,1,Richie Lopez,Laredo United South,89.95,244.94,145.15,240.4,630.49,Single-ply,SBD,M
Boys,89.81,2,Justin Fuentes,Zapata,89.81,219.99,136.08,210.92,566.99,Single-ply,SBD,M
Boys,89.81,3,Cliff Salinas,Roma,89.81,195.04,120.2,219.99,535.24,Single-ply,SBD,M
Boys,89.81,4,Cruz Garcia,Roma,89.81,199.58,129.27,185.97,514.83,Single-ply,SBD,M
Boys,89.81,5,Jerry Ayala,Laredo Johnson,83.91,201.85,111.13,192.78,505.76,Single-ply,SBD,M
Boys,89.81,6,Larry Banda,Laredo Nixon,89.81,190.51,117.93,195.04,503.49,Single-ply,SBD,M
Boys,89.81,7,Danny Sanchez,Laredo United South,87,174.63,117.93,208.65,501.22,Single-ply,SBD,M
Boys,89.81,8,Adrian Ayala,Cotulla,89.81,163.29,97.52,222.26,483.08,Single-ply,SBD,M
Boys,89.81,9,Oscar Mohammed,Laredo United,84.28,183.7,106.59,176.9,467.2,Single-ply,SBD,M
Boys,89.81,10,Adrian Munoz,Laredo Martin,89.36,183.7,92.99,174.63,451.32,Single-ply,SBD,M
Boys,89.81,11,David Roman,Laredo United South,89.36,174.63,95.25,165.56,435.45,Single-ply,SBD,M
Boys,89.81,12,Joey Herrera,Laredo United South,83.64,151.95,104.33,161.03,417.3,Single-ply,SBD,M
Boys,89.81,13,Andrew Walker,Laredo Johnson,83.46,127.01,102.06,158.76,387.82,Single-ply,SBD,M
Boys,89.81,DQ,Tony Gonzalez,Laredo Johnson,89.81,,,,,Single-ply,SBD,M
Boys,89.81,DQ,Arman Khaledi,Laredo Alexander,89.81,,,,,Single-ply,SBD,M
Boys,89.81,DQ,John Guevarra,Laredo Martin,86,170.1,,,,Single-ply,SBD,M
Boys,99.79,1,Jose Correas,Laredo Cigarroa,99.79,254.01,113.4,226.8,594.21,Single-ply,SBD,M
Boys,99.79,2,Erick Fernandez,Laredo Nixon,99.79,217.72,138.35,213.19,569.26,Single-ply,SBD,M
Boys,99.79,3,George Gonzalez,Laredo United South,94.98,226.8,113.4,226.8,566.99,Single-ply,SBD,M
Boys,99.79,4,Ricky Martinez,Laredo United,99.79,233.6,129.27,192.78,555.65,Single-ply,SBD,M
Boys,99.79,5,Edgar Martinez,Laredo United South,97.98,183.7,122.47,192.78,498.95,Single-ply,SBD,M
Boys,99.79,6,Paul Gonzalez,Laredo United South,96.62,158.76,117.93,190.51,467.2,Single-ply,SBD,M
Boys,99.79,7,Jimmy Montalvo,Laredo United,99.79,170.1,106.59,183.7,460.4,Single-ply,SBD,M
Boys,99.79,8,Efrain Uvalle,Laredo Johnson,99.34,165.56,97.52,174.63,437.72,Single-ply,SBD,M
Boys,99.79,9,Oscar Nava,Roma,99.79,158.76,97.52,151.95,408.23,Single-ply,SBD,M
Boys,99.79,10,Alex Chavarria,Carrizo Springs,99.79,120.2,111.13,158.76,390.09,Single-ply,SBD,M
Boys,99.79,11,Julio Fuentes,Carrizo Springs,99.79,122.47,90.72,140.61,353.8,Single-ply,SBD,M
Boys,99.79,DQ,Homar Ochoa,Roma,99.79,163.29,,,,Single-ply,SBD,M
Boys,109.77,1,Victor Martinez,Laredo Martin,109.32,267.62,147.42,229.06,644.1,Single-ply,SBD,M
Boys,109.77,2,Raul Hinojosa,Zapata,107.05,238.14,154.22,231.33,623.69,Single-ply,SBD,M
Boys,109.77,3,Alonzo Villareal,Laredo Alexander,103.6,226.8,136.08,240.4,603.28,Single-ply,SBD,M
Boys,109.77,4,Jorge Martinez,Laredo United South,104.24,226.8,131.54,235.87,594.21,Single-ply,SBD,M
Boys,109.77,5,Jorge Gutierrez,Zapata,105.23,197.31,147.42,208.65,553.38,Single-ply,SBD,M
Boys,109.77,6,Frank Villareal,Laredo Martin,108.86,226.8,111.13,195.04,532.97,Single-ply,SBD,M
Boys,109.77,7,Christian Rosas,Laredo Alexander,102.51,185.97,117.93,215.46,519.36,Single-ply,SBD,M
Boys,109.77,8,Fernando Rubalcava,Carrizo Springs,109.32,192.78,131.54,192.78,517.1,Single-ply,SBD,M
Boys,109.77,9,Tony Saavedra,Laredo Johnson,101.24,188.24,113.4,181.44,483.08,Single-ply,SBD,M
Boys,109.77,10,Joey Gonzalez,Carrizo Springs,104.69,161.03,133.81,167.83,462.66,Single-ply,SBD,M
Boys,109.77,11,Eddy Alavarez,Laredo Martin,106.59,185.97,97.52,167.83,451.32,Single-ply,SBD,M
Boys,109.77,12,Justin Hernandez,Laredo Nixon,104.78,183.7,90.72,174.63,449.06,Single-ply,SBD,M
Boys,109.77,13,Pedro Moctezuma,Carrizo Springs,104.33,127.01,117.93,147.42,392.36,Single-ply,SBD,M
Boys,109.77,DQ,Albert Martinez,Cotulla,109.77,,,,,Single-ply,SBD,M
Boys,124.74,1,Jaime Cardona,Laredo Nixon,113.85,238.14,111.13,195.04,544.31,Single-ply,SBD,M
Boys,124.74,2,Jeffery Garcia,Carrizo Springs,122.02,217.72,129.27,185.97,532.97,Single-ply,SBD,M
Boys,124.74,3,Alex De Luna,Laredo United South,110.95,206.38,104.33,204.12,514.83,Single-ply,SBD,M
Boys,124.74,4,Juan J Moreno,Roma,122.2,204.12,111.13,183.7,498.95,Single-ply,SBD,M
Boys,124.74+,5,Freddy Romo,Laredo Alexander,124.92,183.7,106.59,201.85,492.15,Single-ply,SBD,M
Boys,124.74,6,Francisco Moreno,Laredo Cigarroa,123.83,210.92,86.18,188.24,485.34,Single-ply,SBD,M
Boys,124.74,7,RJ Santos,Carrizo Springs,111.13,188.24,108.86,165.56,462.66,Single-ply,SBD,M
Boys,124.74,DQ,Ralph Alvarez,Carrizo Springs,124.74,,,,,Single-ply,SBD,M
Boys,124.74+,1,Rudy Martinez,Laredo Nixon,125.19,235.87,127.01,217.72,580.6,Single-ply,SBD,M
Boys,124.74+,2,Edward Garza,Laredo Johnson,146.96,233.6,142.88,195.04,571.53,Single-ply,SBD,M
Boys,124.74+,3,Jose Gonzalez,Roma,156.31,181.44,136.08,199.58,517.1,Single-ply,SBD,M
Boys,124.74+,4,Alexis Manrique,Laredo United,129.55,195.04,127.01,190.51,512.56,Single-ply,SBD,M
Boys,124.74+,5,Arturo Velasquez,Roma,127.46,195.04,131.54,183.7,510.29,Single-ply,SBD,M
Boys,124.74+,6,Alex Hernandez,Laredo Johnson,149.23,199.58,113.4,158.76,471.74,Single-ply,SBD,M
Boys,124.74+,7,Sammy Alarcon,Laredo Johnson,175.54,176.9,90.72,158.76,426.38,Single-ply,SBD,M
Boys,124.74+,DQ,Eliud Aguero,Laredo Alexander,125.19,,,,,Single-ply,SBD,M
Boys,124.74+,DQ,JR Sandoval,Laredo United,139.71,242.67,,,,Single-ply,SBD,M
Boys,,NS,David Reyes,Laredo Martin,,,,,,Single-ply,SBD,M
Boys,,NS,Albert Estrada,Laredo Martin,,,,,,Single-ply,SBD,M
Boys,,NS,Eduardo Rodriguez,Laredo Martin,,,,,,Single-ply,SBD,M
