Division,WeightClassKg,Place,Name,Team,BodyweightKg,Best3SquatKg,Best3BenchKg,Best3DeadliftKg,TotalKg,Equipment,Event,Sex
Junior Varsity,55.79,1,Alex Aguilar,Brownsville Pace,53.98,127.01,74.84,111.13,312.98,Single-ply,SBD,M
Junior Varsity,59.87,1,Michael Chavez,Brownsville Hanna,57.38,120.2,61.23,136.08,317.51,Single-ply,SBD,M
Junior Varsity,59.87,2,Nick De Leon,Brownsville Lopez,59.15,90.72,72.57,142.88,306.17,Single-ply,SBD,M
Junior Varsity,59.87,3,Adrian Guerrero,Brownsville Porter,58.38,113.4,47.63,124.74,285.76,Single-ply,SBD,M
Junior Varsity,59.87,4,Cristian Rodriguez,Brownsville Porter,59.19,86.18,52.16,113.4,251.74,Single-ply,SBD,M
Junior Varsity,59.87,DQ,Jayden Endsley,Brownsville Rivera,59.42,,,,,Single-ply,SBD,M
Junior Varsity,67.13,1,Ramses Ramos,Brownsville Lopez,64.41,183.7,90.72,183.7,458.13,Single-ply,SBD,M
Junior Varsity,67.13,2,Jesus Sandoval,Brownsville Pace,64.86,147.42,102.06,147.42,396.89,Single-ply,SBD,M
Junior Varsity,67.13,3,Armando Rosales,Brownsville Lopez,67.13,127.01,111.13,124.74,362.87,Single-ply,SBD,M
Junior Varsity,67.13,4,John Acuna,Brownsville Porter,66.27,129.27,74.84,145.15,349.27,Single-ply,SBD,M
Junior Varsity,67.13,5,Jose Garza,Brownsville Porter,64,97.52,56.7,142.88,297.1,Single-ply,SBD,M
Junior Varsity,74.84,DQ,JJ Camacho,Brownsville Pace,67.31,158.76,,,,Single-ply,SBD,M
Junior Varsity,74.84,DQ,Jj Mercado,Brownsville Lopez,67.22,149.69,,,,Single-ply,SBD,M
Junior Varsity,74.84,1,Nacho Guevara,Brownsville Pace,70.85,183.7,108.86,179.17,471.74,Single-ply,SBD,M
Junior Varsity,74.84,2,Priciliano Diaz,Brownsville Lopez,72.57,142.88,70.31,161.03,374.21,Single-ply,SBD,M
Junior Varsity,74.84,3,Jared Escobedo,Brownsville Porter,71.4,145.15,63.5,154.22,362.87,Single-ply,SBD,M
Junior Varsity,74.84,4,Heriberto Duque,Brownsville Hanna,72.3,131.54,74.84,142.88,349.27,Single-ply,SBD,M
Junior Varsity,74.84,DQ,Randy Delgado,Brownsville Hanna,69.49,,,,,Single-ply,SBD,M
Junior Varsity,82.1,1,Justin McManos,Brownsville Hanna,79.38,163.29,74.84,179.17,417.3,Single-ply,SBD,M
Junior Varsity,82.1,DQ,Ruben Balboa,Brownsville Pace,80.56,165.56,,,,Single-ply,SBD,M
Junior Varsity,82.1,DQ,Armando Azocar,Brownsville Rivera,78.83,,,,,Single-ply,SBD,M
Junior Varsity,89.81,1,Nathan Silva,Brownsville Hanna,86.18,204.12,108.86,197.31,510.29,Single-ply,SBD,M
Junior Varsity,89.81,2,Jesse Luna,Brownsville Lopez,86.18,188.24,111.13,208.65,508.02,Single-ply,SBD,M
Junior Varsity,89.81,3,Alexis Olalde,Brownsville Lopez,86.18,192.78,108.86,206.38,508.02,Single-ply,SBD,M
Junior Varsity,89.81,4,David Cardenas,Brownsville Pace,89.04,183.7,97.52,206.38,487.61,Single-ply,SBD,M
Junior Varsity,89.81,5,Chris Walker,Brownsville Pace,85.05,190.51,102.06,188.24,480.81,Single-ply,SBD,M
Junior Varsity,89.81,6,Cesar Lozano,Brownsville Porter,85.73,142.88,72.57,163.29,378.75,Single-ply,SBD,M
Junior Varsity,89.81,7,Ivan Cortez,Brownsville Rivera,87.14,161.03,102.06,,263.08,Single-ply,SB,M
Junior Varsity,89.81,DQ,Josh Rivera,Brownsville Rivera,83.69,,,,,Single-ply,SB,M
Junior Varsity,99.79,1,Joey Torres,Brownsville Lopez,98.88,215.46,129.27,188.24,532.97,Single-ply,SBD,M
Junior Varsity,99.79,2,Leo Gonzalez,Brownsville Hanna,92.58,190.51,111.13,215.46,517.1,Single-ply,SBD,M
Junior Varsity,99.79,3,Julio Medina,Brownsville Pace,91.58,199.58,117.93,197.31,514.83,Single-ply,SBD,M
Junior Varsity,99.79,4,Ricky Arreola,Brownsville Hanna,97.84,195.04,142.88,167.83,505.76,Single-ply,SBD,M
Junior Varsity,99.79,5,Miguel Teran,Brownsville Pace,96.98,188.24,129.27,183.7,501.22,Single-ply,SBD,M
Junior Varsity,99.79,6,Eddie Galvan,Brownsville Hanna,95.16,188.24,83.91,183.7,455.86,Single-ply,SBD,M
Junior Varsity,99.79,7,Miguel Torres,Brownsville Lopez,97.52,102.06,65.77,129.27,297.1,Single-ply,SBD,M
Junior Varsity,99.79,8,Eric Reyes,Brownsville Porter,92.53,104.33,61.23,113.4,278.96,Single-ply,SBD,M
Junior Varsity,109.77,1,Jonathan Ojeda,Brownsville Pace,104.42,192.78,106.59,190.51,489.88,Single-ply,SBD,M
Junior Varsity,109.77,DQ,Carlos Rodriguez,Brownsville Rivera,104.69,,,,,Single-ply,SBD,M
Junior Varsity,124.74,1,Adrian Arredondo,Brownsville Hanna,112.67,217.72,136.08,188.24,542.04,Single-ply,SBD,M
Junior Varsity,124.74,2,Jonas Garza,Brownsville Pace,111.58,147.42,102.06,176.9,426.38,Single-ply,SBD,M
Junior Varsity,124.74,3,Vicente Correa,Brownsville Veterans Memorial,111.49,149.69,88.45,149.69,387.82,Single-ply,SBD,M
Junior Varsity,124.74,4,Bryan Herrera,Brownsville Veterans Memorial,120.38,136.08,79.38,136.08,351.53,Single-ply,SBD,M
Junior Varsity,124.74,5,Javier Garcia,Brownsville Porter,111.49,120.2,72.57,138.35,331.12,Single-ply,SBD,M
Junior Varsity,124.74+,1,Milton Botti,Brownsville Porter,136.8,188.24,108.86,183.7,480.81,Single-ply,SBD,M
