Division,WeightClassKg,Place,Name,Team,BodyweightKg,Best3SquatKg,Best3BenchKg,Best3DeadliftKg,TotalKg,Equipment,Event,Sex
Girls,44.23,1,Kenzie Lewis,Robinson,41.82,43.09,22.68,52.16,117.93,Single-ply,SBD,F
Girls,47.85,1,Amanda Hubbard,Moody,47.63,74.84,45.36,81.65,201.85,Single-ply,SBD,F
Girls,47.85,2,Kori Giles,Crawford,44.63,63.5,29.48,63.5,156.49,Single-ply,SBD,F
Girls,47.85,3,Stephanie Garzo,Wortham,45.54,47.63,34.02,56.7,138.35,Single-ply,SBD,F
Girls,51.94,1,Pashence Barrera,Moody,51.26,104.33,61.23,99.79,265.35,Single-ply,SBD,F
Girls,51.94,2,Shelby Harralson,West,50.89,106.59,47.63,102.06,256.28,Single-ply,SBD,F
Girls,51.94,3,Valerie Gutierrez,Waco Connally,48.63,95.25,43.09,108.86,247.21,Single-ply,SBD,F
Girls,51.94,4,Clarissa Brown,Robinson,51.26,83.91,34.02,99.79,217.72,Single-ply,SBD,F
Girls,51.94,5,Skye Smith,Crawford,48.72,83.91,38.56,90.72,213.19,Single-ply,SBD,F
Girls,51.94,6,Gloria Tonche,Waco Connally,48.63,86.18,47.63,77.11,210.92,Single-ply,SBD,F
Girls,51.94,7,Chelsey Dorris,Crawford,51.71,77.11,43.09,90.72,210.92,Single-ply,SBD,F
Girls,51.94,8,Aubrey Jewell,West,50.89,81.65,34.02,79.38,195.04,Single-ply,SBD,F
Girls,51.94,9,Miranda Childers,Axtell,50.08,68.04,38.56,86.18,192.78,Single-ply,SBD,F
Girls,51.94,10,Katie D'Angelo,McGregor,50.44,72.57,34.02,81.65,188.24,Single-ply,SBD,F
Girls,51.94,11,Paige Hendricks,Fairfield,51.8,58.97,40.82,83.91,183.7,Single-ply,SBD,F
Girls,51.94,12,Chloe Wilson,Fairfield,48.35,61.23,43.09,61.23,165.56,Single-ply,SBD,F
Girls,51.94,DQ,Narda Serrato,Mexia,50.08,63.5,,95.25,,Single-ply,SBD,F
Girls,56.02,1,Savannah Robinson,Fairfield,54.16,117.93,49.9,122.47,290.3,Single-ply,SBD,F
Girls,56.02,2,Meagan McLean,Groesbeck,54.7,117.93,49.9,113.4,281.23,Single-ply,SBD,F
Girls,56.02,3,Paige Parkhill,West,54.88,111.13,47.63,102.06,260.82,Single-ply,SBD,F
Girls,56.02,4,Karissa Kaluza,West,54.34,92.99,43.09,102.06,238.14,Single-ply,SBD,F
Girls,56.02,5,Jayce Cummings,Moody,54.61,95.25,45.36,97.52,238.14,Single-ply,SBD,F
Girls,56.02,6,Chassie Fisher,Moody,55.79,86.18,47.63,88.45,222.26,Single-ply,SBD,F
Girls,56.02,7,Alexandra Aycock,Riesel,52.34,86.18,38.56,83.91,208.65,Single-ply,SBD,F
Girls,56.02,8,Brianna Tippe,McGregor,55.88,77.11,31.75,97.52,206.38,Single-ply,SBD,F
Girls,56.02,9,Casey Ramey,Crawford,55.07,61.23,31.75,61.23,154.22,Single-ply,SBD,F
Girls,56.02,DQ,Haylee Bulger,Fairfield,55.79,45.36,,61.23,,Single-ply,SBD,F
Girls,56.02,DQ,Shelby Dickerson,Groesbeck,54.43,,36.29,81.65,,Single-ply,SBD,F
Girls,60.1,1,Courtney Robinson,Waco Connally,59.96,115.67,58.97,158.76,333.39,Single-ply,SBD,F
Girls,60.1,2,Ashley Hoehn,Bruceville-Eddy,59.24,115.67,52.16,124.74,292.57,Single-ply,SBD,F
Girls,60.1,3,Cayla Kissinger,West,59.42,115.67,47.63,115.67,278.96,Single-ply,SBD,F
Girls,60.1,4,Anastacia Johnston,Waco Connally,60.06,113.4,52.16,111.13,276.69,Single-ply,SBD,F
Girls,60.1,5,Amanda King,McGregor,59.42,108.86,49.9,106.59,265.35,Single-ply,SBD,F
Girls,60.1,6,Haley Pierce,Valley Mills,59.69,104.33,40.82,104.33,249.48,Single-ply,SBD,F
Girls,60.1,7,Mikayla Kaluza,West,57.61,102.06,43.09,102.06,247.21,Single-ply,SBD,F
Girls,60.1,8,Madison Schick,Fairfield,58.97,99.79,47.63,92.99,240.4,Single-ply,SBD,F
Girls,60.1,9,Meisha McNeil,Mexia,57.15,83.91,43.09,104.33,231.33,Single-ply,SBD,F
Girls,60.1,10,Brittnie Dunn,Robinson,56.61,79.38,40.82,90.72,210.92,Single-ply,SBD,F
Girls,60.1,11,Oryenne Rosas,Riesel,58.79,74.84,38.56,90.72,204.12,Single-ply,SBD,F
Girls,60.1,12,Kaitlin McMillan,Groesbeck,56.43,70.31,38.56,90.72,199.58,Single-ply,SBD,F
Girls,60.1,13,Mia Rodriguez,Robinson,57.97,65.77,22.68,72.57,161.03,Single-ply,SBD,F
Girls,67.36,1,Kiana Hayes,Moody,63.96,124.74,43.09,131.54,299.37,Single-ply,SBD,F
Girls,67.36,2,Keona Dawkins,Waco Connally,60.24,120.2,65.77,106.59,292.57,Single-ply,SBD,F
Girls,67.36,3,Justice Oates,Fairfield,64.32,117.93,52.16,92.99,263.08,Single-ply,SBD,F
Girls,67.36,4,Lori Neil,Fairfield,65.05,97.52,52.16,92.99,242.67,Single-ply,SBD,F
Girls,67.36,5,Shelby West,Groesbeck,62.69,90.72,43.09,99.79,233.6,Single-ply,SBD,F
Girls,67.36,6,Kimmi Estrada,Robinson,64.95,81.65,47.63,102.06,231.33,Single-ply,SBD,F
Girls,67.36,7,Sarah Jones,Groesbeck,67.04,83.91,43.09,99.79,226.8,Single-ply,SBD,F
Girls,67.36,8,Lacey Boney,Fairfield,64.59,77.11,38.56,92.99,208.65,Single-ply,SBD,F
Girls,67.36,9,Anna Hinojosa,Moody,66.77,90.72,40.82,77.11,208.65,Single-ply,SBD,F
Girls,67.36,10,Ashley Johnson,Crawford,65.23,86.18,36.29,77.11,199.58,Single-ply,SBD,F
Girls,67.36,11,Kira Ferguson,Riesel,64.41,74.84,34.02,86.18,195.04,Single-ply,SBD,F
Girls,67.36,12,Najala Galinda,Riesel,64.95,74.84,38.56,77.11,190.51,Single-ply,SBD,F
Girls,67.36,13,Tulianna Johnson,Bosqueville,63.68,61.23,31.75,61.23,154.22,Single-ply,SBD,F
Girls,67.36,14,Peyton Warneke,Robinson,65.77,45.36,24.95,52.16,122.47,Single-ply,SBD,F
Girls,75.07,1,Rebecca Garrett,Bosqueville,73.94,133.81,70.31,124.74,328.85,Single-ply,SBD,F
Girls,75.07,2,Shelby Kilpatrick,Robinson,68.49,127.01,54.43,136.08,317.51,Single-ply,SBD,F
Girls,75.07,3,Emily Martinez,Waco Connally,69.49,124.74,58.97,124.74,308.44,Single-ply,SBD,F
Girls,75.07,4,Michaela McGeary,Fairfield,69.49,122.47,52.16,129.27,303.91,Single-ply,SBD,F
Girls,75.07,5,Hailee Dossey,Robinson,73.84,102.06,65.77,124.74,292.57,Single-ply,SBD,F
Girls,75.07,6,Brittany Frillou,Axtell,70.85,106.59,52.16,113.4,272.16,Single-ply,SBD,F
Girls,75.07,7,Brenda Delgado,Robinson,70.94,106.59,45.36,113.4,265.35,Single-ply,SBD,F
Girls,75.07,8,Amy Olavera,West,67.59,104.33,49.9,106.59,260.82,Single-ply,SBD,F
Girls,75.07,9,Kaci Gauntt,Mexia,68.86,95.25,52.16,113.4,260.82,Single-ply,SBD,F
Girls,75.07,10,Aneva Borden,Crawford,73.3,104.33,56.7,92.99,254.01,Single-ply,SBD,F
Girls,75.07,11,Kim Baker,Robinson,74.3,102.06,45.36,104.33,251.74,Single-ply,SBD,F
Girls,75.07,12,Kali Butler,Fairfield,68.31,90.72,47.63,90.72,229.06,Single-ply,SBD,F
Girls,75.07,13,Alyssa Rice,Riesel,69.22,79.38,38.56,90.72,208.65,Single-ply,SBD,F
Girls,75.07,14,Erica Valadez,Robinson,74.57,72.57,29.48,99.79,201.85,Single-ply,SBD,F
Girls,75.07,15,Ivey Mount,Crawford,68.95,72.57,38.56,83.91,195.04,Single-ply,SBD,F
Girls,75.07,16,Anna True,Crawford,70.85,63.5,40.82,88.45,192.78,Single-ply,SBD,F
Girls,82.33,1,Noemi Soto,Mexia,81.65,204.12,81.65,167.83,453.59,Single-ply,SBD,F
Girls,82.33,3,April Fraga,Waco Connally,77.02,117.93,61.23,136.08,315.25,Single-ply,SBD,F
Girls,82.33,4,Mikayla Jowers,Crawford,78.65,127.01,58.97,122.47,308.44,Single-ply,SBD,F
Girls,82.33,5,Brittany Carter,Bosqueville,78.29,115.67,52.16,136.08,303.91,Single-ply,SBD,F
Girls,82.33,6,Elain Shelton,Waco La Vega,75.39,108.86,47.63,117.93,274.42,Single-ply,SBD,F
Girls,82.33,7,Skye Loper,Groesbeck,75.57,97.52,49.9,108.86,256.28,Single-ply,SBD,F
Girls,82.33,8,Hailey Frosch,Robinson,75.84,95.25,45.36,104.33,244.94,Single-ply,SBD,F
Girls,82.33,9,Kimberly Ludwig,Riesel,76.93,86.18,45.36,90.72,222.26,Single-ply,SBD,F
Girls,82.33,10,Peyton Wolf,Riesel,78.38,74.84,40.82,83.91,199.58,Single-ply,SBD,F
Girls,82.33,11,Lizzette Del Toro,Groesbeck,81.1,68.04,31.75,65.77,165.56,Single-ply,SBD,F
Girls,90.04,1,Bailey Rogers,West,82.55,181.44,88.45,140.61,410.5,Single-ply,SBD,F
Girls,90.04,2,Beth Bounds,Moody,86.36,136.08,65.77,122.47,324.32,Single-ply,SBD,F
Girls,90.04,3,Vanessa Lopez,McGregor,87.36,124.74,47.63,108.86,281.23,Single-ply,SBD,F
Girls,90.04,4,Brittany Hernandez,Moody,83.19,104.33,38.56,113.4,256.28,Single-ply,SBD,F
Girls,90.04,5,Kaitlin Williamson,Moody,82.55,111.13,40.82,88.45,240.4,Single-ply,SBD,F
Girls,90.04,6,Shaniqua Lee,McGregor,83.28,90.72,43.09,104.33,238.14,Single-ply,SBD,F
Girls,90.04,DQ,Yulissa Recio,Moody,84.28,90.72,,83.91,,Single-ply,SBD,F
Girls,100.02,1,Sydney Robins,Bruceville-Eddy,98.34,142.88,65.77,140.61,349.27,Single-ply,SBD,F
Girls,100.02,2,Jessica Hill,Fairfield,97.52,136.08,61.23,138.35,335.66,Single-ply,SBD,F
Girls,100.02,2,Angela Rost,McGregor,98.43,136.08,68.04,136.08,340.19,Single-ply,SBD,F
Girls,100.02,3,Hailey Anderson,Bosqueville,99.79,124.74,77.11,131.54,333.39,Single-ply,SBD,F
Girls,100.02,4,Courtney Cordell,Valley Mills,91.17,136.08,63.5,122.47,322.05,Single-ply,SBD,F
Girls,100.02,5,Madison Crum,Riesel,97.79,127.01,68.04,115.67,310.71,Single-ply,SBD,F
Girls,100.02,6,Shelby Wines,West,92.71,136.08,58.97,113.4,308.44,Single-ply,SBD,F
Girls,100.02,7,Lacy Laboeuf,Bosqueville,99.79,115.67,58.97,131.54,306.17,Single-ply,SBD,F
Girls,100.02,8,Dekshalon Hont,Waco La Vega,99.43,113.4,56.7,102.06,272.16,Single-ply,SBD,F
Girls,100.02,9,Kiana Lane,McGregor,94.26,108.86,54.43,106.59,269.89,Single-ply,SBD,F
Girls,100.02,DQ,Zaida Soto,Waco La Vega,92.53,102.06,,97.52,,Single-ply,SBD,F
Girls,100.02+,1,Janay Willis,Waco La Vega,100.43,190.51,65.77,158.76,415.04,Single-ply,SBD,F
Girls,100.02+,2,Alize Lewis,Fairfield,118.75,124.74,70.31,111.13,306.17,Single-ply,SBD,F
Girls,100.02+,3,Emily Holt,Lorena,105.41,120.2,52.16,106.59,278.96,Single-ply,SBD,F
Girls,100.02+,4,Kristlyn Taylor,Robinson,104.96,92.99,47.63,95.25,235.87,Single-ply,SBD,F
Girls,100.02+,5,Sylvia Pina,Robinson,105.32,63.5,43.09,86.18,192.78,Single-ply,SBD,F
