Place,Name,WeightClassKg,Best3SquatKg,Best3BenchKg,Best3DeadliftKg,TotalKg,Sex,Event,Equipment,Division
1,Mick Stone,75,175,100,195,470,M,SBD,Single-ply,Open
2,Ricki Johnston,75,175,100,170,445,M,SBD,Single-ply,Open
1,Peter Svara,82.5,225,145,225,595,M,SBD,Single-ply,Open
2,James Shaw,82.5,200,142.5,230,572.5,M,SBD,Single-ply,Open
3,Dallas Smith,82.5,170,105,182.5,457.5,M,SBD,Single-ply,Open
1,Bernie Welsford,90,225,145,280,650,M,SBD,Single-ply,Open
1,Shane Stringer,100,215,180,240,635,M,SBD,Single-ply,Open
2,Mick Pikos,100,220,160,250,630,M,SBD,Single-ply,Open
1,Nick Moody,110,200,170,225,595,M,SBD,Single-ply,Open
