Division,WeightClassKg,Place,Name,Team,BodyweightKg,Best3SquatKg,Best3BenchKg,Best3DeadliftKg,TotalKg,Equipment,Event,Sex
Boys,51.71,1,Josh Paige,Hitchcock,51.31,142.88,83.91,138.35,365.14,Single-ply,SBD,M
Boys,51.71,2,Kevin Manning,Boling,47.63,131.54,70.31,136.08,337.93,Single-ply,SBD,M
Boys,51.71,3,Trevor Greer,Woodville,49.94,138.35,65.77,124.74,328.85,Single-ply,SBD,M
Boys,51.71,4,Bryce Hazelwood,Saratoga West Hardin,50.39,111.13,70.31,115.67,297.1,Single-ply,SBD,M
Boys,51.71,5,Cole Brogger,Vanderbilt Industrial,48.1,113.4,56.7,113.4,283.5,Single-ply,SBD,M
Boys,51.71,6,Austin Draper,East Bernard,50.82,104.33,54.43,120.2,278.96,Single-ply,SBD,M
Boys,51.71,7,Christian DeBarge,Hull-Daisetta,49.49,97.52,54.43,106.59,258.55,Single-ply,SBD,M
Boys,51.71,8,Mykal Vera,Corrigan-Camden,50.86,108.86,47.63,102.06,258.55,Single-ply,SBD,M
Boys,51.71,9,Kaden Henry,El Maton Tidehaven,46.3,81.65,43.09,90.72,215.46,Single-ply,SBD,M
Boys,,NS,Marquis Alexander,Van Vleck,,,,,,Single-ply,SBD,M
Boys,,NS,Christian Franklin,La Marque,,,,,,Single-ply,SBD,M
Boys,55.79,1,Tyler Le,Palacios,55.4,142.88,83.91,170.1,396.89,Single-ply,SBD,M
Boys,55.79,2,Russell Morrison,El Maton Tidehaven,55.47,142.88,81.65,158.76,383.29,Single-ply,SBD,M
Boys,55.79,3,Gavin Robles,Kountze,54.93,136.08,86.18,158.76,381.02,Single-ply,SBD,M
Boys,55.79,4,Marco Sanchez,Hitchcock,55.4,149.69,74.84,154.22,378.75,Single-ply,SBD,M
Boys,55.79,5,Jordan Foxworth,Woodville,54.5,129.27,70.31,151.95,351.53,Single-ply,SBD,M
Boys,55.79,6,Tyler Greer,Woodville,54.95,120.2,65.77,136.08,322.05,Single-ply,SBD,M
Boys,55.79,7,Ruben Jaramillo,Winnie East Chambers,54.9,122.47,61.23,122.47,306.17,Single-ply,SBD,M
Boys,55.79,8,Brian Jones,Newton,55.7,102.06,65.77,136.08,303.91,Single-ply,SBD,M
Boys,55.79,9,Marc Walters,El Maton Tidehaven,54.48,111.13,52.16,136.08,299.37,Single-ply,SBD,M
Boys,55.79,10,Lane Totino,Deweyville,54.9,90.72,43.09,106.59,240.4,Single-ply,SBD,M
Boys,55.79,DQ,John Burnett,Saratoga West Hardin,55.4,108.86,63.5,,,Single-ply,SBD,M
Boys,,NS,Trevor Creel,Saratoga West Hardin,,,,,,Single-ply,SBD,M
Boys,59.87,1,Derek Clark,Buna,58.56,163.29,95.25,174.63,433.18,Single-ply,SBD,M
Boys,59.87,2,Isaac Garza,Ganado,59.51,145.15,95.25,170.1,410.5,Single-ply,SBD,M
Boys,59.87,3,Kory Didear,Boling,58.09,161.03,72.57,165.56,399.16,Single-ply,SBD,M
Boys,59.87,4,Jeremiah Brooks,Danbury,56.7,154.22,86.18,154.22,394.63,Single-ply,SBD,M
Boys,59.87,5,Jerome Spells,Hitchcock,59.48,147.42,86.18,154.22,387.82,Single-ply,SBD,M
Boys,59.87,6,Issac Causey,Newton,59.83,145.15,77.11,149.69,371.95,Single-ply,SBD,M
Boys,59.87,7,Abraham Espino,Van Vleck,59.46,133.81,83.91,149.69,367.41,Single-ply,SBD,M
Boys,59.87,8,Dylan Purvis,Corrigan-Camden,57.64,149.69,63.5,136.08,349.27,Single-ply,SBD,M
Boys,59.87,9,Abram Krushall,Boling,58.97,122.47,81.65,133.81,337.93,Single-ply,SBD,M
Boys,,NS,Enrique Alvarez,Hitchcock,,,,,,Single-ply,SBD,M
Boys,,NS,Ricky Rico,East Bernard,,,,,,Single-ply,SBD,M
Boys,,NS,Robert Gobert,Hull-Daisetta,,,,,,Single-ply,SBD,M
Boys,67.13,1,Emmanuel Walker,Corrigan-Camden,64,197.31,104.33,217.72,519.36,Single-ply,SBD,M
Boys,67.13,2,Brandon Robles,Van Vleck,64,201.85,102.06,201.85,505.76,Single-ply,SBD,M
Boys,67.13,3,Michael Smith,Buna,66.27,185.97,115.67,188.24,489.88,Single-ply,SBD,M
Boys,67.13,4,Tre Evans,Edna,66.27,163.29,111.13,185.97,460.4,Single-ply,SBD,M
Boys,67.13,5,Trinity Morris,Warren,66.71,170.1,120.2,170.1,460.4,Single-ply,SBD,M
Boys,67.13,6,Ethan Guerra,Ganado,65.77,154.22,88.45,181.44,424.11,Single-ply,SBD,M
Boys,67.13,7,Shawn Taylor,Hull-Daisetta,66.74,161.03,88.45,170.1,419.57,Single-ply,SBD,M
Boys,67.13,DQ,Logan Pierce,El Maton Tidehaven,65.84,163.29,90.72,,,Single-ply,SBD,M
Boys,67.13,DQ,Darin Lavergne,Deweyville,66.74,,,,,Single-ply,SBD,M
Boys,,NS,Chad Currie,Coldspring-Oakhurst,,,,,,Single-ply,SBD,M
Boys,67.13,DQ,Jayden Landry,Anahuac,65.32,158.76,86.18,,,Single-ply,SBD,M
Boys,,NS,Caleb Walters,Kountze,,,,,,Single-ply,SBD,M
Boys,74.84,1,Eddie Cross,Coldspring-Oakhurst,73.99,204.12,129.27,217.72,551.11,Single-ply,SBD,M
Boys,74.84,2,Jacob Galvez,El Maton Tidehaven,73.09,215.46,138.35,188.24,542.04,Single-ply,SBD,M
Boys,74.84,3,Morgan Segovia,Palacios,73.94,215.46,115.67,195.04,526.17,Single-ply,SBD,M
Boys,74.84,4,Keyshawn Adams,Kountze,74.42,201.85,127.01,197.31,526.17,Single-ply,SBD,M
Boys,74.84,5,David Fulcher,Coldspring-Oakhurst,73.5,201.85,124.74,188.24,514.83,Single-ply,SBD,M
Boys,74.84,6,Kyle Carillo,El Maton Tidehaven,73.09,195.04,97.52,213.19,505.76,Single-ply,SBD,M
Boys,74.84,7,Kristian Paulette,Newton,72.17,192.78,113.4,197.31,503.49,Single-ply,SBD,M
Boys,74.84,8,Jared Hatcher,Buna,72.64,176.9,115.67,167.83,460.4,Single-ply,SBD,M
Boys,74.84,9,Larry Lawson,Corrigan-Camden,73.07,172.37,99.79,185.97,458.13,Single-ply,SBD,M
Boys,74.84,DQ,Luke Harms,Vanderbilt Industrial,73.99,,,,,Single-ply,SBD,M
Boys,,NS,Matthew Anderson,Saratoga West Hardin,,,,,,Single-ply,SBD,M
Boys,,NS,Wyatt Jackson,Colmesneil,,,,,,Single-ply,SBD,M
Boys,82.1,1,Dominic Garcia,Palacios,81.69,240.4,136.08,235.87,612.35,Single-ply,SBD,M
Boys,82.1,2,Kobe Blackmon,Van Vleck,77.18,204.12,147.42,226.8,578.33,Single-ply,SBD,M
Boys,82.1,3,Randy Williams,Hitchcock,79.87,215.46,122.47,208.65,546.58,Single-ply,SBD,M
Boys,82.1,4,Jatorian Travis,El Maton Tidehaven,80.32,199.58,136.08,199.58,535.24,Single-ply,SBD,M
Boys,82.1,5,Brad Barry,Kountze,81.67,195.04,117.93,215.46,528.44,Single-ply,SBD,M
Boys,82.1,6,Bryson Thomas,Newton,78.15,181.44,122.47,206.38,510.29,Single-ply,SBD,M
Boys,82.1,7,Elery Alexander,Van Vleck,78.93,181.44,111.13,208.65,501.22,Single-ply,SBD,M
Boys,82.1,8,Michael Flores,Palacios,79.87,188.24,95.25,181.44,464.93,Single-ply,SBD,M
Boys,82.1,9,Riley Orn,Coldspring-Oakhurst,81.2,176.9,111.13,170.1,458.13,Single-ply,SBD,M
Boys,82.1,10,Kyle Mikes,East Bernard,81.71,151.95,124.74,179.17,455.86,Single-ply,SBD,M
Boys,82.1,DQ,Nicholas Martinez,Van Vleck,81.24,,,,,Single-ply,SBD,M
Boys,,NS,Jadarian McGraw,Newton,,,,,,Single-ply,SBD,M
Boys,,NS,Jaden Bishop,La Marque,,,,,,Single-ply,SBD,M
Boys,89.81,1,Jeff Williams,El Maton Tidehaven,88.5,226.8,183.7,254.01,664.51,Single-ply,SBD,M
Boys,89.81,2,Danny Rodriguez #2,Palacios,86.7,272.16,147.42,224.53,644.1,Single-ply,SBD,M
Boys,89.81,3,Rashad Tolbert,Van Vleck,87.1,244.94,149.69,233.6,628.23,Single-ply,SBD,M
Boys,89.81,4,Elijah Edwards,Palacios,87.6,183.7,142.88,244.94,571.53,Single-ply,SBD,M
Boys,89.81,5,Darwin Barlow,Newton,84.96,197.31,124.74,247.21,569.26,Single-ply,SBD,M
Boys,89.81,6,Linje Ramey,Hitchcock,85.28,217.72,136.08,215.46,569.26,Single-ply,SBD,M
Boys,89.81,7,Deviun Kenebrew,Newton,86.82,181.44,108.86,254.01,544.31,Single-ply,SBD,M
Boys,89.81,8,Malik Holmes,La Marque,84.88,206.38,124.74,208.65,539.77,Single-ply,SBD,M
Boys,89.81,9,Adam Nguyen,Palacios,86.25,222.26,111.13,195.04,528.44,Single-ply,SBD,M
Boys,89.81,10,Braden Fitzgerald,El Maton Tidehaven,84.84,174.63,106.59,199.58,480.81,Single-ply,SBD,M
Boys,89.81,DQ,Christian Montemayor,Van Vleck,85.78,,,,,Single-ply,SBD,M
Boys,,NS,Colton Kopeski,Hardin,,,,,,Single-ply,SBD,M
Boys,99.79,1,Elijah Gooden,Boling,95.32,299.37,185.97,278.96,764.3,Single-ply,SBD,M
Boys,99.79,2,Cesar Jimenez,Palacios,96.62,215.46,129.27,226.8,571.53,Single-ply,SBD,M
Boys,99.79,3,Marcus Fabela,Buna,93.03,226.8,124.74,213.19,564.72,Single-ply,SBD,M
Boys,99.79,4,Ethan Shaeffer,Buna,92.58,213.19,129.27,219.99,562.45,Single-ply,SBD,M
Boys,99.79,5,Malcolm Chaisson,Ganado,97.07,226.8,108.86,219.99,555.65,Single-ply,SBD,M
Boys,99.79,6,Dylan Broussard,Anahuac,97.57,199.58,133.81,217.72,551.11,Single-ply,SBD,M
Boys,99.79,7,Kyler Loftin,Warren,99.36,226.8,120.2,204.12,551.11,Single-ply,SBD,M
Boys,99.79,8,Jackson Engel,Palacios,92.58,204.12,111.13,204.12,519.36,Single-ply,SBD,M
Boys,99.79,DQ,Isaiah Montes,Louise,92.54,226.8,117.93,,,Single-ply,SBD,M
Boys,99.79,DQ,Jose Haro,Boling,96.67,,,,,Single-ply,SBD,M
Boys,,NS,Jj Gutierrez,Hitchcock,,,,,,Single-ply,SBD,M
Boys,99.79,DQ,Ethan Benestante,Coldspring-Oakhurst,90.79,,,,,Single-ply,SBD,M
Boys,109.77,1,Xavian Hampton,Hitchcock,108.86,317.51,163.29,276.69,757.5,Single-ply,SBD,M
Boys,109.77,2,Evander Williams,Newton,107.64,274.42,136.08,249.48,659.98,Single-ply,SBD,M
Boys,109.77,3,Miguel Montes,Louise,104.37,272.16,138.35,242.67,653.17,Single-ply,SBD,M
Boys,109.77,4,Larry Krushall,Boling,108.01,249.48,170.1,224.53,644.1,Single-ply,SBD,M
Boys,109.77,5,Patrick Davis,Newton,105.74,242.67,127.01,210.92,580.6,Single-ply,SBD,M
Boys,109.77,6,Sean Patsfield,Deweyville,107.54,226.8,122.47,226.8,576.06,Single-ply,SBD,M
Boys,109.77,7,Charlie Tabares,Van Vleck,108.05,195.04,145.15,226.8,566.99,Single-ply,SBD,M
Boys,109.77,8,Jaedon Hinchliffe,Palacios,105.72,204.12,122.47,215.46,542.04,Single-ply,SBD,M
Boys,109.77,9,Glenn Bingham,Buna,105.25,240.4,136.08,163.29,539.77,Single-ply,SBD,M
Boys,109.77,10,Richard Rodriguez,Boling,101.61,226.8,111.13,167.83,505.76,Single-ply,SBD,M
Boys,109.77,DQ,Brandon Hoskins,Anahuac,105.7,199.58,151.95,,,Single-ply,SBD,M
Boys,,NS,Antwaine Hunter,Newton,,,,,,Single-ply,SBD,M
Boys,124.74,1,Jose Avalos,Louise,124.74,303.91,167.83,226.8,698.53,Single-ply,SBD,M
Boys,124.74,2,Robert Martinez,Louise,124.33,265.35,142.88,238.14,646.37,Single-ply,SBD,M
Boys,124.74,3,Elijah Mason,Hitchcock,121.57,249.48,136.08,208.65,594.21,Single-ply,SBD,M
Boys,124.74,4,Kaegan Childree,Winnie East Chambers,113.4,224.53,120.2,192.78,537.51,Single-ply,SBD,M
Boys,124.74,5,Montreal Jones,Kountze,122.94,206.38,111.13,215.46,532.97,Single-ply,SBD,M
Boys,124.74,6,Colten Williams,Saratoga West Hardin,113.89,226.8,108.86,167.83,503.49,Single-ply,SBD,M
Boys,124.74,7,William Orozco,Anahuac,124.74,183.7,120.2,185.97,489.88,Single-ply,SBD,M
Boys,124.74,8,Kyle Fregia,Hull-Daisetta,120.7,190.51,108.86,181.44,480.81,Single-ply,SBD,M
Boys,124.74,9,Dylan Reeves,Kirbyville,116.94,195.04,90.72,183.7,469.47,Single-ply,SBD,M
Boys,124.74,10,Morgan Neuman,Edna,119.78,195.04,90.72,174.63,460.4,Single-ply,SBD,M
Boys,124.74,DQ,Dakota Ford,Hull-Daisetta,117.06,233.6,136.08,,,Single-ply,SBD,M
Boys,124.74,DQ,Sterling Mack,La Marque,118.57,161.03,106.59,,,Single-ply,SBD,M
Boys,,NS,Colton Liles,Kirbyville,,,,,,Single-ply,SBD,M
Boys,124.74+,1,Collin Chesson,Saratoga West Hardin,128.82,297.1,197.31,256.28,750.7,Single-ply,SBD,M
Boys,124.74+,2,Joel Wamget,Van Vleck,143.35,283.5,199.58,242.67,725.75,Single-ply,SBD,M
Boys,124.74+,3,Wyatt Neuman,Edna,125.7,260.82,147.42,226.8,635.03,Single-ply,SBD,M
Boys,124.74+,4,Yavin Shankle,Newton,138.98,244.94,136.08,229.06,610.08,Single-ply,SBD,M
Boys,124.74+,5,Fred Kuykendall,Boling,152.43,263.08,124.74,215.46,603.28,Single-ply,SBD,M
Boys,124.74+,6,Alex Smith,Anahuac,146.07,215.46,158.76,224.53,598.74,Single-ply,SBD,M
Boys,124.74+,7,Gustavo Cruz,Hitchcock,128.82,249.48,142.88,204.12,596.47,Single-ply,SBD,M
Boys,124.74+,8,Wyatt Burgess,Hardin,144.31,244.94,124.74,213.19,582.87,Single-ply,SBD,M
Boys,124.74+,9,Jacob Hall,Hull-Daisetta,126.11,235.87,129.27,195.04,560.19,Single-ply,SBD,M
Boys,124.74+,10,Ryan Birchum,El Maton Tidehaven,155.14,213.19,136.08,204.12,553.38,Single-ply,SBD,M
Boys,124.74+,DQ,Marlon Ford,La Marque,159.27,,,,,Single-ply,SBD,M
Boys,124.74+,DQ,Robert Turpin,Woodville,139.31,229.06,113.4,,,Single-ply,SBD,M
Boys,124.74+,DQ,Hunter Belesky,Saratoga West Hardin,179.17,,,,,Single-ply,SBD,M
