Place,Sex,Name,Event,Division,WeightClassKg,Equipment,BodyweightKg,Squat1Kg,Squat2Kg,Squat3Kg,Best3SquatKg,Bench1Kg,Bench2Kg,Bench3Kg,Best3BenchKg,Deadlift1Kg,Deadlift2Kg,Deadlift3Kg,Best3DeadliftKg,TotalKg,BirthYear
1,M,Bruce Swanson,B,M-O,105,Single-ply,103.3,,,,,185,200,-210,200,,,,,200,1990
2,M,Cary Soloyna,B,M-O,105,Single-ply,105,,,,,145,155,-160,155,,,,,155,1975
1,M,Anton Vilensky,SBD,M-O,59,Single-ply,57.8,47.5,57.5,62.5,62.5,35,-40,-40,35,62.5,67.5,77.5,77.5,175,2001
DQ,M,Jon Maneen,SBD,M-O,59,Single-ply,58.8,145,152.5,,152.5,-130,-130,-130,,185,190,195,195,,
1,M,Nicholas Chuldzinski,SBD,M-O,74,Single-ply,73.7,155,170,187.5,187.5,95,105,-112.5,105,197.5,215,-227.5,215,507.5,
2,M,Bradley Gregg,SBD,M-O,74,Single-ply,73.2,160,175,180,180,107.5,-115,117.5,117.5,187.5,202.5,207.5,207.5,505,1987
3,M,Caleb Smith,SBD,M-O,74,Single-ply,73.6,145,155,-160,155,105,115,122.5,122.5,190,210,217.5,217.5,495,1993
4,M,Carmelo Costa Jr,SBD,M-O,74,Single-ply,71.5,160,165,172.5,172.5,107.5,110,-115,110,185,192.5,205,205,487.5,1985
5,M,Jason Koney,SBD,M-O,74,Single-ply,70.6,120,130,137.5,137.5,127.5,137.5,145,145,157.5,-172.5,,157.5,440,1989
6,M,Josh Kraskin,SBD,M-O,74,Single-ply,73.4,-125,-135,135,135,105,-112.5,-117.5,105,165,-185,187.5,187.5,427.5,
1,M,Ben Cass,SBD,M-O,83,Single-ply,81,195,205,212.5,212.5,145,155,-157.5,155,227.5,240,250,250,617.5,1990
2,M,Devon Smith,SBD,M-O,83,Single-ply,81.5,192.5,202.5,212.5,212.5,142.5,-147.5,-147.5,142.5,240,-250,-250,240,595,1991
3,M,Tom Gregg,SBD,M-O,83,Single-ply,82.2,170,180,-182.5,180,140,147.5,-150,147.5,205,217.5,-227.5,217.5,545,1985
4,M,Jay Russell,SBD,M-O,83,Single-ply,80.6,177.5,185,195,195,117.5,125,-130,125,192.5,207.5,-227.5,207.5,527.5,1990
5,M,Thomas Gaboardi,SBD,M-O,83,Single-ply,82.9,155,-162.5,-172.5,155,112.5,127.5,137.5,137.5,185,207.5,-215,207.5,500,1994
6,M,Vadim Vilensky,SBD,M-O,83,Single-ply,81.6,135,145,150,150,110,117.5,122.5,122.5,180,200,-205,200,472.5,1968
7,M,Anthony Stryharz,SBD,M-O,83,Single-ply,82.9,145,155,167.5,167.5,87.5,-92.5,-92.5,87.5,172.5,-180,180,180,435,
1,M,Jeff Miller,SBD,M-O,93,Single-ply,90.1,185,192.5,-202.5,192.5,-155,162.5,167.5,167.5,235,250,272.5,272.5,632.5,1984
2,M,Michael Sapudar,SBD,M-O,93,Single-ply,90.9,195,210,222.5,222.5,137.5,145,-152.5,145,230,242.5,-255,242.5,610,1986
3,M,Frank Salvaggio,SBD,M-O,93,Single-ply,91.9,165,177.5,185,185,127.5,137.5,-140,137.5,225,235,242.5,242.5,565,1985
4,M,Andrew Rowback,SBD,M-O,93,Single-ply,91.7,145,165,175,175,140,-147.5,152.5,152.5,212.5,227.5,-245,227.5,555,1989
5,M,Josh Shaw,SBD,M-O,93,Single-ply,93,175,190,200,200,115,125,-130,125,190,205,215,215,540,1979
6,M,Edward Dombrowski,SBD,M-O,93,Single-ply,89.3,135,142.5,145,145,92.5,-100,-100,92.5,,112.5,,112.5,350,1986
7,M,Jim Van Allen,SBD,M-O,93,Single-ply,89.3,25,,,25,25,,,25,75,,,75,125,
1,M,Chris Kelly,SBD,M-O,105,Single-ply,97.4,220,230,235,235,-180,187.5,-190,187.5,250,265,-275,265,687.5,1991
2,M,Jeffery Collado,SBD,M-O,105,Single-ply,99.4,200,210,222.5,222.5,-115,122.5,-130,122.5,245,260,272.5,272.5,617.5,
3,M,Kevin Carter,SBD,M-O,105,Single-ply,100.2,182.5,192.5,200,200,145,147.5,150,150,-235,237.5,-245,237.5,587.5,1962
4,M,Andrew Obergfell,SBD,M-O,105,Single-ply,101.7,160,175,187.5,187.5,125,135,-142.5,135,210,225,-230,225,547.5,1990
DQ,M,Adolfo Conca,SBD,M-O,105,Single-ply,99.5,205,217.5,227.5,227.5,-162.5,-162.5,-162.5,,252.5,260,-265,260,,1989
1,M,Matt Pietrantonio,SBD,M-O,120,Single-ply,115.1,187.5,197.5,-205,197.5,150,-155,-155,150,197.5,207.5,215,215,562.5,
2,M,Ben Cole,SBD,M-O,120,Single-ply,115.5,-162.5,172.5,182.5,182.5,-115,122.5,127.5,127.5,197.5,215,-227.5,215,525,1996
3,M,Frank Panaro,SBD,M-O,120,Single-ply,107,75,,,75,75,,,75,75,,,75,225,1951
1,M,Jan Daurio,SBD,M-O,120+,Single-ply,127.8,185,-190,-192.5,185,-165,170,-177.5,170,230,240,-250,240,595,1970
1,F,Katia Porretta,SBD,F-O,52,Single-ply,50.5,80,85,90,90,55,60,65,65,102.5,110,115,115,270,1974
2,F,Dipika Mistry,SBD,F-O,52,Single-ply,48.2,45,52.5,-57.5,52.5,27.5,-35,-35,27.5,95,107.5,-112.5,107.5,187.5,1968
1,F,Jessica Farrell,SBD,F-O,57,Single-ply,56.5,100,105,-107.5,105,57.5,60,62.5,62.5,97.5,100,105,105,272.5,1987
1,F,Stephanie Adamski,SBD,F-O,63,Single-ply,60.9,100,-105,-105,100,67.5,70,-75,70,110,117.5,122.5,122.5,292.5,1984
2,F,Catlyn Comstock,SBD,F-O,63,Single-ply,61.6,92.5,97.5,102.5,102.5,57.5,62.5,-67.5,62.5,107.5,115,122.5,122.5,287.5,1985
1,F,Helen Koya,SBD,F-O,72,Single-ply,64.1,-122.5,122.5,130,130,67.5,70,-72.5,70,170,177.5,-182.5,177.5,377.5,1985
2,F,Francine Lee,SBD,F-O,72,Single-ply,65.2,-60,62.5,67.5,67.5,45,50,-55,50,95,-110,110,110,227.5,1961
1,F,Heather Osswald,SBD,F-O,84+,Single-ply,115,130,145,-152.5,145,77.5,85,-87.5,85,155,165,172.5,172.5,402.5,1985
DQ,M,Joe Denardo,SBD,M-O,105,Single-ply,94.4,-25,,,,,,,,192.5,202.5,,202.5,,
